{
  "operationConfig" : {
    "name" : "generateSendOTP6006",
    "type" : "MappedToBackend",
    "cachable" : false,
    "smsEnabled" : false,
    "security" : "public",
    "responseEncoding" : "UTF-8",
    "httpMethod" : "GET",
    "decodeResponseBody" : false,
    "iMapping" : "<?xml version=\"1.0\" encoding=\"UTF-8\" standalone=\"yes\"?><mapper xmlns=\"http://www.kony.com/ns/mapper\">              <map inputpath=\"request_in\" outputpath=\"request_out\">                            <set-param inputpath=\"P_IS_SILENT\" outputpath=\"P_IS_SILENT\"/>                            <set-param inputpath=\"P_ALERT_ID\" outputpath=\"P_ALERT_ID\"/>                            <set-param inputpath=\"P_ALERT_INS_TIME\" outputpath=\"P_ALERT_INS_TIME\"/>                            <set-param inputpath=\"otp\" outputpath=\"otp\"/>                            <set-param inputpath=\"language\" outputpath=\"language\"/>                            <set-param inputpath=\"otplength\" outputpath=\"otplength\"/>                            <set-param inputpath=\"P_ALERT_PRIORITY\" outputpath=\"P_ALERT_PRIORITY\"/>                            <set-param inputpath=\"resendflag\" outputpath=\"resendflag\"/>                            <set-param inputpath=\"P_COUNTRY_CODE\" outputpath=\"P_COUNTRY_CODE\"/>                            <set-param inputpath=\"P_SILENT_FROM\" outputpath=\"P_SILENT_FROM\"/>                            <set-param inputpath=\"P_LANGUAGE\" outputpath=\"P_LANGUAGE\"/>                            <set-param inputpath=\"custId\" outputpath=\"custId\"/>                            <set-param inputpath=\"P_SOURCE\" outputpath=\"P_SOURCE\"/>                            <set-param inputpath=\"otpMaxLimit\" outputpath=\"otpMaxLimit\"/>                            <set-param inputpath=\"otpType\" outputpath=\"otpType\"/>                            <set-param inputpath=\"otpMessage\" outputpath=\"otpMessage\"/>                            <set-param inputpath=\"P_SILENT_TO\" outputpath=\"P_SILENT_TO\"/>              </map></mapper>",
    "applyCommonMapping" : true,
    "backendMeta" : {
      "serviceVersion" : "1.0",
      "operationName" : "generateSendOTP",
      "serviceName" : "OTPController"
    },
    "relationshipHierarchyMapping" : {
      "children" : [ ],
      "name" : "User",
      "selected" : true
    },
    "requestXmlMappingOverride" : true,
    "responseXmlMappingOverride" : true
  }
}