{
    "DNDConfig": null,
    "__parentReadjusting__": false,
    "_height_": {
        "type": "string",
        "value": "70%"
    },
    "_left_": {
        "type": "string",
        "value": "0dp"
    },
    "_margin_": [
        0,
        0,
        0,
        0
    ],
    "_orientation_": 6,
    "_padding_": [
        0,
        0,
        0,
        0
    ],
    "_percent_": true,
    "_skin_": "s388f0c575ef4d08ac3a5ed0a4b90085",
    "_top_": {
        "type": "string",
        "value": "70dp"
    },
    "_width_": {
        "type": "string",
        "value": "100%"
    },
    "allboxes": [],
    "autogrowmode": 0,
    "canUpdateUI": true,
    "children": [
        "lblCardCancellationDesc",
        "flxCardReason",
        "flxDeliveryBranch",
        "flxBorderDeliveryBranch",
        "flxBorderTransferType",
        "flxCardCancellationOptions"
    ],
    "clipbounds": true,
    "containerweight": 100,
    "enablescrolling": true,
    "id": "flxCardCancel",
    "info": null,
    "isvisible": true,
    "kuid": "f691d8bb5ba44de5919fe02e38cb03a9",
    "layouttype": 2,
    "name": "kony.ui.FlexContainer",
    "parent": "frmCancelCardKA",
    "pf": "frmCancelCardKA",
    "snapgridsize": 10,
    "snaptogrid": true,
    "wType": "FlexContainer",
    "widgetalignment": 1,
    "zindex": 1
}