{
    "@class": "com.kony.gen.viz.model.component.KVizButton",
    "DNDConfig": null,
    "__markedForDelete__": true,
    "_margin_": [
        5,
        2,
        5,
        2
    ],
    "_padding_": [
        1,
        1,
        1,
        1
    ],
    "_skin_": "s064afd968c64abb94c8e379d3f4c61f",
    "_text_": "",
    "canUpdateUI": true,
    "containerWeightLocked": false,
    "containerweight": 50,
    "contentalignment": 5,
    "displaytext": true,
    "focusskin": "s17e292d54bd48bd8bd8a070c6c1819a",
    "hexpand": true,
    "id": "btnOkay",
    "info": null,
    "isvisible": true,
    "kuid": "he1f20b901d246b38a158eb734e353ac",
    "name": "kony.ui.Button",
    "paddInPixel": [
        5.88,
        5.88,
        5.88,
        5.88
    ],
    "paddinginpixel": false,
    "parent": "hbxTwoButtons",
    "pf": "popupCommonAlert",
    "texti18n": "i18n.NUO.OKay",
    "vexpand": false,
    "wType": "Button"
}