{
  "operationConfig" : {
    "name" : "GetQuickAccessList5235",
    "type" : "MappedToBackend",
    "cachable" : false,
    "smsEnabled" : false,
    "security" : "public",
    "responseEncoding" : "UTF-8",
    "httpMethod" : "GET",
    "decodeResponseBody" : false,
    "iMapping" : "<?xml version=\"1.0\" encoding=\"UTF-8\" standalone=\"yes\"?><mapper xmlns=\"http://www.kony.com/ns/mapper\">    <map inputpath=\"request_in\" outputpath=\"request_out\">        <set-param inputpath=\"custId\" outputpath=\"custId\"/>        <set-param inputpath=\"Language\" outputpath=\"language\"/>    </map></mapper>",
    "oMapping" : "<?xml version=\"1.0\" encoding=\"UTF-8\" standalone=\"yes\"?><mapper xmlns=\"http://www.kony.com/ns/mapper\">    <map inputpath=\"response_in\" outputpath=\"response_out\">        <set-param inputpath=\"statusCode\" outputpath=\"statusCode\"/>        <set-param inputpath=\"statusType\" outputpath=\"statusType\"/>        <set-param inputpath=\"statusMessage\" outputpath=\"statusMessage\"/>        <set-param inputpath=\"DeviceList\" outputpath=\"DeviceList\"/>    </map></mapper>",
    "applyCommonMapping" : false,
    "backendMeta" : {
      "serviceVersion" : "1.0",
      "operationName" : "GetQuickAccessList",
      "serviceName" : "BOJRestServices"
    },
    "relationshipHierarchyMapping" : {
      "children" : [ ],
      "name" : "DeviceRegistration",
      "selected" : true
    },
    "requestXmlMappingOverride" : true,
    "responseXmlMappingOverride" : true
  }
}