{
  "operationConfig" : {
    "name" : "setResetPin8092",
    "type" : "MappedToBackend",
    "cachable" : false,
    "smsEnabled" : false,
    "security" : "public",
    "responseEncoding" : "UTF-8",
    "httpMethod" : "GET",
    "decodeResponseBody" : false,
    "iMapping" : "<?xml version=\"1.0\" encoding=\"UTF-8\" standalone=\"yes\"?><mapper xmlns=\"http://www.kony.com/ns/mapper\">  <map inputpath=\"request_in\" outputpath=\"request_out\">    <set-param inputpath=\"FlowFlag\" outputpath=\"FlowFlag\"/>    <set-param inputpath=\"custId\" outputpath=\"custId\"/>    <set-param inputpath=\"pin_pass\" outputpath=\"pin_pass\"/>    <set-param inputpath=\"confirm_pin_pass\" outputpath=\"confirm_pin_pass\"/>    <set-param inputpath=\"Language\" outputpath=\"Language\"/>    <set-param inputpath=\"Token\" outputpath=\"Token\"/>    <set-param inputpath=\"deviceId\" outputpath=\"deviceId\"/>  </map></mapper>",
    "oMapping" : "<?xml version=\"1.0\" encoding=\"UTF-8\" standalone=\"yes\"?><mapper xmlns=\"http://www.kony.com/ns/mapper\">  <map inputpath=\"response_in\" outputpath=\"response_out\">    <set-param inputpath=\"statusCode\" outputpath=\"statusCode\"/>    <set-param inputpath=\"statusType\" outputpath=\"statusType\"/>    <set-param inputpath=\"statusMessage\" outputpath=\"statusMessage\"/>  </map></mapper>",
    "applyCommonMapping" : true,
    "backendMeta" : {
      "serviceVersion" : "1.0",
      "operationName" : "setResetPin",
      "serviceName" : "BOJRestServices"
    },
    "relationshipHierarchyMapping" : {
      "children" : [ ],
      "name" : "DeviceRegistration",
      "selected" : true
    },
    "requestXmlMappingOverride" : true,
    "responseXmlMappingOverride" : true
  }
}