{
    "@class": "com.kony.gen.viz.model.component.KVizButton",
    "DNDConfig": null,
    "__parentReadjusting__": false,
    "_bottom_": {
        "type": "string",
        "value": "15%"
    },
    "_height_": {
        "type": "string",
        "value": "80%"
    },
    "_margin_": [
        6,
        6,
        6,
        6
    ],
    "_padding_": [
        0,
        0,
        0,
        0
    ],
    "_skin_": "s51d68053cae4eba826625de179be4ae",
    "_text_": "",
    "_width_": {
        "type": "string",
        "value": "40%"
    },
    "canUpdateUI": true,
    "centerx": {
        "type": "string",
        "value": "75.00%"
    },
    "centery": {
        "type": "string",
        "value": "50.18%"
    },
    "containerweight": 100,
    "contentalignment": 5,
    "displaytext": true,
    "focusskin": "s9dd8fe1ab7b4f26aad257d210a41f6e",
    "id": "btnDelete",
    "ide_onClick": "AS_Button_id652e2d02824b64a1b92e2741e0cb2c",
    "info": null,
    "iphone": {
        "psp": {
            "showProgressIndicator": false
        }
    },
    "isvisible": true,
    "kuid": "b07e89a7f9754ba3bb673e1923c04748",
    "name": "kony.ui.Button",
    "parent": "flxbottomContainer",
    "pf": "frmPinEntryStep1",
    "texti18n": "i18n.Messages.Delete",
    "wType": "Button",
    "zindex": 1
}