{
    "@class": "com.kony.gen.viz.model.component.KVizButton",
    "DNDConfig": null,
    "__parentReadjusting__": false,
    "_height_": {
        "type": "string",
        "value": "75dp"
    },
    "_margin_": [
        6,
        6,
        6,
        6
    ],
    "_padding_": [
        0,
        0,
        0,
        0
    ],
    "_skin_": "s3ab10e73bc24d3687ec37d64d30f97c",
    "_text_": "5",
    "_top_": {
        "type": "string",
        "value": "27.50%"
    },
    "_width_": {
        "type": "string",
        "value": "75dp"
    },
    "canUpdateUI": true,
    "centerx": {
        "type": "string",
        "value": "50%"
    },
    "containerweight": 100,
    "contentalignment": 5,
    "disabledSkins": {},
    "displaytext": true,
    "focusskin": "s91eeaf3bdbd49be8c430a952a997520",
    "id": "btnFive",
    "ide_onClick": "AS_Button_4aa5fc82a93145a4b707109a79ac12bf",
    "info": null,
    "isvisible": true,
    "kuid": "5a5738b0ed2346febf7d973b427a5b24",
    "name": "kony.ui.Button",
    "parent": "flxDialPad",
    "pf": "frmLoginKA",
    "wType": "Button",
    "zindex": 1
}