{
    "@class": "com.kony.gen.viz.model.component.KVizButton",
    "DNDConfig": null,
    "__parentReadjusting__": false,
    "_height_": {
        "type": "string",
        "value": "9%"
    },
    "_margin_": [
        6,
        6,
        6,
        6
    ],
    "_padding_": [
        0,
        0,
        0,
        0
    ],
    "_skin_": "s51d68053cae4eba826625de179be4ae",
    "_text_": "",
    "_top_": {
        "type": "string",
        "value": "20%"
    },
    "_width_": {
        "type": "string",
        "value": "80%"
    },
    "canUpdateUI": true,
    "centerx": {
        "type": "string",
        "value": "50%"
    },
    "containerweight": 100,
    "contentalignment": 5,
    "displaytext": true,
    "focusskin": "s6e8459b84e349d98629a088bbfe1304",
    "id": "btnRetry",
    "info": null,
    "isvisible": false,
    "kuid": "dc6a20ed7bf14c4589cad7855b03c38d",
    "name": "kony.ui.Button",
    "parent": "loginFacialAuthScreen2",
    "pf": "frmLoginKA",
    "wType": "Button",
    "zindex": 1
}