{
    "@class": "com.kony.gen.viz.model.component.KVizButton",
    "DNDConfig": null,
    "__parentReadjusting__": false,
    "_height_": {
        "type": "string",
        "value": "75dp"
    },
    "_margin_": [
        6,
        6,
        6,
        6
    ],
    "_padding_": [
        0,
        0,
        0,
        0
    ],
    "_right_": {
        "type": "string",
        "value": "7%"
    },
    "_skin_": "s3ab10e73bc24d3687ec37d64d30f97c",
    "_text_": "3",
    "_top_": {
        "type": "string",
        "value": "1.96%"
    },
    "_width_": {
        "type": "string",
        "value": "75dp"
    },
    "canUpdateUI": true,
    "centerx": {
        "type": "string",
        "value": "78%"
    },
    "containerweight": 100,
    "contentalignment": 5,
    "disabledSkins": {},
    "displaytext": true,
    "focusskin": "s91eeaf3bdbd49be8c430a952a997520",
    "id": "btnThree",
    "ide_onClick": "AS_Button_2b6802318f874b53abd83abdb115149a",
    "info": null,
    "isvisible": true,
    "kuid": "ee81099260d84db6822a77c6e973402b",
    "name": "kony.ui.Button",
    "parent": "flxDialPad",
    "pf": "frmLoginKA",
    "wType": "Button",
    "zindex": 1
}