{
    "@class": "com.kony.gen.viz.model.component.KVizButton",
    "DNDConfig": null,
    "__parentReadjusting__": false,
    "_height_": {
        "type": "string",
        "value": "50dp"
    },
    "_left_": {
        "type": "string",
        "value": "27dp"
    },
    "_margin_": [
        6,
        6,
        6,
        6
    ],
    "_padding_": [
        0,
        0,
        0,
        0
    ],
    "_skin_": "s72aa67130df495faae6089692441de7",
    "_text_": "Button",
    "_top_": {
        "type": "string",
        "value": "511dp"
    },
    "_width_": {
        "type": "string",
        "value": "300dp"
    },
    "canUpdateUI": true,
    "containerweight": 100,
    "contentalignment": 5,
    "displaytext": true,
    "focusskin": "s10149300144466da99cbf92f4fdacc8",
    "id": "Button0ha32c927279247",
    "info": null,
    "iscustomlayout": false,
    "isvisible": true,
    "kuid": "e13de96069464993ae44087f2cdd0525",
    "name": "kony.ui.Button",
    "parent": "frmLoginKA",
    "pf": "frmLoginKA",
    "retaincontentalignment": false,
    "retainflexpositionproperties": false,
    "wType": "Button",
    "zindex": 1000
}