{
    "@class": "com.kony.gen.viz.model.component.KVizButton",
    "DNDConfig": null,
    "__parentReadjusting__": false,
    "_height_": {
        "type": "string",
        "value": "9%"
    },
    "_margin_": [
        6,
        6,
        6,
        6
    ],
    "_padding_": [
        0,
        0,
        0,
        0
    ],
    "_render_": true,
    "_skin_": "s51d68053cae4eba826625de179be4ae",
    "_text_": "",
    "_top_": {
        "type": "string",
        "value": "3%"
    },
    "_width_": {
        "type": "string",
        "value": "75%"
    },
    "android": {
        "render": true
    },
    "canUpdateUI": true,
    "centerx": {
        "type": "string",
        "value": "50.03%"
    },
    "containerweight": 100,
    "contentalignment": 5,
    "disabledSkins": {},
    "displaytext": true,
    "focusskin": "s51d68053cae4eba826625de179be4ae",
    "id": "CopyaccountPreviewButton0e6f20970abfd40",
    "ide_onClick": "AS_Button_67a0d29f0fd947068f4afea2c5778d2c",
    "info": null,
    "iphone": {
        "psp": {
            "showProgressIndicator": false
        },
        "render": true
    },
    "isvisible": true,
    "kuid": "af7e703bafc0425091cea6bf3d6ad4c0",
    "name": "kony.ui.Button",
    "onclick": "AS_Button_67a0d29f0fd947068f4afea2c5778d2c",
    "parent": "accountPreviewScreen",
    "pf": "frmLoginKA",
    "showprogressindicator": false,
    "spaan": {
        "render": true
    },
    "spabb": {
        "render": true
    },
    "spaip": {
        "render": true
    },
    "spawinphone8": {
        "render": true
    },
    "texti18n": "i18n.login.loginToMobileBank",
    "vizProps": {
        "hide": false
    },
    "wType": "Button",
    "winphone8": {
        "render": true
    },
    "zindex": 9
}