{
    "@class": "com.kony.gen.viz.model.component.KVizButton",
    "DNDConfig": null,
    "__parentReadjusting__": false,
    "_height_": {
        "type": "ref",
        "value": "preferred"
    },
    "_margin_": [
        6,
        6,
        6,
        6
    ],
    "_padding_": [
        0,
        0,
        0,
        0
    ],
    "_skin_": "s57b429732a44cda9291b8ac6c1ff5d2",
    "_text_": "",
    "_width_": {
        "type": "ref",
        "value": "preferred"
    },
    "canUpdateUI": true,
    "centerx": {
        "type": "string",
        "value": "50%"
    },
    "centery": {
        "type": "string",
        "value": "50%"
    },
    "containerweight": 100,
    "contentalignment": 5,
    "displaytext": true,
    "focusskin": "s856b27ab6cf46699cae7d22df13f953",
    "id": "forgotpassword",
    "ide_onClick": "AS_Button_hac60c00e8d14eecb5e8a6e5f0c36b36",
    "info": null,
    "iphone": {
        "psp": {
            "showProgressIndicator": false
        }
    },
    "isvisible": true,
    "kuid": "85ba0acdc98b486395788ebbe9c94424",
    "name": "kony.ui.Button",
    "onclick": "AS_Button_1678b00677844bbe8b7de53086dba31d",
    "parent": "flxForgotP",
    "pf": "frmLoginKA",
    "showprogressindicator": false,
    "texti18n": "i18n.common.ForUnamPwd",
    "wType": "Button",
    "zindex": 202
}