{
    "@class": "com.kony.gen.viz.model.component.KVizLabel",
    "DNDConfig": null,
    "__parentReadjusting__": false,
    "_height_": {
        "type": "string",
        "value": "100%"
    },
    "_margin_": [
        1,
        1,
        1,
        1
    ],
    "_padding_": [
        0,
        0,
        0,
        0
    ],
    "_skin_": "s82d79605bbc4b9b80dc11f7718fb010",
    "_text_": "O",
    "_top_": {
        "type": "string",
        "value": "10%"
    },
    "_width_": {
        "type": "string",
        "value": "25%"
    },
    "_wrapping_": 2,
    "android": {
        "textStyle": {
            "letterSpacing": 0,
            "strikeThrough": false
        }
    },
    "canUpdateUI": true,
    "containerweight": 100,
    "contentalignment": 5,
    "id": "lblClosePass",
    "ide_onTouchEnd": "AS_Label_d89074e7a6fe4dafa25e561aa2b3dfb4",
    "info": null,
    "ipad": {
        "psp": {
            "wrapping": 2
        }
    },
    "iphone": {
        "psp": {
            "wrapping": 2
        }
    },
    "isvisible": false,
    "kuid": "gbcbf7e4bff34273a0c362e5a29b8721",
    "name": "kony.ui.Label",
    "parent": "flxIconsNewPassword",
    "pf": "frmLoginKA",
    "textstyle": {},
    "tooltip": "",
    "wType": "Label",
    "zindex": 20
}