{
    "@class": "com.kony.gen.viz.model.component.KVizTextBox2",
    "DNDConfig": null,
    "__parentReadjusting__": false,
    "_bottom_": {
        "type": "string",
        "value": "0%"
    },
    "_height_": {
        "type": "string",
        "value": "60%"
    },
    "_left_": {
        "type": "string",
        "value": "2%"
    },
    "_margin_": [
        0,
        0,
        0,
        0
    ],
    "_padding_": [
        0,
        0,
        0,
        0
    ],
    "_placeholder_": "",
    "_skin_": "s029998596d3421892d0917ea7492e1d",
    "_text_": "",
    "_width_": {
        "type": "string",
        "value": "110%"
    },
    "android": {
        "ide_onBeginEditing": "AS_TextField_dfc9bf669f264c949603888b212615d8",
        "ide_onEndEditing": "AS_TextField_j946ec6c3c5041d99332dc2944a5175d",
        "onBeginEditing": "AS_TextField_0ec8acaeaaa8431fab61144b4f8d1810",
        "psp": {
            "keyboardActionLabel": 4
        }
    },
    "autocapitalize": "none",
    "autocomplete": false,
    "autocorrect": false,
    "autofilter": false,
    "canUpdateUI": true,
    "closebuttontext": "Done",
    "containerheight": "",
    "containerheightmode": 1,
    "containerweight": 100,
    "contentalignment": 4,
    "enabled": false,
    "focusskin": "s029998596d3421892d0917ea7492e1d",
    "id": "usernameTextField",
    "ide_onDone": "AS_TextField_05e969d7d53544a8b170674133f57f6b",
    "ide_onTextChange": "AS_TextField_eec07e64210c45bdb69a6c2f04c442cc",
    "ide_onTouchEnd": "AS_TextField_gde2330ca7cd4c42b5eb5dda0d1bc028",
    "ide_onTouchStart": "AS_TextField_aa9aca97808947a396553184c773c344",
    "info": null,
    "iphone": {
        "ide_onBeginEditing": "AS_TextField_gfa2f2c86581414c9fd63b9786d7eab4",
        "ide_onEndEditing": "AS_TextField_ja0784d976eb44f9ac55454325b7e09f",
        "onBeginEditing": "AS_TextField_32ddb481785c4a579adf600bb4a4d307",
        "psp": {
            "keyboardActionLabel": 4,
            "pasteboardType": 4,
            "showClearButton": false,
            "showCloseButton": false,
            "showProgressIndicator": false
        }
    },
    "isvisible": false,
    "keyboardactionlabel": 1,
    "keyboardtype": "A",
    "kuid": "ddab072f379d4493a80329baca1192b9",
    "maxtextlength": 20,
    "mode": "A",
    "name": "kony.ui.TextBox2",
    "ondone": "AS_TextField_ddebbadfde0d4ca9b4bdec27efc8708e",
    "parent": "usernameContainer",
    "pasteboardtype": 1,
    "pf": "frmLoginKA",
    "placeholderskin": "sfa36c5ffd8f4b39894ae352f59c3406",
    "securetextentry": false,
    "showclearbutton": true,
    "showclosebutton": false,
    "showoprogressindicator": false,
    "textinputmode": "A",
    "viewtype": "default",
    "wType": "TextField",
    "zindex": 20
}