{
    "@class": "com.kony.gen.viz.model.component.KVizButton",
    "DNDConfig": null,
    "__parentReadjusting__": false,
    "_height_": {
        "type": "string",
        "value": "100%"
    },
    "_margin_": [
        6,
        6,
        6,
        6
    ],
    "_padding_": [
        0,
        0,
        0,
        0
    ],
    "_right_": {
        "type": "string",
        "value": "6%"
    },
    "_skin_": "sfdddcea6cff4d788f42120343a323ef",
    "_text_": "d",
    "_top_": {
        "type": "string",
        "value": "2%"
    },
    "_width_": {
        "type": "string",
        "value": "94%"
    },
    "canUpdateUI": true,
    "containerweight": 100,
    "contentalignment": 6,
    "displaytext": true,
    "focusskin": "sfdddcea6cff4d788f42120343a323ef",
    "id": "btnDropDownAccount",
    "ide_onClick": "AS_Button_b61f936dc80b4c2b89cea606fa60497c",
    "info": null,
    "iphone": {
        "psp": {
            "showProgressIndicator": false
        }
    },
    "isvisible": true,
    "kuid": "af9f3c4355eb4833a6b2fe04e51c3b1a",
    "name": "kony.ui.Button",
    "parent": "flxAccountType",
    "pf": "frmJoMoPay",
    "wType": "Button",
    "zindex": 3
}