{
  "appleprodmode" : "true",
  "android" : {
    "key" : "AIzaSyCGMSdaEFg9AzUUhMjRJ4ErhQRPgcfpVG8"
  },
  "ipadDevCertNameModified" : false,
  "ipadProdCertNameModified" : false,
  "iphoneDevCertNameModified" : false,
  "iphoneProdCertNameModified" : false
}