{
    "DNDConfig": null,
    "_height_": {
        "type": "string",
        "value": "49dp"
    },
    "_margin_": [
        0,
        0,
        0,
        0
    ],
    "_padding_": [
        0,
        0,
        0,
        0
    ],
    "_render_": true,
    "_skin_": "s77117634aa14e58908cea4332c51ada",
    "allboxes": [],
    "android": {
        "render": false
    },
    "autogrowmode": 0,
    "canUpdateUI": true,
    "children": [
        "FlexContainer0c6e533ec2e5d48",
        "CopyFlexContainer02d619202407a4e",
        "FlxBot",
        "CopyFlexContainer0dceea0807f8140",
        "CopyFlexContainer0419cabfa34b74c"
    ],
    "clipbounds": false,
    "containerId": true,
    "containerweight": 100,
    "enabled": false,
    "enablescrolling": true,
    "id": "CopytabBarBackground0473dca30560f40",
    "info": null,
    "iphone": {
        "render": true
    },
    "isvisible": true,
    "kuid": "ac81839540ac49a1acccb8c4af9bb857",
    "layouttype": 3,
    "name": "kony.ui.FlexContainer",
    "orientation": 6,
    "parent": "tabBarTransfer",
    "percent": true,
    "pf": "tabBarTransfer",
    "snapgridsize": 10,
    "snaptogrid": true,
    "spaan": {
        "render": false
    },
    "spabb": {
        "render": false
    },
    "spaip": {
        "render": true
    },
    "spawinphone8": {
        "render": false
    },
    "wType": "FlexContainer",
    "widgetalignment": 1,
    "winphone8": {
        "render": false
    }
}