{
  "operationConfig" : {
    "name" : "prGetExchRates2014",
    "type" : "MappedToBackend",
    "cachable" : false,
    "smsEnabled" : false,
    "security" : "authorized_app_user",
    "responseEncoding" : "UTF-8",
    "httpMethod" : "GET",
    "decodeResponseBody" : false,
    "iMapping" : "<?xml version=\"1.0\" encoding=\"UTF-8\" standalone=\"yes\"?><mapper xmlns=\"http://www.kony.com/ns/mapper\">                <map inputpath=\"request_in\" outputpath=\"request_out\">                                <set-param inputpath=\"usr\" outputpath=\"usr\"/>                                <set-param inputpath=\"pass\" outputpath=\"pass\"/>                </map></mapper>",
    "oMapping" : "<?xml version=\"1.0\" encoding=\"UTF-8\" standalone=\"yes\"?><mapper xmlns=\"http://www.kony.com/ns/mapper\">                      <map inputpath=\"response_in\" outputpath=\"response_out\">                                            <set-param inputpath=\"statusType\" outputpath=\"statusType\"/>                                            <set-param inputpath=\"statusMessage\" outputpath=\"statusMessage\"/>                                            <set-param inputpath=\"statusCode\" outputpath=\"statusCode\"/>                                            <set-param inputpath=\"CurrencyMain\" outputpath=\"CurrencyMain\"/>                            </map></mapper>",
    "applyCommonMapping" : false,
    "backendMeta" : {
      "serviceVersion" : "1.0",
      "operationName" : "prGetExchRates",
      "serviceName" : "BOJGetExchRates"
    },
    "relationshipHierarchyMapping" : {
      "children" : [ ],
      "name" : "ExchangeRates",
      "selected" : true
    },
    "requestXmlMappingOverride" : true,
    "responseXmlMappingOverride" : true
  }
}