{
    "@class": "com.kony.gen.viz.model.component.KVizButton",
    "DNDConfig": null,
    "__markedForDelete__": true,
    "__parentReadjusting__": false,
    "_height_": {
        "type": "string",
        "value": "94%"
    },
    "_left_": {
        "type": "string",
        "value": "55%"
    },
    "_margin_": [
        6,
        6,
        6,
        6
    ],
    "_padding_": [
        0,
        0,
        0,
        0
    ],
    "_skin_": "s8d342c3911c433cad890481f4580c1a",
    "_text_": "ACCEPT",
    "_width_": {
        "type": "string",
        "value": "40%"
    },
    "canUpdateUI": true,
    "centery": {
        "type": "string",
        "value": "50%"
    },
    "containerweight": 100,
    "contentalignment": 5,
    "disabledSkins": {},
    "displaytext": true,
    "focusskin": "s2e6eaf0cd6840388ef419e676898162",
    "id": "enableTouchID",
    "ide_onClick": "AS_Button_jf7795884a904c3ea40d1bbb1b464901",
    "info": null,
    "iphone": {
        "psp": {
            "showProgressIndicator": false
        }
    },
    "isvisible": true,
    "kuid": "9c9edaf22d3c468eb110d07b3c7f24b2",
    "name": "kony.ui.Button",
    "onclick": "AS_Button_b9bdaa9f9f044b07a3cc0b9a37121d52",
    "parent": "FlexContainer0a0f9bf90d35346",
    "pf": "frmTermsAndConditionsKA",
    "showprogressindicator": false,
    "texti18n": "i18n.common.btnAccept",
    "wType": "Button",
    "zindex": 1
}