{
    "@class": "com.kony.gen.viz.model.component.KVizButton",
    "DNDConfig": null,
    "__markedForDelete__": true,
    "__parentReadjusting__": false,
    "_height_": {
        "type": "string",
        "value": "50%"
    },
    "_left_": {
        "type": "string",
        "value": "0%"
    },
    "_margin_": [
        6,
        6,
        6,
        6
    ],
    "_padding_": [
        0,
        0,
        0,
        0
    ],
    "_skin_": "sfdddcea6cff4d788f42120343a323ef",
    "_text_": "d",
    "_top_": {
        "type": "string",
        "value": "35%"
    },
    "_width_": {
        "type": "string",
        "value": "100%"
    },
    "canUpdateUI": true,
    "containerweight": 100,
    "contentalignment": 6,
    "displaytext": true,
    "focusskin": "s10149300144466da99cbf92f4fdacc8",
    "id": "btnDepositPeriod",
    "info": null,
    "isvisible": true,
    "kuid": "f487d50222734e3886fdf652610e66b4",
    "name": "kony.ui.Button",
    "parent": "flxDepositPeriod",
    "pf": "frmOpenTermDeposit",
    "wType": "Button",
    "zindex": 1
}