{
    "@class": "com.kony.gen.viz.model.component.KVizButton",
    "DNDConfig": null,
    "__markedForDelete__": true,
    "__parentReadjusting__": false,
    "_height_": {
        "type": "string",
        "value": "70%"
    },
    "_left_": {
        "type": "string",
        "value": "1%"
    },
    "_margin_": [
        6,
        6,
        6,
        6
    ],
    "_padding_": [
        0,
        0,
        0,
        0
    ],
    "_skin_": "s17e292d54bd48bd8bd8a070c6c1819a",
    "_text_": "",
    "_top_": {
        "type": "string",
        "value": "5%"
    },
    "_width_": {
        "type": "string",
        "value": "49%"
    },
    "canUpdateUI": true,
    "containerweight": 100,
    "contentalignment": 5,
    "displaytext": true,
    "focusskin": "sbe1e969bc9948e288db010580bd90b0",
    "id": "btnOnMaturity",
    "ide_onClick": "AS_Button_db628fb56f274f69b10607565c2296a9",
    "info": null,
    "isvisible": true,
    "kuid": "ed43daf8bfdb400e968d6ba490682762",
    "name": "kony.ui.Button",
    "parent": "flxInterestPayableSelects",
    "pf": "frmOpenTermDeposit",
    "texti18n": "i18n.termDeposit.inOnMaturity",
    "wType": "Button",
    "zindex": 1
}