{
    "@class": "com.kony.gen.viz.model.component.KVizVideo",
    "DNDConfig": null,
    "__parentReadjusting__": false,
    "_controls_": false,
    "_height_": {
        "type": "string",
        "value": "100%"
    },
    "_left_": {
        "type": "string",
        "value": "0dp"
    },
    "_margin_": [
        0,
        0,
        0,
        0
    ],
    "_padding_": [
        0,
        0,
        0,
        0
    ],
    "_poster_": "tran.png",
    "_skin_": "sdb0068649e445d6b57f404cda8861c6",
    "_source_": {
        "mp4": ""
    },
    "_text_": "",
    "_top_": {
        "type": "string",
        "value": "0dp"
    },
    "_volume_": 1,
    "_width_": {
        "type": "string",
        "value": "100%"
    },
    "android": {
        "ide_onCompletion": "AS_Video_f9d8e3f5a48644139d95d9e420528693",
        "ide_onPrepared": "AS_Video_h296d8234712437291c488cb7183c55e",
        "onCompletion": "AS_Video_b586f2c6c3ab43d8b4d2721e05b51edc",
        "source": {
            "mp4": "boj_splash.mp4"
        }
    },
    "canUpdateUI": true,
    "containerweight": 100,
    "desktopweb": {
        "psp": {
            "render": true
        }
    },
    "id": "vdoSplash",
    "info": null,
    "iphone": {
        "ide_onCompletion": "AS_Video_id036a0eb569434e976af47e55a02f8f",
        "ide_onPrepared": "AS_Video_ic2321187e0a4a568abd2adf0adced66",
        "onCompletion": "AS_Video_b586f2c6c3ab43d8b4d2721e05b51edc",
        "source": {
            "mp4": "boj_splash.mp4"
        }
    },
    "isvisible": true,
    "kiosk": {
        "render": false
    },
    "kuid": "ea21eab85c3f4e20a5fa3aaa0c474111",
    "name": "kony.ui.Video",
    "parent": "frmSplash",
    "pf": "frmSplash",
    "spa": {
        "psp": {
            "render": true
        }
    },
    "wType": "Video",
    "watchos": {
        "render": false
    },
    "windows8": {
        "render": false
    },
    "winphone8": {
        "render": false
    },
    "zindex": 1
}