{
    "@class": "com.kony.gen.viz.model.component.KVizLabel",
    "DNDConfig": null,
    "__markedForDelete__": true,
    "__parentReadjusting__": false,
    "_height_": {
        "type": "ref",
        "value": "preferred"
    },
    "_left_": {
        "type": "string",
        "value": "4%"
    },
    "_margin_": [
        1,
        1,
        1,
        1
    ],
    "_padding_": [
        0,
        0,
        10,
        0
    ],
    "_right_": {
        "type": "string",
        "value": "5dp"
    },
    "_skin_": "s6a93cf15e1c44e0ba4042cb31918653",
    "_text_": "Find near by ATM",
    "_width_": {
        "type": "string",
        "value": "75dp"
    },
    "_wrapping_": 2,
    "android": {
        "textStyle": {
            "letterSpacing": 0,
            "strikeThrough": false
        }
    },
    "canUpdateUI": true,
    "centery": {
        "type": "string",
        "value": "50%"
    },
    "containerweight": 100,
    "contentalignment": 4,
    "id": "lblFindATM",
    "info": null,
    "ipad": {
        "psp": {
            "wrapping": 2
        }
    },
    "iphone": {
        "psp": {
            "wrapping": 2
        }
    },
    "isvisible": true,
    "kuid": "ef5ec42ca8b04f32bf3cd82e7b39ae32",
    "name": "kony.ui.Label",
    "paddinginpixel": false,
    "parent": "flxFindATM",
    "pf": "frmRecentTransactionDetailsKA",
    "texti18n": "i18n.cashWithdraw.findnearbyatm",
    "tooltip": "",
    "wType": "Label",
    "zindex": 1
}