{
    "@class": "com.kony.gen.viz.model.container.KVizScrollFlexForm",
    "DNDConfig": null,
    "_footers_": [],
    "_margin_": [
        0,
        0,
        0,
        0
    ],
    "_padding_": [
        0,
        0,
        0,
        0
    ],
    "_skin_": "saccb95b58984589af381140b9870839",
    "_title_": "",
    "addWidgetsdone": false,
    "allboxes": [],
    "allowhorizontalbounce": false,
    "allowverticalbounce": false,
    "android": {
        "ide_onDeviceBack": "AS_Form_5d4e7e18f49f46b79c0b03b71dd2d62a",
        "needAppMenu": false,
        "psp": {
            "onDeviceMenu": "AS_Form_54dc6a8b490c4606ac3aeb4fcc7e6d97"
        }
    },
    "bounces": false,
    "canUpdateUI": true,
    "children": [
        "mainSearch"
    ],
    "configurestatusbarstyle": true,
    "containerweight": 100,
    "currentLocale": "en",
    "desktopweb": {
        "needAppMenu": false
    },
    "device": "GalaxyS5",
    "displayorientation": 1,
    "enabled": false,
    "enabledforidletimeout": true,
    "enablescrolling": false,
    "footer": "frmSearchResultsKA_footer",
    "headeroverlap": true,
    "id": "frmSearchResultsKA",
    "info": null,
    "initdone": false,
    "inputaccessoryviewtype": 4,
    "invokedProperty": "footers",
    "ipad": {
        "psp": {
            "inputAccessoryViewType": 4
        }
    },
    "iphone": {
        "needAppMenu": false,
        "psp": {
            "configureStatusBarStyle": true,
            "inputAccessoryViewType": 4,
            "statusBarHidden": false,
            "statusBarStyle": "STATUS_BAR_STYLE_LIGHT_CONTENT",
            "titleBarAttributes": {
                "barStyle": 0,
                "hidesBackButton": true,
                "kuid": "de1ff5e8f653414880a92bede39288a4",
                "leftBarButtonItems": [
                    {
                        "kuid": "b88702bb332c46fd8cae91003e0c20d4",
                        "leftButtonText": "Back",
                        "leftTitle": "Back",
                        "prevFormTitle": false,
                        "titleBarLeftSideView": "button",
                        "titleClosureLeftSideView": "",
                        "type": 4
                    }
                ],
                "leftItemsSupplementBackButton": true,
                "prompt": "",
                "renderTitleText": true,
                "rightBarButtonItems": [],
                "tintColor": "33333300",
                "translucent": true
            }
        },
        "titleBar": false
    },
    "isvisible": true,
    "kuid": "c0c324792a474a0fb5c1fbb09304b98a",
    "layouttype": 2,
    "name": "kony.ui.Form2",
    "needappmenu": true,
    "orientation": 1,
    "paddinginpixel": false,
    "percent": true,
    "platform": "android",
    "preshow": "AS_Form_b9767f89fce9418a9c3ed671cc11915b",
    "prevDevice": "iPhone6",
    "prevPlatform": "iphone",
    "retainscrollposition": true,
    "shellCSS": "and_GalaxyS5",
    "snapgridsize": 10,
    "snaptogrid": true,
    "spaan": {
        "needAppMenu": false
    },
    "spabb": {
        "needAppMenu": false
    },
    "spaip": {
        "needAppMenu": false
    },
    "spawinphone8": {
        "needAppMenu": false
    },
    "statusbarstyle": "STATUS_BAR_STYLE_LIGHT_CONTENT",
    "titleBarSkin": "sbb144e8d4534362b06a39a6ca1a445d",
    "titlebar": true,
    "type": 3,
    "wType": "Form",
    "winphone8": {
        "needAppMenu": false
    }
}