{
    "DNDConfig": null,
    "_height_": {
        "type": "string",
        "value": "100dp"
    },
    "_margin_": [
        0,
        0,
        0,
        0
    ],
    "_padding_": [
        0,
        0,
        0,
        0
    ],
    "_width_": {
        "type": "string",
        "value": "100%"
    },
    "allboxes": [],
    "autogrowmode": 0,
    "canUpdateUI": true,
    "children": [
        "informationListDivider",
        "informationListIcon",
        "informationListLabel",
        "addressLine1",
        "addressLine2",
        "distanceLabel",
        "rightChevron1"
    ],
    "clipbounds": true,
    "containerId": true,
    "containerweight": 100,
    "enabled": false,
    "enablescrolling": true,
    "id": "CopyFBox02b498f6048be4e",
    "info": null,
    "isGeneratedTemplate": true,
    "isTemplate": true,
    "isvisible": true,
    "kuid": "78aa0aab9c4245c7888ba19252c78bd8",
    "layouttype": 2,
    "name": "kony.ui.FlexContainer",
    "orientation": 6,
    "percent": true,
    "pf": "CopyFBox02b498f6048be4e",
    "snapgridsize": 10,
    "snaptogrid": true,
    "wType": "FlexContainer",
    "widgetalignment": 1
}