{
    "@class": "com.kony.gen.viz.model.component.KVizButton",
    "DNDConfig": null,
    "__parentReadjusting__": false,
    "_height_": {
        "type": "string",
        "value": "50dp"
    },
    "_left_": {
        "type": "string",
        "value": "0dp"
    },
    "_margin_": [
        6,
        6,
        6,
        6
    ],
    "_padding_": [
        0,
        0,
        0,
        0
    ],
    "_skin_": "s42097848aa844c9a25e6237b1b50a5b",
    "_text_": "",
    "_top_": {
        "type": "string",
        "value": "0dp"
    },
    "_width_": {
        "type": "string",
        "value": "50dp"
    },
    "canUpdateUI": true,
    "containerweight": 100,
    "contentalignment": 5,
    "displaytext": true,
    "focusskin": "s86cba35d2a34a219807da2b84f4f553",
    "id": "backButton",
    "ide_onClick": "AS_Button_59e60cb6c1c34ce78aeef2841b99e475",
    "info": null,
    "iphone": {
        "psp": {
            "showProgressIndicator": false
        }
    },
    "isvisible": true,
    "kuid": "21a7a2d8f14b4cf0b1e836c6028d8ccb",
    "name": "kony.ui.Button",
    "onclick": "AS_Button_4573034ed42a45cf94fb36bccc37bb10",
    "parent": "iosTitleBar",
    "pf": "frmRecentDepositKA",
    "showprogressindicator": false,
    "wType": "Button",
    "zindex": 1
}