{
  "operationConfig" : {
    "name" : "getAccountFeatures8331",
    "type" : "MappedToBackend",
    "cachable" : false,
    "smsEnabled" : false,
    "security" : "authorized_app_user",
    "responseEncoding" : "UTF-8",
    "httpMethod" : "GET",
    "decodeResponseBody" : false,
    "iMapping" : "<?xml version=\"1.0\" encoding=\"UTF-8\" standalone=\"yes\"?><mapper xmlns=\"http://www.kony.com/ns/mapper\">  <map inputpath=\"request_in\" outputpath=\"request_out\">    <set-param inputpath=\"accountTypeId\" outputpath=\"accountTypeId\"/>  </map></mapper>",
    "oMapping" : "<?xml version=\"1.0\" encoding=\"UTF-8\" standalone=\"yes\"?><mapper xmlns=\"http://www.kony.com/ns/mapper\">  <map inputpath=\"response_in\" outputpath=\"response_out\">    <map inputpath=\"AccountFeatures\" outputpath=\"AccountFeatures\">      <set-param inputpath=\"features\" outputpath=\"features\"/>      <set-param inputpath=\"rates\" outputpath=\"rates\"/>      <set-param inputpath=\"info\" outputpath=\"info\"/>      <set-param inputpath=\"termsAndConditions\" outputpath=\"termsAndConditions\"/>    </map>    <set-param inputpath=\"errmsg\" outputpath=\"errmsg\"/>  </map></mapper>",
    "applyCommonMapping" : true,
    "backendMeta" : {
      "serviceVersion" : "1.0",
      "operationName" : "getAccountFeatures",
      "serviceName" : "RetailBankingBEServices"
    },
    "relationshipHierarchyMapping" : {
      "children" : [ ],
      "name" : "AccountFeatures",
      "selected" : true
    },
    "requestXmlMappingOverride" : false,
    "responseXmlMappingOverride" : false
  }
}