{
    "@class": "com.kony.gen.viz.model.component.KVizButton",
    "DNDConfig": null,
    "__parentReadjusting__": false,
    "_bottom_": {
        "type": "string",
        "value": "5%"
    },
    "_height_": {
        "type": "string",
        "value": "9%"
    },
    "_margin_": [
        6,
        6,
        6,
        6
    ],
    "_padding_": [
        0,
        0,
        0,
        0
    ],
    "_skin_": "sf7766faf6e34d0789442a84c1e76e1a",
    "_text_": "",
    "_top_": {
        "type": "string",
        "value": "75%"
    },
    "_width_": {
        "type": "string",
        "value": "45%"
    },
    "android": {
        "psp": {
            "pressedSkin": "sad5d6d4890b44858a39e4bf8a290332"
        }
    },
    "canUpdateUI": true,
    "centerx": {
        "type": "string",
        "value": "50%"
    },
    "containerweight": 100,
    "contentalignment": 5,
    "disabledSkins": {},
    "displaytext": true,
    "focusskin": "sad5d6d4890b44858a39e4bf8a290332",
    "id": "btnUpdateLimit",
    "ide_onClick": "AS_Button_b3d0beb15e1a459a8138ffd38aa49a29",
    "info": null,
    "isvisible": true,
    "kuid": "be07da1161e147eab0edb6ad3f6b7a38",
    "name": "kony.ui.Button",
    "parent": "flxBody",
    "pf": "frmUserSettingsSiri",
    "texti18n": "i18n.Siri.siri4",
    "wType": "Button"
}