{
    "@class": "com.kony.gen.viz.model.component.KVizButton",
    "DNDConfig": null,
    "__parentReadjusting__": false,
    "_height_": {
        "type": "string",
        "value": "38dp"
    },
    "_margin_": [
        6,
        6,
        6,
        6
    ],
    "_padding_": [
        0,
        0,
        0,
        0
    ],
    "_skin_": "s51d68053cae4eba826625de179be4ae",
    "_text_": "MAP",
    "_top_": {
        "type": "string",
        "value": "14dp"
    },
    "_width_": {
        "type": "string",
        "value": "80%"
    },
    "canUpdateUI": true,
    "centerx": {
        "type": "string",
        "value": "50.00%"
    },
    "containerweight": 100,
    "contentalignment": 5,
    "disabledSkins": {},
    "displaytext": true,
    "focusskin": "sbe13586f59d4a768bfe23c1b619f8c6",
    "id": "signInButton",
    "ide_onClick": "AS_Button_d8d9cafbbc444d47af671a8d5632ef9c",
    "info": null,
    "iphone": {
        "psp": {
            "showProgressIndicator": false
        }
    },
    "isvisible": true,
    "kuid": "5178852754b24a848efb8606485d86a8",
    "name": "kony.ui.Button",
    "onclick": "AS_Button_5be6fadb298145d7b15d8be4b19e6dc9",
    "parent": "mainContent",
    "pf": "frmTransactionDetailKA",
    "showprogressindicator": false,
    "texti18n": "i18n.my_money.map",
    "wType": "Button",
    "zindex": 1
}