{
    "@class": "com.kony.gen.viz.model.component.KVizButton",
    "DNDConfig": null,
    "__parentReadjusting__": false,
    "_height_": {
        "type": "string",
        "value": "35dp"
    },
    "_margin_": [
        6,
        6,
        6,
        6
    ],
    "_padding_": [
        0,
        0,
        0,
        0
    ],
    "_skin_": "s94d80e187a44bd9bb9ce6db5e729010",
    "_text_": "Edit",
    "_top_": {
        "type": "string",
        "value": "5dp"
    },
    "_width_": {
        "type": "string",
        "value": "260dp"
    },
    "canUpdateUI": true,
    "centerx": {
        "type": "string",
        "value": "50%"
    },
    "containerweight": 100,
    "contentalignment": 5,
    "displaytext": true,
    "focusskin": "s6e8459b84e349d98629a088bbfe1304",
    "id": "CopybtnEditTranscation0a85b0932ffde4d",
    "ide_onClick": "AS_Button_bc19240db2904a37be83dc1379869b87",
    "info": null,
    "isvisible": false,
    "kuid": "c6762da2e57f4c5c9e910ee8efdad8c1",
    "name": "kony.ui.Button",
    "parent": "CopyFlexContainer0i17dd2c8b09a4d",
    "pf": "frmConfirmTransferKA",
    "wType": "Button",
    "zindex": 1
}