{
    "@class": "com.kony.gen.viz.model.component.KVizLabel",
    "DNDConfig": null,
    "__parentReadjusting__": false,
    "_height_": {
        "type": "string",
        "value": "100%"
    },
    "_margin_": [
        1,
        1,
        1,
        1
    ],
    "_padding_": [
        0,
        0,
        0,
        0
    ],
    "_skin_": "sc3f6592831d43b5964f136e413e976e",
    "_text_": "",
    "_width_": {
        "type": "string",
        "value": "70%"
    },
    "_wrapping_": 2,
    "canUpdateUI": true,
    "centerx": {
        "type": "string",
        "value": "49.97%"
    },
    "centery": {
        "type": "string",
        "value": "50.00%"
    },
    "containerweight": 100,
    "contentalignment": 5,
    "enabled": false,
    "id": "transferPayTitleLabel",
    "info": null,
    "ipad": {
        "psp": {
            "wrapping": 2
        }
    },
    "iphone": {
        "psp": {
            "wrapping": 2
        }
    },
    "isvisible": true,
    "kuid": "0a72fa82e7054631a3aa384e18fbe97c",
    "name": "kony.ui.Label",
    "parent": "titleBarWrapper",
    "pf": "frmConfirmTransferKA",
    "texti18n": "i18n.Transfer.ConfirmDet",
    "tooltip": "",
    "wType": "Label",
    "zindex": 2
}