{
    "@class": "com.kony.gen.viz.model.component.KVizLabel",
    "DNDConfig": null,
    "__parentReadjusting__": false,
    "_height_": {
        "type": "ref",
        "value": "preferred"
    },
    "_margin_": [
        1,
        1,
        1,
        1
    ],
    "_padding_": [
        0,
        0,
        0,
        0
    ],
    "_skin_": "s017d1a0aee6472ba43e0f6d39927313",
    "_text_": "You can login with PIN next time you sign in.",
    "_top_": {
        "type": "string",
        "value": "36dp"
    },
    "_width_": {
        "type": "string",
        "value": "90%"
    },
    "_wrapping_": 2,
    "android": {
        "textStyle": {
            "letterSpacing": 0,
            "strikeThrough": false
        }
    },
    "canUpdateUI": true,
    "centerx": {
        "type": "string",
        "value": "50%"
    },
    "containerweight": 100,
    "contentalignment": 5,
    "id": "lblFooterdesc3",
    "info": null,
    "ipad": {
        "psp": {
            "wrapping": 2
        }
    },
    "iphone": {
        "psp": {
            "wrapping": 2
        }
    },
    "isvisible": true,
    "kuid": "db2e82ccfc27470ea510878eeaf943e8",
    "name": "kony.ui.Label",
    "parent": "flxPINSuccess",
    "pf": "frmPinEntrySuccess",
    "tooltip": "",
    "wType": "Label",
    "zindex": 1
}