{
    "DNDConfig": null,
    "__parentReadjusting__": false,
    "_height_": {
        "type": "string",
        "value": "60dp"
    },
    "_left_": {
        "type": "string",
        "value": "0dp"
    },
    "_margin_": [
        0,
        0,
        0,
        0
    ],
    "_padding_": [
        0,
        0,
        0,
        0
    ],
    "_skin_": "sd9b412f3dbf437fbc39b0001f08338a",
    "_top_": {
        "type": "string",
        "value": "0dp"
    },
    "_width_": {
        "type": "string",
        "value": "100%"
    },
    "allboxes": [],
    "autogrowmode": 0,
    "canUpdateUI": true,
    "children": [
        "fromAccountNameContainer",
        "CopyborderBottom0f914e305289b4b",
        "editFromCard",
        "fromlblAccountNumberKA"
    ],
    "clipbounds": true,
    "containerweight": 100,
    "enabled": false,
    "enablescrolling": true,
    "focusskin": "s039b0db44684175898d2b36b25aa7d8",
    "id": "AccountTypePick",
    "info": null,
    "isvisible": false,
    "kuid": "052667441889447a8eb2a64c21c89f5a",
    "layouttype": 2,
    "name": "kony.ui.FlexContainer",
    "orientation": 6,
    "parent": "externalAccountTypeContainer",
    "percent": true,
    "pf": "frmAddExternalAccountKA",
    "snapgridsize": 10,
    "snaptogrid": true,
    "wType": "FlexContainer",
    "widgetalignment": 1,
    "zindex": 1
}