{
    "@class": "com.kony.gen.viz.model.component.KVizButton",
    "DNDConfig": null,
    "__parentReadjusting__": false,
    "_height_": {
        "type": "string",
        "value": "100%"
    },
    "_margin_": [
        6,
        6,
        6,
        6
    ],
    "_padding_": [
        0,
        0,
        0,
        0
    ],
    "_skin_": "s11bf16b2f204f8584ad51e44887c74d",
    "_text_": "BOJ",
    "_top_": {
        "type": "string",
        "value": "0dp"
    },
    "_width_": {
        "type": "string",
        "value": "33%"
    },
    "canUpdateUI": true,
    "centery": {
        "type": "string",
        "value": "50%"
    },
    "containerweight": 100,
    "contentalignment": 5,
    "displaytext": true,
    "focusskin": "s0eacd0585e64c81a58d225fcf6cd7c5",
    "id": "btnBOJ",
    "ide_onClick": "AS_Button_fc4ea37e0cd8476485dcf072a71a2e5c",
    "info": null,
    "isvisible": true,
    "kuid": "b54f499a35b24e4eb5a302d2ceb3e502",
    "name": "kony.ui.Button",
    "paddinginpixel": false,
    "parent": "flxContent",
    "pf": "frmAddExternalAccountKA",
    "texti18n": "i18n.Bene.BOJ",
    "wType": "Button",
    "zindex": 2
}