{
    "@class": "com.kony.gen.viz.model.component.KVizLabel",
    "DNDConfig": null,
    "__parentReadjusting__": false,
    "_height_": {
        "type": "string",
        "value": "32dp"
    },
    "_left_": {
        "type": "string",
        "value": "5%"
    },
    "_margin_": [
        1,
        1,
        1,
        1
    ],
    "_padding_": [
        0,
        0,
        0,
        0
    ],
    "_skin_": "sbcb6b10071c42cfa99d1352f532f823",
    "_text_": "Account Nick Name",
    "_top_": {
        "type": "string",
        "value": "10dp"
    },
    "_width_": {
        "type": "ref",
        "value": "preferred"
    },
    "_wrapping_": 2,
    "canUpdateUI": true,
    "containerweight": 100,
    "contentalignment": 6,
    "enabled": false,
    "id": "CopyLabel0f562082b4d5a4a",
    "info": null,
    "ipad": {
        "psp": {
            "wrapping": 2
        }
    },
    "iphone": {
        "psp": {
            "wrapping": 2
        }
    },
    "isvisible": true,
    "kuid": "624eede901f64c9abde9044360dfd783",
    "name": "kony.ui.Label",
    "parent": "CopyexternalAccountNameContainer03d9566d885a944",
    "pf": "frmAddExternalAccountKA",
    "texti18n": "i18n.account.accountNickName",
    "tooltip": "",
    "wType": "Label",
    "zindex": 1
}