{
    "@class": "com.kony.gen.viz.model.component.KVizListBox",
    "DNDConfig": null,
    "__parentReadjusting__": false,
    "_height_": {
        "type": "string",
        "value": "38dp"
    },
    "_margin_": [
        0,
        0,
        0,
        0
    ],
    "_padding_": [
        0,
        0,
        0,
        0
    ],
    "_skin_": "s59fdd04effa47a1bf146c2139ac0a73",
    "_top_": {
        "type": "string",
        "value": "35dp"
    },
    "_width_": {
        "type": "string",
        "value": "90%"
    },
    "canUpdateUI": true,
    "centerx": {
        "type": "string",
        "value": "50%"
    },
    "containerweight": 100,
    "contentalignment": 4,
    "context": {
        "channel": "mobile",
        "formID": "frmAddExternalAccountKA",
        "ispercent": true,
        "platform": "iphone",
        "templateType": "forms",
        "topLevelBox": null
    },
    "dropdownimage": "dropdown.png",
    "groupcells": false,
    "id": "ListCountryKA",
    "ide_onSelection": "AS_ListBox_d261bf65e17e49448939ff53a156e42c",
    "info": null,
    "isvisible": true,
    "kuid": "067f19fd941044eaa73daffdfa4068c6",
    "masterdata": [
        [
            "1",
            "India"
        ],
        [
            "2",
            "US"
        ],
        [
            "3",
            "Austin"
        ]
    ],
    "name": "kony.ui.ListBox",
    "parent": "externalAccountCountry",
    "pf": "frmAddExternalAccountKA",
    "selectedkeys": null,
    "selectedkeyvalue": null,
    "selectedkeyvalues": null,
    "size": 18,
    "viewconfig": {
        "toggleViewConfig": {
            "viewStyle": 0
        }
    },
    "viewtype": 0,
    "wType": "ListBox",
    "zindex": 1
}