{
    "@class": "com.kony.gen.viz.model.component.KVizButton",
    "DNDConfig": null,
    "__parentReadjusting__": false,
    "_height_": {
        "type": "string",
        "value": "42dp"
    },
    "_margin_": [
        6,
        6,
        6,
        6
    ],
    "_padding_": [
        0,
        0,
        0,
        0
    ],
    "_skin_": "s51d68053cae4eba826625de179be4ae",
    "_text_": "SAVE EXTERNAL ACCOUNT",
    "_top_": {
        "type": "string",
        "value": "24dp"
    },
    "_width_": {
        "type": "string",
        "value": "80%"
    },
    "canUpdateUI": true,
    "centerx": {
        "type": "string",
        "value": "50.00%"
    },
    "containerweight": 100,
    "contentalignment": 5,
    "disabledSkins": {},
    "displaytext": true,
    "focusskin": "sbe13586f59d4a768bfe23c1b619f8c6",
    "id": "saveExternalAccountButton",
    "ide_onClick": "AS_Button_7ea8bea45e4a4de2b921c7d6459843ca",
    "info": null,
    "iphone": {
        "psp": {
            "showProgressIndicator": false
        }
    },
    "isvisible": true,
    "kuid": "0d8049f44bdd4118b7d930a663cfafa8",
    "name": "kony.ui.Button",
    "onclick": "AS_Button_7ea8bea45e4a4de2b921c7d6459843ca",
    "parent": "CopybuttonWrapper076c20712f8344b",
    "pf": "frmAddExternalAccountKA",
    "showprogressindicator": false,
    "texti18n": "i18n.overview.saveExternalAccount",
    "wType": "Button",
    "zindex": 1
}