{
    "@class": "com.kony.gen.viz.model.component.KVizImage2",
    "DNDConfig": null,
    "__parentReadjusting__": false,
    "_base64_": null,
    "_height_": {
        "type": "string",
        "value": "40%"
    },
    "_margin_": [
        0,
        0,
        0,
        0
    ],
    "_padding_": [
        0,
        0,
        0,
        0
    ],
    "_render_": true,
    "_right_": {
        "type": "string",
        "value": "10dp"
    },
    "_skin_": "sa625024fef740fea5133ed43bbfac5f",
    "_src_": "checkbox_selected.png",
    "_top_": {
        "type": "string",
        "value": "25%"
    },
    "_width_": {
        "type": "string",
        "value": "10%"
    },
    "android": {
        "render": true
    },
    "canUpdateUI": true,
    "containerweight": 100,
    "context": {
        "channel": "mobile",
        "formID": "frmDeviceregistrarionSuccessKA",
        "ispercent": true,
        "platform": "iphone",
        "templateType": "forms",
        "topLevelBox": null
    },
    "id": "EnableFaceIdImg",
    "ide_onTouchEnd": "AS_Image_e67ee1a9029b46a6b24c7b6c4f41a01b",
    "imagescalemode": 1,
    "info": null,
    "invokedProperty": "src",
    "iphone": {
        "render": false
    },
    "isvisible": true,
    "kuid": "c682a09c8c4446c7befa3603157d90a4",
    "name": "kony.ui.Image2",
    "parent": "EnableFaceIdCheckBox",
    "pf": "frmDeviceregistrarionSuccessKA",
    "spaan": {
        "render": true
    },
    "spabb": {
        "render": true
    },
    "spaip": {
        "render": false
    },
    "spawinphone8": {
        "render": true
    },
    "srcType": 1,
    "wType": "Image",
    "widgetalignment": 5,
    "winphone8": {
        "render": true
    },
    "zindex": 1
}