{
    "@class": "com.kony.gen.viz.model.component.KVizSwitch",
    "DNDConfig": null,
    "__parentReadjusting__": false,
    "_height_": {
        "type": "string",
        "value": "32dp"
    },
    "_margin_": [
        0,
        0,
        0,
        0
    ],
    "_padding_": [
        0,
        0,
        0,
        0
    ],
    "_render_": true,
    "_right_": {
        "type": "string",
        "value": "0dp"
    },
    "_skin_": "s76ff61aef1d4b5b86c2641d87a9f5d0",
    "_top_": {
        "type": "string",
        "value": "4dp"
    },
    "_width_": {
        "type": "string",
        "value": "53dp"
    },
    "android": {
        "render": false
    },
    "canUpdateUI": true,
    "containerweight": 100,
    "id": "enableFaceIdSwitch",
    "ide_onTouchEnd": "AS_Switch_d9a9b3cc0c9d48278126fbfd89624f35",
    "info": null,
    "iphone": {
        "render": true
    },
    "isvisible": true,
    "kiosk": {
        "render": false
    },
    "kuid": "da38a9010a6d4e4f8957ca010802abf7",
    "leftsidetext": "ON",
    "name": "kony.ui.Switch",
    "osPlatform": "iphone",
    "osVersion": "iOS7",
    "parent": "EnableFaceIdCheckBox",
    "pf": "frmDeviceregistrarionSuccessKA",
    "rightsidetext": "OFF",
    "selectedindex": 0,
    "spaan": {
        "render": false
    },
    "spabb": {
        "render": false
    },
    "spaip": {
        "render": true
    },
    "spawinphone8": {
        "render": false
    },
    "tabrcandroid": {
        "render": false
    },
    "wType": "Switch",
    "widgetalignment": 5,
    "winphone8": {
        "render": false
    },
    "zindex": 1
}