{
    "@class": "com.kony.gen.viz.model.component.KVizButton",
    "DNDConfig": null,
    "__parentReadjusting__": false,
    "_height_": {
        "type": "string",
        "value": "25dp"
    },
    "_margin_": [
        6,
        6,
        6,
        6
    ],
    "_padding_": [
        0,
        0,
        0,
        0
    ],
    "_skin_": "s94d80e187a44bd9bb9ce6db5e729010",
    "_text_": "Do it Later",
    "_top_": {
        "type": "string",
        "value": "5%"
    },
    "_width_": {
        "type": "ref",
        "value": "preferred"
    },
    "canUpdateUI": true,
    "centerx": {
        "type": "string",
        "value": "50.00%"
    },
    "containerweight": 100,
    "contentalignment": 5,
    "displaytext": true,
    "focusskin": "s6e8459b84e349d98629a088bbfe1304",
    "id": "noThanks",
    "ide_onClick": "AS_Button_7555369e80e14c399577b5fc7b4298e3",
    "info": null,
    "iphone": {
        "psp": {
            "showProgressIndicator": false
        }
    },
    "isvisible": true,
    "kuid": "140137356d814764b33657643a34a939",
    "name": "kony.ui.Button",
    "onclick": "AS_Button_922c47fe95a640a0b96a9d201d7cf787",
    "parent": "flxPinAndTouchIdChoice",
    "pf": "frmDeviceregistrarionSuccessKA",
    "showprogressindicator": false,
    "wType": "Button",
    "zindex": 1
}