{
    "@class": "com.kony.gen.viz.model.component.KVizButton",
    "DNDConfig": null,
    "__parentReadjusting__": false,
    "_height_": {
        "type": "string",
        "value": "50dp"
    },
    "_margin_": [
        6,
        6,
        6,
        6
    ],
    "_padding_": [
        0,
        0,
        0,
        0
    ],
    "_skin_": "see68cd63ba243d98af2bd9f497e474c",
    "_text_": "H",
    "_width_": {
        "type": "string",
        "value": "100%"
    },
    "canUpdateUI": true,
    "centerx": {
        "type": "string",
        "value": "50%"
    },
    "centery": {
        "type": "string",
        "value": "50%"
    },
    "containerweight": 100,
    "contentalignment": 5,
    "disabledSkins": {},
    "displaytext": true,
    "focusskin": "see68cd63ba243d98af2bd9f497e474c",
    "id": "btnAccounts",
    "ide_onClick": "AS_Button_a7bc5540955d45ef9e50f6d9d87db20b",
    "info": null,
    "isvisible": true,
    "kuid": "f63c14c157d544debd3785edc6eb25ed",
    "name": "kony.ui.Button",
    "parent": "FlxAccounts",
    "pf": "frmJoMoPayLanding",
    "wType": "Button",
    "zindex": 1
}