{
    "@class": "com.kony.gen.viz.model.component.KVizButton",
    "DNDConfig": null,
    "__markedForDelete__": true,
    "__parentReadjusting__": false,
    "_bottom_": {
        "type": "string",
        "value": "10%"
    },
    "_height_": {
        "type": "string",
        "value": "80%"
    },
    "_margin_": [
        6,
        6,
        6,
        6
    ],
    "_padding_": [
        0,
        0,
        0,
        0
    ],
    "_skin_": "sf7766faf6e34d0789442a84c1e76e1a",
    "_text_": "",
    "_width_": {
        "type": "string",
        "value": "70%"
    },
    "canUpdateUI": true,
    "centerx": {
        "type": "string",
        "value": "50%"
    },
    "containerweight": 100,
    "contentalignment": 5,
    "displaytext": true,
    "focusskin": "sad5d6d4890b44858a39e4bf8a290332",
    "id": "btnAddJomoPayBene",
    "ide_onClick": "AS_Button_e40483c53dfd4e8d873ad5b73a137f5d",
    "info": null,
    "isvisible": true,
    "kuid": "e8984490c5e64f0fa198c00114a4ec85",
    "name": "kony.ui.Button",
    "parent": "flxAddBene",
    "pf": "frmJoMoPayLanding",
    "texti18n": "i18n.jomopay.sendtoother",
    "wType": "Button",
    "zindex": 2
}