{
    "@class": "com.kony.gen.viz.model.component.KVizTextBox2",
    "DNDConfig": null,
    "__markedForDelete__": true,
    "__parentReadjusting__": false,
    "_height_": {
        "type": "string",
        "value": "60%"
    },
    "_left_": {
        "type": "string",
        "value": "10%"
    },
    "_margin_": [
        0,
        0,
        0,
        0
    ],
    "_padding_": [
        3,
        0,
        0,
        0
    ],
    "_placeholder_": "Search",
    "_skin_": "sac0e30474b94a11a212b03515324871",
    "_text_": "",
    "_top_": {
        "type": "string",
        "value": "5%"
    },
    "_width_": {
        "type": "string",
        "value": "90%"
    },
    "android": {
        "psp": {
            "keyboardActionLabel": 12
        }
    },
    "autocapitalize": "none",
    "autocomplete": false,
    "autocorrect": false,
    "autofilter": false,
    "canUpdateUI": true,
    "containerheight": "",
    "containerheightmode": 1,
    "containerweight": 100,
    "contentalignment": 4,
    "id": "txtSearch1",
    "ide_onDone": "AS_TextField_ad7459f1814543e1bdaf62b5ac660924",
    "info": null,
    "iphone": {
        "psp": {
            "keyboardActionLabel": 1,
            "leftViewImage": "search_empty.png",
            "pasteboardType": 4,
            "showCloseButton": false,
            "showProgressIndicator": false
        }
    },
    "isvisible": false,
    "keyboardactionlabel": 3,
    "keyboardtype": "A",
    "kuid": "if85871375644bb4a70a33be0e9ad03d",
    "mode": "A",
    "name": "kony.ui.TextBox2",
    "parent": "flxSearch",
    "pasteboardtype": 4,
    "pf": "frmJoMoPayLanding",
    "placeholderi18n": "i18n.transfer.searchPlh",
    "placeholderskin": "s2484680d5974fa68d5a96a96c6b37b6",
    "securetextentry": false,
    "showoprogressindicator": false,
    "textinputmode": "A",
    "viewtype": "default",
    "wType": "TextField",
    "zindex": 2
}