{
    "@class": "com.kony.gen.viz.model.component.KVizButton",
    "DNDConfig": null,
    "__markedForDelete__": true,
    "__parentReadjusting__": false,
    "_height_": {
        "type": "string",
        "value": "100%"
    },
    "_left_": "0dp",
    "_margin_": [
        6,
        6,
        6,
        6
    ],
    "_padding_": [
        0,
        0,
        0,
        0
    ],
    "_skin_": "sd3a41987f644ccea1a1c110fa339c2d",
    "_text_": "",
    "_top_": "0dp",
    "_width_": {
        "type": "string",
        "value": "100%"
    },
    "canUpdateUI": true,
    "containerweight": 100,
    "contentalignment": 5,
    "displaytext": true,
    "focusskin": "s4a474f768d84d40a70f44c068b4940d",
    "id": "CopyMorebtn0ga05785316504f",
    "ide_onClick": "AS_Button_f3eb16184f5f4fda91b8b6c3208f8515",
    "info": null,
    "iphone": {
        "psp": {
            "showProgressIndicator": false
        }
    },
    "isvisible": true,
    "kuid": "a558eb0d38e7447fb02a050149baddbe",
    "name": "kony.ui.Button",
    "parent": "CopyflxMoreOption0jde7342b28be4c",
    "pf": "frmAccountDetailKA",
    "showprogressindicator": false,
    "wType": "Button",
    "zindex": 1
}