{
    "@class": "com.kony.gen.viz.model.component.KVizLabel",
    "DNDConfig": null,
    "__markedForDelete__": true,
    "__parentReadjusting__": false,
    "_bottom_": {
        "type": "string",
        "value": "10%"
    },
    "_height_": {
        "type": "string",
        "value": "39dp"
    },
    "_margin_": [
        1,
        1,
        1,
        1
    ],
    "_padding_": [
        0,
        0,
        0,
        0
    ],
    "_skin_": "s09477fbfb2f45048565b6d787d0cd37",
    "_text_": "More",
    "_top_": {
        "type": "string",
        "value": "9dp"
    },
    "_width_": {
        "type": "string",
        "value": "75%"
    },
    "_wrapping_": 2,
    "canUpdateUI": true,
    "centerx": {
        "type": "string",
        "value": "50%"
    },
    "containerweight": 100,
    "contentalignment": 2,
    "enabled": false,
    "id": "CopyMorelbl0d1c297a2203c4e",
    "info": null,
    "ipad": {
        "psp": {
            "wrapping": 2
        }
    },
    "iphone": {
        "psp": {
            "wrapping": 2
        }
    },
    "isvisible": true,
    "kuid": "j6a60805015545dfa3e4dee56cf05ed6",
    "name": "kony.ui.Label",
    "parent": "CopyMoreFlx0beff2abb5ebe49",
    "pf": "frmAccountDetailKA",
    "texti18n": "i18n.common.more",
    "tooltip": "",
    "wType": "Label",
    "zindex": 1
}