{
    "@class": "com.kony.gen.viz.model.component.KVizButton",
    "DNDConfig": null,
    "__markedForDelete__": true,
    "__parentReadjusting__": false,
    "_bottom_": {
        "type": "string",
        "value": "60px"
    },
    "_height_": {
        "type": "string",
        "value": "50dp"
    },
    "_left_": {
        "type": "number",
        "value": "135"
    },
    "_margin_": [
        6,
        6,
        6,
        6
    ],
    "_padding_": [
        0,
        0,
        0,
        0
    ],
    "_skin_": "s704ec7f0d694591906b2fe3828e4c9d",
    "_text_": "",
    "_width_": {
        "type": "string",
        "value": "50dp"
    },
    "canUpdateUI": true,
    "centerx": {
        "type": "string",
        "value": "50%"
    },
    "centery": {
        "type": "string",
        "value": "380dp"
    },
    "containerweight": 100,
    "contentalignment": 5,
    "displaytext": false,
    "focusskin": "s704ec7f0d694591906b2fe3828e4c9d",
    "id": "CopycollapseButton0a814bdeedcac42",
    "ide_onClick": "AS_Button_g90f06f5685c45c3a3418c8c1e9441f2",
    "info": null,
    "iphone": {
        "psp": {
            "showProgressIndicator": false
        }
    },
    "isvisible": true,
    "kuid": "f6812a0c358d4dffa6311b457ec22a46",
    "masterType": 1,
    "name": "kony.ui.Button",
    "parent": "CopyflxMore0bcc6938bdc5340",
    "pf": "frmAccountDetailKA",
    "showprogressindicator": false,
    "wType": "Button",
    "zindex": 10
}