{
    "DNDConfig": null,
    "__markedForDelete__": true,
    "__parentReadjusting__": false,
    "_height_": {
        "type": "string",
        "value": "100%"
    },
    "_margin_": [
        0,
        0,
        0,
        0
    ],
    "_padding_": [
        0,
        0,
        0,
        0
    ],
    "_right_": {
        "type": "number",
        "value": "1"
    },
    "_skin_": "s8d5a4daab73409b9e86bb608ac24aaa",
    "_width_": {
        "type": "string",
        "value": "1dp"
    },
    "allboxes": [],
    "autogrowmode": 0,
    "canUpdateUI": true,
    "centery": {
        "type": "string",
        "value": "50%"
    },
    "children": [],
    "clipbounds": true,
    "containerweight": 100,
    "enabled": false,
    "enablescrolling": true,
    "id": "CopybuttonDivider0i0eec9f495924a",
    "info": null,
    "isvisible": true,
    "kuid": "ef534b9458f7446bb6d47dc5e805579f",
    "layouttype": 2,
    "name": "kony.ui.FlexContainer",
    "orientation": 6,
    "parent": "CopyStatementsWrapper0j399a4f4d50848",
    "percent": true,
    "pf": "frmAccountDetailKA",
    "snapgridsize": 10,
    "snaptogrid": true,
    "wType": "FlexContainer",
    "widgetalignment": 1,
    "zindex": 1
}