{
    "@class": "com.kony.gen.viz.model.container.KVizScrollFlexForm",
    "DNDConfig": null,
    "_footers_": [],
    "_margin_": [
        0,
        0,
        0,
        0
    ],
    "_padding_": [
        0,
        0,
        0,
        0
    ],
    "_skin_": "s0f4054a3ed2400c87a8090c5ffcd75f",
    "_title_": null,
    "addWidgetsdone": false,
    "allboxes": [],
    "android": {
        "ide_onDeviceBack": "AS_Form_46436bbe18f84abe9f63a73e3230bcb7",
        "inTransitionConfig": {
            "formAnimation": 3
        },
        "needAppMenu": false,
        "outTransitionConfig": {
            "formAnimation": 0
        },
        "psp": {
            "onDeviceMenu": "AS_Form_4a33104bad1441dfa391c13466ef708a"
        }
    },
    "bounces": false,
    "canUpdateUI": true,
    "children": [
        "accountDetailsScrollContainer",
        "accountLabelScroll",
        "flxDealsScreen",
        "flxLoansScreen",
        "lblNoResult",
        "flxPageIndicator",
        "flxAccountdetailsSortContainer"
    ],
    "configurestatusbarstyle": true,
    "containerweight": 100,
    "currentLocale": "en",
    "desktopweb": {
        "needAppMenu": false
    },
    "device": "iPhone6",
    "displayorientation": 1,
    "enabled": false,
    "enabledforidletimeout": true,
    "enablescrolling": false,
    "footer": "frmAccountDetailKA_footer",
    "footersId": "5fc13b6bbe69451a84b41ce39703d431",
    "headeroverlap": false,
    "id": "frmAccountDetailKA",
    "ide_init": "AS_Form_bcfc048b07974938b46a8457b03339aa",
    "ide_postShow": "AS_Form_afb9a294c4414f1bb28199ae6f312417",
    "ide_preShow": "AS_Form_be1d5e3a340845749d2d333a89ba9606",
    "info": null,
    "initdone": false,
    "inputaccessoryviewtype": 3,
    "invokedProperty": "footers",
    "ipad": {
        "psp": {
            "inputAccessoryViewType": 4
        }
    },
    "iphone": {
        "inTransitionConfig": {
            "transitionDirection": "fromRight",
            "transitionDuration": 0.3,
            "transitionEffect": "transitionMoveIn"
        },
        "needAppMenu": false,
        "outTransitionConfig": {
            "transitionDirection": "fromLeft",
            "transitionDuration": 0.3,
            "transitionEffect": "transitionMoveOut"
        },
        "psp": {
            "configureStatusBarStyle": true,
            "inputAccessoryViewType": 3,
            "statusBarHidden": false,
            "statusBarStyle": "STATUS_BAR_STYLE_LIGHT_CONTENT",
            "titleBarAttributes": {
                "barStyle": 0,
                "hidesBackButton": true,
                "kuid": "e94c910843104146a81746a9c7c5b091",
                "leftBarButtonItems": [
                    {
                        "kuid": "c77a03f823d74d0aa5f4e5f309af717e",
                        "leftButtonText": "Back",
                        "leftTitle": "Back",
                        "prevFormTitle": false,
                        "titleBarLeftSideView": "button",
                        "titleClosureLeftSideView": "",
                        "type": 4
                    }
                ],
                "leftItemsSupplementBackButton": true,
                "prompt": "",
                "renderTitleText": true,
                "rightBarButtonItems": [
                    {
                        "enabled": true,
                        "info": {
                            "title": "Edit"
                        },
                        "kuid": "ce23517a74884f13883875adaa0501d3",
                        "style": 0,
                        "type": 1
                    }
                ],
                "tintColor": "33333300",
                "translucent": true
            }
        },
        "titleBar": false
    },
    "isvisible": true,
    "kuid": "5ed703cad63c441882fc4a36f5ea0c28",
    "layouttype": 2,
    "name": "kony.ui.Form2",
    "needappmenu": true,
    "orientation": 1,
    "paddinginpixel": false,
    "percent": true,
    "platform": "iphone",
    "preshow": "AS_Form_f89d843cac8d4ce1ba4e98e0df44aad2",
    "prevDevice": "GalaxyS5",
    "prevPlatform": "android",
    "retainscrollposition": false,
    "shellCSS": "iOS_iPhone6",
    "snapgridsize": 10,
    "snaptogrid": true,
    "spa": {
        "inTransitionConfig": {
            "formTransition": "none"
        },
        "outTransitionConfig": {
            "formTransition": "none"
        }
    },
    "spaan": {
        "needAppMenu": false
    },
    "spabb": {
        "needAppMenu": false
    },
    "spaip": {
        "needAppMenu": false
    },
    "spawinphone8": {
        "needAppMenu": false
    },
    "statusbarstyle": "STATUS_BAR_STYLE_LIGHT_CONTENT",
    "titleBarSkin": "sf9d12b1e1d546169560d8b1b80caf35",
    "titlebar": false,
    "type": 3,
    "wType": "Form",
    "winphone8": {
        "inTransitionConfig": {
            "inTransition": "none",
            "transitionMode": "none",
            "transitionSpeed": 0
        },
        "needAppMenu": false,
        "outTransitionConfig": {
            "outTransition": "none",
            "transitionMode": "none",
            "transitionSpeed": 0
        }
    }
}