{
    "@class": "com.kony.gen.viz.model.component.KVizButton",
    "DNDConfig": null,
    "__parentReadjusting__": false,
    "_height_": {
        "type": "string",
        "value": "100%"
    },
    "_left_": {
        "type": "string",
        "value": "33.30%"
    },
    "_margin_": [
        6,
        6,
        6,
        6
    ],
    "_padding_": [
        0,
        0,
        0,
        0
    ],
    "_skin_": "sdca1e763f194628acc584f5033e37ab",
    "_text_": "",
    "_top_": {
        "type": "string",
        "value": "0dp"
    },
    "_width_": {
        "type": "string",
        "value": "33.30%"
    },
    "canUpdateUI": true,
    "centery": {
        "type": "string",
        "value": "50%"
    },
    "containerweight": 100,
    "contentalignment": 5,
    "disabledSkins": {},
    "displaytext": true,
    "focusskin": "sdca1e763f194628acc584f5033e37ab",
    "id": "btnDeals",
    "ide_onClick": "AS_Button_e4773561daab4cdeb9cf285d0b592b8e",
    "info": null,
    "iphone": {
        "psp": {
            "showProgressIndicator": false
        }
    },
    "iscustomlayout": true,
    "isvisible": true,
    "kuid": "bfedaec3860d490b8708a06d599c912c",
    "name": "kony.ui.Button",
    "parent": "flxTabAccounts",
    "pf": "frmAccountsLandingKA",
    "retaincontentalignment": true,
    "retainflexpositionproperties": true,
    "texti18n": "i18n.accounts.deals",
    "wType": "Button",
    "zindex": 1
}