{
    "@class": "com.kony.gen.viz.model.component.KVizButton",
    "DNDConfig": null,
    "__parentReadjusting__": false,
    "_height_": {
        "type": "string",
        "value": "100%"
    },
    "_left_": {
        "type": "string",
        "value": "66.60%"
    },
    "_margin_": [
        6,
        6,
        6,
        6
    ],
    "_padding_": [
        0,
        0,
        0,
        0
    ],
    "_right_": {
        "type": "string",
        "value": "0%"
    },
    "_skin_": "sdca1e763f194628acc584f5033e37ab",
    "_text_": "",
    "_top_": {
        "type": "string",
        "value": "0dp"
    },
    "_width_": {
        "type": "string",
        "value": "33.30%"
    },
    "canUpdateUI": true,
    "centery": {
        "type": "string",
        "value": "50%"
    },
    "containerweight": 100,
    "contentalignment": 5,
    "disabledSkins": {},
    "displaytext": true,
    "focusskin": "sdca1e763f194628acc584f5033e37ab",
    "id": "btnLoans",
    "ide_onClick": "AS_Button_d9d4d61dae1a423aa29b8e3fff52f073",
    "info": null,
    "iphone": {
        "psp": {
            "showProgressIndicator": false
        }
    },
    "iscustomlayout": true,
    "isvisible": true,
    "kuid": "f65cc33240ef4fe7a4d28bc68e896c46",
    "name": "kony.ui.Button",
    "parent": "flxTabAccounts",
    "pf": "frmAccountsLandingKA",
    "retaincontentalignment": true,
    "retainflexpositionproperties": false,
    "texti18n": "i18n.accounts.loans",
    "wType": "Button",
    "zindex": 1
}