{
    "@class": "com.kony.gen.viz.model.component.KVizButton",
    "DNDConfig": null,
    "__parentReadjusting__": false,
    "_height_": {
        "type": "string",
        "value": "50dp"
    },
    "_left_": {
        "type": "string",
        "value": "0%"
    },
    "_margin_": [
        6,
        6,
        6,
        6
    ],
    "_padding_": [
        0,
        0,
        0,
        0
    ],
    "_skin_": "s9c088197d18477f8c015db1275ded54",
    "_text_": "Sign Out",
    "_width_": {
        "type": "string",
        "value": "100%"
    },
    "canUpdateUI": true,
    "containerweight": 100,
    "contentalignment": 5,
    "disabledSkins": {},
    "displaytext": true,
    "focusskin": "s9c088197d18477f8c015db1275ded54",
    "id": "btnSignOutNavOptAccOverKA",
    "ide_onClick": "AS_Button_c42e3f7edb294409a22e7c07dbcf34b2",
    "info": null,
    "isvisible": true,
    "kuid": "81daea30c2194748afe143f2054fea75",
    "name": "kony.ui.Button",
    "parent": "flxNavSegment1",
    "pf": "frmAccountsLandingKA",
    "texti18n": "i18n.common.signOut",
    "wType": "Button",
    "zindex": 1
}