{
    "@class": "com.kony.gen.viz.model.component.KVizLabel",
    "DNDConfig": null,
    "__parentReadjusting__": false,
    "_height_": {
        "type": "string",
        "value": "22dp"
    },
    "_left_": {
        "type": "string",
        "value": "12dp"
    },
    "_margin_": [
        1,
        1,
        1,
        1
    ],
    "_padding_": [
        0,
        0,
        0,
        0
    ],
    "_skin_": "s8444213065d44f5bb57de1021df6ab5",
    "_text_": "Your Monthly Spending",
    "_top_": {
        "type": "string",
        "value": "0dp"
    },
    "_width_": {
        "type": "ref",
        "value": "preferred"
    },
    "_wrapping_": 2,
    "canUpdateUI": true,
    "centerx": {
        "type": "string",
        "value": "50%"
    },
    "containerweight": 100,
    "contentalignment": 5,
    "enabled": false,
    "id": "CopyLabel001fa898ae91849",
    "info": null,
    "ipad": {
        "psp": {
            "wrapping": 2
        }
    },
    "iphone": {
        "psp": {
            "wrapping": 2
        }
    },
    "isvisible": true,
    "kuid": "a68a627d0e26475ea026bfa0e3bd36c5",
    "name": "kony.ui.Label",
    "parent": "CopyFlexContainer0955dd33b57494a",
    "pf": "frmAccountsLandingKA",
    "texti18n": "i18n.overview.yourMonthlySpending",
    "tooltip": "",
    "wType": "Label",
    "zindex": 1
}