{
    "@class": "com.kony.gen.viz.model.container.KVizScrollFlexForm",
    "DNDConfig": null,
    "_footers_": [
        null
    ],
    "_margin_": [
        0,
        0,
        0,
        0
    ],
    "_padding_": [
        0,
        0,
        0,
        0
    ],
    "_skin_": "s49aa0260cc74ba095454429a3de729f",
    "_title_": "",
    "addWidgetsdone": false,
    "allboxes": [],
    "android": {
        "ide_onDeviceBack": "AS_Form_b5f9875ded654d4cb142ec256a46a096",
        "inTransitionConfig": {
            "formAnimation": 0
        },
        "needAppMenu": false,
        "onDeviceBack": "AS_Form_fb98c55e1cfb4013b6ba7458a11db3ff",
        "outTransitionConfig": {
            "formAnimation": 0
        },
        "psp": {
            "onDeviceMenu": "AS_Form_de46d0ad57954f4b9913fab3b19a0145"
        }
    },
    "annotationId": "d62a2a0906c64d2281addc95893a6544",
    "bounces": false,
    "canUpdateUI": true,
    "children": [
        "flxAccountsMain",
        "flxAccntLandingNavOptKA",
        "showInsightsButton",
        "overview",
        "flxInFeedAds",
        "flxDeals",
        "flxLoans",
        "flxHeaderDashboard",
        "flxIconMove1"
    ],
    "configurestatusbarstyle": true,
    "containerweight": 100,
    "currentLocale": "en",
    "desktopweb": {
        "needAppMenu": false
    },
    "device": "GalaxyS5",
    "displayorientation": 1,
    "enabled": false,
    "enabledforidletimeout": true,
    "enablescrolling": false,
    "footer": "frmAccountsLandingKA_footer",
    "footeroverlap": false,
    "footersId": "5fc13b6bbe69451a84b41ce39703d431",
    "id": "frmAccountsLandingKA",
    "ide_init": "AS_Form_d86ca862bda14477aaba29a1f8d8cb5b",
    "ide_preShow": "AS_Form_cc5efc6acd8048749dd69ade1e35dc5e",
    "info": null,
    "initdone": false,
    "inputaccessoryviewtype": 4,
    "invokedProperty": "footers",
    "ipad": {
        "psp": {
            "inputAccessoryViewType": 4
        }
    },
    "iphone": {
        "inTransitionConfig": {
            "transitionDirection": "none",
            "transitionEffect": "transitionFade"
        },
        "needAppMenu": false,
        "outTransitionConfig": {
            "transitionDirection": "none",
            "transitionEffect": "transitionFade"
        },
        "psp": {
            "configureStatusBarStyle": true,
            "inputAccessoryViewType": 4,
            "statusBarStyle": "STATUS_BAR_STYLE_DEFAULT",
            "titleBarAttributes": {
                "barStyle": 0,
                "hidesBackButton": true,
                "kuid": "e25ee5bd757146c8b7b181c41fe0388d",
                "leftBarButtonItems": [],
                "leftItemsSupplementBackButton": true,
                "prompt": "",
                "renderTitleText": true,
                "rightBarButtonItems": [],
                "tintColor": "33333300",
                "translucent": true
            }
        },
        "titleBar": false
    },
    "isvisible": true,
    "kuid": "d62a2a0906c64d2281addc95893a6544",
    "layouttype": 2,
    "name": "kony.ui.Form2",
    "needappmenu": true,
    "orientation": 1,
    "paddinginpixel": false,
    "percent": true,
    "platform": "android",
    "preshow": "AS_Form_01e563f105d24128a6d880f4ff7ffe3b",
    "prevDevice": "iPhoneXS",
    "prevPlatform": "iphone",
    "retainscrollposition": false,
    "shellCSS": "and_GalaxyS5",
    "snapgridsize": 10,
    "snaptogrid": true,
    "spa": {
        "inTransitionConfig": {
            "formTransition": "none"
        },
        "outTransitionConfig": {
            "formTransition": "none"
        }
    },
    "spaan": {
        "needAppMenu": false
    },
    "spabb": {
        "needAppMenu": false
    },
    "spaip": {
        "needAppMenu": false
    },
    "spawinphone8": {
        "needAppMenu": false
    },
    "statusbarstyle": "STATUS_BAR_STYLE_DEFAULT",
    "titleBarSkin": "sf9d12b1e1d546169560d8b1b80caf35",
    "titlebar": true,
    "type": 3,
    "wType": "Form",
    "winphone8": {
        "inTransitionConfig": {
            "inTransition": "none",
            "transitionMode": "none",
            "transitionSpeed": 0
        },
        "needAppMenu": false,
        "outTransitionConfig": {
            "outTransition": "none",
            "transitionMode": "none",
            "transitionSpeed": 0
        }
    }
}