{
    "@class": "com.kony.gen.viz.model.component.KVizLabel",
    "DNDConfig": null,
    "__parentReadjusting__": false,
    "_height_": {
        "type": "string",
        "value": "17dp"
    },
    "_margin_": [
        1,
        1,
        1,
        1
    ],
    "_padding_": [
        0,
        0,
        0,
        0
    ],
    "_skin_": "s3c238342a2841e1b37f8c4545626ca3",
    "_text_": "3268.54",
    "_top_": {
        "type": "string",
        "value": "-2dp"
    },
    "_width_": {
        "type": "string",
        "value": "100%"
    },
    "_wrapping_": 2,
    "canUpdateUI": true,
    "centerx": {
        "type": "string",
        "value": "50%"
    },
    "containerweight": 100,
    "contentalignment": 6,
    "enabled": false,
    "id": "positiveCashFlowLabel",
    "info": null,
    "ipad": {
        "psp": {
            "wrapping": 2
        }
    },
    "iphone": {
        "psp": {
            "wrapping": 2
        }
    },
    "isvisible": true,
    "kuid": "1859c48739dc4ab78022c646b7340a47",
    "name": "kony.ui.Label",
    "parent": "cashFlowGraphResults",
    "pf": "frmAccountsLandingKA",
    "tooltip": "",
    "wType": "Label",
    "zindex": 1
}