{
  "operationConfig" : {
    "name" : "prGetAtmTransactionDetails8978",
    "type" : "MappedToBackend",
    "cachable" : false,
    "smsEnabled" : false,
    "security" : "authorized_app",
    "responseEncoding" : "UTF-8",
    "httpMethod" : "GET",
    "decodeResponseBody" : false,
    "iMapping" : "<?xml version=\"1.0\" encoding=\"UTF-8\" standalone=\"yes\"?><mapper xmlns=\"http://www.kony.com/ns/mapper\">  <map inputpath=\"request_in\" outputpath=\"request_out\">    <set-param inputpath=\"usr\" outputpath=\"usr\"/>    <set-param inputpath=\"pass\" outputpath=\"pass\"/>    <set-param inputpath=\"custId\" outputpath=\"custId\"/>    <set-param inputpath=\"p_fromDate\" outputpath=\"p_fromDate\"/>    <set-param inputpath=\"p_toDate\" outputpath=\"p_toDate\"/>    <set-param inputpath=\"p_debit_card_no\" outputpath=\"p_debit_card_no\"/>  </map></mapper>",
    "oMapping" : "<?xml version=\"1.0\" encoding=\"UTF-8\" standalone=\"yes\"?><mapper xmlns=\"http://www.kony.com/ns/mapper\">  <map inputpath=\"response_in\" outputpath=\"response_out\">    <map inputpath=\"Transactions\" outputpath=\"Transactions\">      <set-param inputpath=\"ref_num\" outputpath=\"ref_num\"/>      <set-param inputpath=\"amount\" outputpath=\"amount\"/>      <set-param inputpath=\"description\" outputpath=\"description\"/>      <set-param inputpath=\"txnType\" outputpath=\"txnType\"/>      <set-param inputpath=\"transactionDate\" outputpath=\"transactionDate\"/>      <set-param inputpath=\"atmLoc\" outputpath=\"atmLoc\"/>    </map>  </map></mapper>",
    "applyCommonMapping" : false,
    "backendMeta" : {
      "serviceVersion" : "1.0",
      "operationName" : "prGetAtmTransactionDetails",
      "serviceName" : "BOJDebitCrdTxnList"
    },
    "relationshipHierarchyMapping" : {
      "children" : [ ],
      "name" : "Transactions",
      "selected" : true
    },
    "requestXmlMappingOverride" : true,
    "responseXmlMappingOverride" : true
  }
}