{
    "@class": "com.kony.gen.viz.model.component.KVizLabel",
    "DNDConfig": null,
    "__parentReadjusting__": false,
    "_height_": {
        "type": "ref",
        "value": "preferred"
    },
    "_left_": {
        "type": "string",
        "value": "8%"
    },
    "_margin_": [
        1,
        1,
        1,
        1
    ],
    "_padding_": [
        0,
        0,
        0,
        4
    ],
    "_skin_": "s253f976772f45fc8d428f86645f1fb3",
    "_text_": "",
    "_top_": {
        "type": "string",
        "value": "42dp"
    },
    "_width_": {
        "type": "ref",
        "value": "preferred"
    },
    "_wrapping_": 2,
    "android": {
        "textStyle": {
            "letterSpacing": 0,
            "strikeThrough": false
        }
    },
    "canUpdateUI": true,
    "containerId": true,
    "containerweight": 100,
    "contentalignment": 4,
    "id": "lblCardNum",
    "info": null,
    "ipad": {
        "psp": {
            "wrapping": 2
        }
    },
    "iphone": {
        "psp": {
            "wrapping": 2
        }
    },
    "isvisible": true,
    "kuid": "ced3324a474e494484afaf113bd673e9",
    "name": "kony.ui.Label",
    "paddinginpixel": false,
    "parent": "flxCardsReOrderSettingsTmp",
    "pf": "tmpCardsReorder",
    "tooltip": "",
    "wType": "Label",
    "zindex": 1
}