{
    "@class": "com.kony.gen.viz.model.component.KVizButton",
    "DNDConfig": null,
    "__parentReadjusting__": false,
    "_height_": {
        "type": "string",
        "value": "40dp"
    },
    "_left_": {
        "type": "string",
        "value": "5dp"
    },
    "_margin_": [
        6,
        6,
        6,
        6
    ],
    "_padding_": [
        0,
        0,
        0,
        0
    ],
    "_skin_": "s51d68053cae4eba826625de179be4ae",
    "_text_": "ENROLL",
    "_top_": {
        "type": "string",
        "value": "20%"
    },
    "_width_": {
        "type": "string",
        "value": "60%"
    },
    "canUpdateUI": true,
    "centerx": {
        "type": "string",
        "value": "50.00%"
    },
    "containerweight": 100,
    "contentalignment": 5,
    "displaytext": true,
    "focusskin": "sbe13586f59d4a768bfe23c1b619f8c6",
    "id": "btnaccept",
    "ide_onClick": "AS_Button_245362f65ec44b849f9e57d2ff9aba2a",
    "info": null,
    "iphone": {
        "psp": {
            "showProgressIndicator": false
        }
    },
    "isvisible": true,
    "kuid": "e91f91e5424046a6ac8887559572f094",
    "name": "kony.ui.Button",
    "onclick": "AS_Button_b9bdaa9f9f044b07a3cc0b9a37121d52",
    "parent": "flxbottombuttons",
    "pf": "frmEnrolluserLandingKA",
    "showprogressindicator": false,
    "texti18n": "i18n.login.btnEnroll",
    "wType": "Button",
    "zindex": 1
}