{
    "@class": "com.kony.gen.viz.model.container.KVizScrollFlexForm",
    "DNDConfig": null,
    "_footers_": [],
    "_headers_": [],
    "_init_": "AS_Form_4745b0cf680149a293d213e619aa1edf",
    "_margin_": [
        0,
        0,
        0,
        0
    ],
    "_padding_": [
        0,
        0,
        0,
        0
    ],
    "_skin_": "s49e38ec940f45ba991f9c6954bf7f24",
    "_title_": null,
    "addWidgetsdone": false,
    "allboxes": [],
    "android": {
        "ide_onDeviceBack": "AS_Form_359d5f9a8a1c4b529755fedce4d6fa9e",
        "inTransitionConfig": {
            "formAnimation": 0
        },
        "needAppMenu": false,
        "psp": {
            "onDeviceMenu": "AS_Form_7eb32c11797c407eb8a4770ae04d6988",
            "windowSoftInputMode": 2
        }
    },
    "bounces": false,
    "canUpdateUI": true,
    "children": [
        "imgBack",
        "flxmainform",
        "lblLanguage",
        "lblFlag",
        "lblIpAdd",
        "lblDevId",
        "lblIEMI",
        "UserFlag"
    ],
    "configurestatusbarstyle": true,
    "containerweight": 100,
    "currentLocale": "en",
    "desktopweb": {
        "needAppMenu": false
    },
    "device": "GalaxyS5",
    "displayorientation": 1,
    "enabled": false,
    "enabledforidletimeout": true,
    "enablescrolling": true,
    "footer": "frmEnrolluserLandingKA_footer",
    "header": "frmEnrolluserLandingKA_header",
    "id": "frmEnrolluserLandingKA",
    "ide_postShow": "AS_Form_ac1757ccde8846a18b3616d01cc5d533",
    "ide_preShow": "AS_Form_2171e0d469284db9ad7bbff510491c86",
    "info": null,
    "initdone": false,
    "inputaccessoryviewtype": 4,
    "ipad": {
        "psp": {
            "inputAccessoryViewType": 4
        }
    },
    "iphone": {
        "inTransitionConfig": {
            "transitionDirection": "fromBottom",
            "transitionEffect": "none"
        },
        "needAppMenu": false,
        "psp": {
            "configureStatusBarStyle": true,
            "inputAccessoryViewType": 3,
            "statusBarHidden": false,
            "statusBarStyle": "STATUS_BAR_STYLE_LIGHT_CONTENT",
            "titleBarAttributes": {
                "barStyle": 0,
                "hidesBackButton": true,
                "kuid": "i0451589219547448d5664e41f383bca",
                "leftBarButtonItems": [
                    {
                        "kuid": "efb755eb1f424e6ea85e3483924940b1",
                        "leftButtonText": "Back",
                        "leftTitle": "Back",
                        "prevFormTitle": false,
                        "titleBarLeftSideView": "button",
                        "type": 4
                    }
                ],
                "leftItemsSupplementBackButton": true,
                "prompt": "",
                "renderTitleText": true,
                "rightBarButtonItems": [
                    {
                        "enabled": true,
                        "info": {
                            "title": "Edit"
                        },
                        "kuid": "d9026779e1f14ee2b866f142c18bf5bc",
                        "style": 0,
                        "tintColor": "33333300",
                        "type": 1
                    }
                ],
                "tintColor": "33333300",
                "translucent": true
            }
        },
        "titleBar": false
    },
    "isvisible": true,
    "kuid": "de724966138b4e7c9bfdd35033a0bdb3",
    "layouttype": 2,
    "name": "kony.ui.Form2",
    "needappmenu": true,
    "onhide": "AS_Form_26c85a24370f4c4eb7e87687ebf0f8e0",
    "orientation": 1,
    "paddinginpixel": false,
    "percent": true,
    "platform": "android",
    "postshow": "AS_Form_ac2889e52c2e486a9fcf8979a9895284",
    "preshow": "AS_Form_319c07431fde4562a1945c153b006786",
    "prevDevice": "iPhoneXS",
    "prevPlatform": "iphone",
    "retainscrollposition": false,
    "shellCSS": "and_GalaxyS5",
    "snapgridsize": 10,
    "snaptogrid": true,
    "spa": {
        "inTransitionConfig": {
            "formTransition": "none"
        }
    },
    "spaan": {
        "needAppMenu": false
    },
    "spabb": {
        "needAppMenu": false
    },
    "spaip": {
        "needAppMenu": false
    },
    "spawinphone8": {
        "needAppMenu": false
    },
    "statusbarstyle": "STATUS_BAR_STYLE_LIGHT_CONTENT",
    "titleBarSkin": "sf9d12b1e1d546169560d8b1b80caf35",
    "titlebar": true,
    "type": 3,
    "wType": "Form",
    "windowsoftinputmode": 2,
    "winphone8": {
        "inTransitionConfig": {
            "inTransition": "none",
            "transitionMode": "none",
            "transitionSpeed": 0
        },
        "needAppMenu": false
    }
}