{
    "DNDConfig": null,
    "__parentReadjusting__": false,
    "_height_": {
        "type": "string",
        "value": "92%"
    },
    "_left_": {
        "type": "string",
        "value": "0dp"
    },
    "_margin_": [
        0,
        0,
        0,
        0
    ],
    "_padding_": [
        0,
        0,
        0,
        0
    ],
    "_skin_": "s1cdd821eca843468efebea10e03a08d",
    "_top_": {
        "type": "string",
        "value": "8%"
    },
    "_width_": {
        "type": "string",
        "value": "100.00%"
    },
    "accessibilityconfig": {
        "a11yNavigationMode": 0
    },
    "allboxes": [],
    "allowhorizontalbounce": false,
    "allowverticalbounce": true,
    "bounces": false,
    "canUpdateUI": true,
    "children": [
        "flxSegmentWrapper",
        "flxAccountdetailsSortContainer"
    ],
    "clipbounds": true,
    "containerweight": 100,
    "decelerat": false,
    "dragg": false,
    "enabled": false,
    "enablescrolling": false,
    "horizontalscrollindicator": true,
    "id": "flxCardStatement",
    "info": null,
    "isvisible": false,
    "kuid": "h22164f9261c4ae2b1bf8a1522d1b6dc",
    "layouttype": 2,
    "name": "kony.ui.FlexScrollContainer",
    "onscrolling": "AS_FlexScrollContainer_e8ab22bd37c24efcac0203985bc99409",
    "orientation": 6,
    "pagingenabled": false,
    "parent": "frmCardStatementKA",
    "percent": true,
    "pf": "frmCardStatementKA",
    "scrolldirection": 2,
    "snapgridsize": 10,
    "snaptogrid": true,
    "track": false,
    "verticalscrollindicator": false,
    "wType": "FlexScrollContainer",
    "widgetalignment": 1,
    "zindex": 1
}