{
    "DNDConfig": null,
    "_height_": {
        "type": "string",
        "value": "260dp"
    },
    "_margin_": [
        0,
        0,
        0,
        0
    ],
    "_orientation_": 6,
    "_padding_": [
        0,
        0,
        0,
        0
    ],
    "_percent_": true,
    "_skin_": "s15e4ac2d02f475fbc70f4dcf387a73a",
    "allboxes": [],
    "autogrowmode": 0,
    "canUpdateUI": true,
    "children": [
        "cardType",
        "flxCardDetails",
        "btnNav",
        "btnNav1",
        "CopybtnNav0b0169acff9c84a",
        "cardTypeFlag"
    ],
    "clipbounds": true,
    "containerId": true,
    "containerweight": 100,
    "defaultunit": 2,
    "enablescrolling": true,
    "focusskin": "s15e4ac2d02f475fbc70f4dcf387a73a",
    "id": "flxCardsLandingTemplate",
    "info": null,
    "isTemplate": true,
    "isvisible": true,
    "kuid": "de61aef6b47f474aafeeb4c106a0cd0b",
    "layouttype": 2,
    "name": "kony.ui.FlexContainer",
    "parent": "tmpSegCardsLanding",
    "pf": "tmpSegCardsLanding",
    "snapgridsize": 10,
    "snaptogrid": true,
    "wType": "FlexContainer",
    "widgetalignment": 1
}