{
    "@class": "com.kony.gen.viz.model.component.KVizLabel",
    "DNDConfig": null,
    "__parentReadjusting__": false,
    "_height_": {
        "type": "ref",
        "value": "preferred"
    },
    "_left_": {
        "type": "string",
        "value": "15dp"
    },
    "_margin_": [
        1,
        1,
        1,
        1
    ],
    "_padding_": [
        0,
        0,
        0,
        0
    ],
    "_skin_": "s1b0f89cfd734cb39fe321eea964e34c",
    "_text_": "",
    "_top_": {
        "type": "string",
        "value": "29dp"
    },
    "_width_": {
        "type": "ref",
        "value": "preferred"
    },
    "_wrapping_": 2,
    "canUpdateUI": true,
    "containerId": true,
    "containerweight": 100,
    "contentalignment": 4,
    "enabled": false,
    "id": "lblBankName",
    "info": null,
    "ipad": {
        "psp": {
            "wrapping": 2
        }
    },
    "iphone": {
        "psp": {
            "wrapping": 2
        }
    },
    "isvisible": true,
    "kuid": "a13354ee6c714a1581909e6eab6d0e1b",
    "maxwidth": {
        "type": "string",
        "value": "90%"
    },
    "name": "kony.ui.Label",
    "parent": "nameContainer",
    "pf": "tmpAccountLandingKA",
    "tooltip": "",
    "wType": "Label",
    "zindex": 1
}