{
    "@class": "com.kony.gen.viz.model.component.KVizButton",
    "DNDConfig": null,
    "__parentReadjusting__": false,
    "_height_": {
        "type": "string",
        "value": "100%"
    },
    "_margin_": [
        6,
        6,
        6,
        6
    ],
    "_padding_": [
        0,
        0,
        0,
        0
    ],
    "_right_": {
        "type": "string",
        "value": "9%"
    },
    "_skin_": "sfdddcea6cff4d788f42120343a323ef",
    "_text_": "d",
    "_top_": {
        "type": "string",
        "value": "2%"
    },
    "_width_": {
        "type": "string",
        "value": "90%"
    },
    "canUpdateUI": true,
    "containerweight": 100,
    "contentalignment": 6,
    "displaytext": true,
    "focusskin": "sfdddcea6cff4d788f42120343a323ef",
    "id": "btnDropDownAccount",
    "ide_onClick": "AS_Button_cb350193e3f14ed5a9e81aca1e9b148f",
    "info": null,
    "isvisible": true,
    "kuid": "je584fae63a44c2f993a0af5c12e3478",
    "name": "kony.ui.Button",
    "parent": "flxAccountType",
    "pf": "frmCreditCardPayment",
    "wType": "Button",
    "zindex": 3
}