{
    "DNDConfig": null,
    "__parentReadjusting__": false,
    "_height_": {
        "type": "string",
        "value": "72%"
    },
    "_left_": {
        "type": "string",
        "value": "0dp"
    },
    "_margin_": [
        0,
        0,
        0,
        0
    ],
    "_orientation_": 6,
    "_padding_": [
        0,
        0,
        0,
        0
    ],
    "_percent_": true,
    "_skin_": "s388f0c575ef4d08ac3a5ed0a4b90085",
    "_top_": {
        "type": "string",
        "value": "1%"
    },
    "_width_": {
        "type": "string",
        "value": "100%"
    },
    "allboxes": [],
    "autogrowmode": 0,
    "canUpdateUI": true,
    "children": [
        "flxAccountConfirm",
        "flxCardDetailsConfirm",
        "flxCardNumberConfirm",
        "flxTUAmountConfirm",
        "flxPVConfirm",
        "flxAmountConfirm",
        "flxDueDateConfirm"
    ],
    "clipbounds": true,
    "containerweight": 100,
    "enablescrolling": true,
    "id": "flxOtherDetails",
    "info": null,
    "isvisible": true,
    "kuid": "gcdfd3d4610147089f881c57b28e3917",
    "layouttype": 4,
    "name": "kony.ui.FlexContainer",
    "parent": "flxConfirmPopUp",
    "pf": "frmCreditCardPayment",
    "snapgridsize": 10,
    "snaptogrid": true,
    "vizProps": {},
    "wType": "FlexContainer",
    "widgetalignment": 1,
    "zindex": 1
}