{
    "@class": "com.kony.gen.viz.model.component.KVizTextBox2",
    "DNDConfig": null,
    "__parentReadjusting__": false,
    "_height_": {
        "type": "string",
        "value": "40dp"
    },
    "_left_": {
        "type": "string",
        "value": "300%"
    },
    "_margin_": [
        0,
        0,
        0,
        0
    ],
    "_padding_": [
        3,
        0,
        0,
        0
    ],
    "_placeholder_": "",
    "_skin_": "s5a79756357946f18ed418899a202563",
    "_text_": "",
    "_top_": {
        "type": "string",
        "value": "0dp"
    },
    "_width_": {
        "type": "string",
        "value": "260dp"
    },
    "accessibilityconfig": {
        "a11yLabel": "Please enter your PIN and click next"
    },
    "android": {
        "psp": {
            "keyboardActionLabel": 1
        }
    },
    "autocapitalize": "none",
    "autocomplete": false,
    "autocorrect": false,
    "autofilter": false,
    "canUpdateUI": true,
    "containerheight": "",
    "containerheightmode": 1,
    "containerweight": 100,
    "contentalignment": 4,
    "focusskin": "s5a79756357946f18ed418899a202563",
    "id": "txtPIN",
    "ide_onTextChange": "AS_TextField_e79ee9bcd2ca4c8cade3de2a115cb7a9",
    "info": null,
    "iphone": {
        "psp": {
            "keyboardActionLabel": 1,
            "showClearButton": false,
            "showCloseButton": false,
            "showProgressIndicator": false
        }
    },
    "isvisible": false,
    "keyboardactionlabel": 1,
    "keyboardstyle": "digitpad",
    "keyboardtype": "A",
    "kuid": "bb98180d35b24480a4b1824a2b377e35",
    "maxtextlength": 4,
    "mode": "N",
    "name": "kony.ui.TextBox2",
    "parent": "flxPin",
    "pf": "frmRequestPinCard",
    "placeholderskin": "s5a79756357946f18ed418899a202563",
    "securetextentry": false,
    "showclearbutton": false,
    "showoprogressindicator": false,
    "textinputmode": "N",
    "viewtype": "default",
    "wType": "TextField",
    "zindex": 1
}