{
    "@class": "com.kony.gen.viz.model.component.KVizDateField",
    "DNDConfig": null,
    "Image": "tran.png",
    "__markedForDelete__": true,
    "__parentReadjusting__": false,
    "_data_": null,
    "_date_": [
        "14",
        "11",
        "2018"
    ],
    "_height_": {
        "type": "string",
        "value": "50%"
    },
    "_left_": {
        "type": "string",
        "value": "81.33%"
    },
    "_margin_": [
        0,
        0,
        0,
        0
    ],
    "_padding_": [
        0,
        0,
        0,
        0
    ],
    "_skin_": "s7f6aa6f95d44e4bb173038bc3bc2911",
    "_top_": {
        "type": "string",
        "value": "28%"
    },
    "_width_": {
        "type": "string",
        "value": "16.00%"
    },
    "advview": "default",
    "calendaricon": "tran.png",
    "canUpdateUI": true,
    "containerweight": 100,
    "contentalignment": 5,
    "datecomponents": [
        "14",
        "11",
        "2018"
    ],
    "dateeditable": true,
    "dateformat": "MM/dd/yyyy",
    "day": "14",
    "daytextalignmentincell": 5,
    "entereddate": "14/11/2018",
    "focusskin": "s7f6aa6f95d44e4bb173038bc3bc2911",
    "format": "MM/dd/yyyy",
    "formatteddate": "11/14/2018",
    "hidedaysheader": false,
    "hidemonthsheader": false,
    "hour": 0,
    "id": "CalTo",
    "ide_onSelection": "AS_Calendar_i83644f2115f4f0f9e735cf87f556d5e",
    "info": null,
    "isvisible": true,
    "kuid": "f81996627b6d4e7cb634c6f220704398",
    "luadate": [
        "14",
        "11",
        "2018"
    ],
    "minutes": 0,
    "month": "11",
    "name": "kony.ui.Calendar",
    "noofmonths": 1,
    "pagedate": "/2018",
    "parent": "flxTo",
    "pf": "frmRequestStatementAccounts",
    "seconds": 0,
    "selectdate": "//2018",
    "viewtype": "default",
    "wType": "Calendar",
    "widgetalignment": 5,
    "year": "2018",
    "zindex": 10
}