{
    "DNDConfig": null,
    "__parentReadjusting__": false,
    "_height_": {
        "type": "string",
        "value": "100%"
    },
    "_left_": {
        "type": "string",
        "value": "52%"
    },
    "_margin_": [
        0,
        0,
        0,
        0
    ],
    "_orientation_": 6,
    "_padding_": [
        0,
        0,
        0,
        0
    ],
    "_percent_": true,
    "_skin_": "s278c28986e940a1b46be3f3a323c467",
    "_top_": {
        "type": "string",
        "value": "1%"
    },
    "_width_": {
        "type": "string",
        "value": "40%"
    },
    "allboxes": [],
    "autogrowmode": 0,
    "canUpdateUI": true,
    "children": [
        "lblMonthTo",
        "lblMonthToValue",
        "lblLineTM",
        "CopyflxEdit0caabf91b982442"
    ],
    "clipbounds": true,
    "containerweight": 100,
    "enablescrolling": true,
    "id": "CopyflxBranch0e78ace8f76eb41",
    "ide_onClick": "AS_FlexContainer_ecdccdab719f44509bb637db78c72e99",
    "info": null,
    "isvisible": true,
    "kuid": "e4929733a01748b0aba5b4a16062fbfc",
    "layouttype": 2,
    "masterType": 1,
    "name": "kony.ui.FlexContainer",
    "parent": "flxToContainer",
    "pf": "frmRequestStatementAccounts",
    "snapgridsize": 10,
    "snaptogrid": true,
    "wType": "FlexContainer",
    "widgetalignment": 1,
    "zindex": 100
}