{
    "@class": "com.kony.gen.viz.model.container.KVizScrollFlexForm",
    "DNDConfig": null,
    "_margin_": [
        0,
        0,
        0,
        0
    ],
    "_padding_": [
        0,
        0,
        0,
        0
    ],
    "_skin_": "saccb95b58984589af381140b9870839",
    "_title_": "",
    "addWidgetsdone": false,
    "allboxes": [],
    "android": {
        "ide_onDeviceBack": "AS_Form_b434edb1c75c400aa9c27ef24cb0118d",
        "inTransitionConfig": {
            "formAnimation": 0
        },
        "needAppMenu": false,
        "outTransitionConfig": {
            "formAnimation": 0
        },
        "psp": {
            "onDeviceMenu": "AS_Form_425bf8568fd040bb92e1075fa8deaff4",
            "windowSoftInputMode": 2
        }
    },
    "bounces": false,
    "canUpdateUI": true,
    "children": [
        "mainScrollContainer",
        "titleBarAddNewPayee",
        "flxFormMain",
        "flxConfirmPopUp"
    ],
    "configurestatusbarstyle": true,
    "containerweight": 100,
    "currentLocale": "en",
    "desktopweb": {
        "needAppMenu": false
    },
    "device": "iPhoneXS",
    "displayorientation": 1,
    "enabled": false,
    "enabledforidletimeout": true,
    "enablescrolling": false,
    "headeroverlap": true,
    "id": "frmAddNewPayeeKA",
    "ide_postShow": "AS_Form_b008a95f9eab4724bfabe353e0e3f53d",
    "ide_preShow": "AS_Form_e1be7a4a05554298be877b4310e9fced",
    "info": null,
    "initdone": false,
    "inputaccessoryviewtype": 4,
    "ipad": {
        "psp": {
            "inputAccessoryViewType": 4
        }
    },
    "iphone": {
        "inTransitionConfig": {
            "transitionDirection": "fromRight",
            "transitionDuration": 0.3,
            "transitionEffect": "none"
        },
        "needAppMenu": false,
        "outTransitionConfig": {
            "transitionDirection": "none",
            "transitionDuration": 0.3,
            "transitionEffect": "none"
        },
        "psp": {
            "configureStatusBarStyle": true,
            "inputAccessoryViewType": 3,
            "statusBarHidden": false,
            "statusBarStyle": "STATUS_BAR_STYLE_LIGHT_CONTENT",
            "titleBarAttributes": {
                "barStyle": 0,
                "hidesBackButton": true,
                "kuid": "c74c8d32207e4651a6204156bea0034a",
                "leftBarButtonItems": [
                    {
                        "kuid": "d5a8a2b07c964f74ae6c5c87350ec0d3",
                        "leftButtonText": "Sign In",
                        "leftTitle": "Back",
                        "prevFormTitle": false,
                        "titleBarLeftSideView": "button",
                        "type": 4
                    }
                ],
                "leftItemsSupplementBackButton": true,
                "prompt": "",
                "renderTitleText": true,
                "rightBarButtonItems": [],
                "tintColor": "33333300",
                "translucent": true
            }
        },
        "titleBar": false
    },
    "isvisible": true,
    "kuid": "22b994296d374ff48427012b2b05feb7",
    "layouttype": 2,
    "name": "kony.ui.Form2",
    "needappmenu": true,
    "orientation": 1,
    "paddinginpixel": false,
    "percent": true,
    "platform": "iphone",
    "prevDevice": "GalaxyS5",
    "prevPlatform": "android",
    "retainscrollposition": false,
    "shellCSS": "iOS_iPhoneXS",
    "snapgridsize": 10,
    "snaptogrid": true,
    "spa": {
        "inTransitionConfig": {
            "formTransition": "none"
        },
        "outTransitionConfig": {
            "formTransition": "none"
        }
    },
    "spaan": {
        "needAppMenu": false
    },
    "spabb": {
        "needAppMenu": false
    },
    "spaip": {
        "needAppMenu": false
    },
    "spawinphone8": {
        "needAppMenu": false
    },
    "statusbarstyle": "STATUS_BAR_STYLE_LIGHT_CONTENT",
    "titleBarSkin": "s5bdd0c67888450093ce80bfc7b03e26",
    "titlebar": true,
    "type": 3,
    "wType": "Form",
    "winphone8": {
        "inTransitionConfig": {
            "inTransition": "none",
            "transitionMode": "none",
            "transitionSpeed": 0
        },
        "needAppMenu": false,
        "outTransitionConfig": {
            "outTransition": "none",
            "transitionMode": "none",
            "transitionSpeed": 0
        }
    }
}