{
    "@class": "com.kony.gen.viz.model.component.KVizLabel",
    "DNDConfig": null,
    "__parentReadjusting__": false,
    "_height_": {
        "type": "ref",
        "value": "preferred"
    },
    "_left_": {
        "type": "string",
        "value": "0%"
    },
    "_margin_": [
        1,
        1,
        1,
        1
    ],
    "_padding_": [
        0,
        0,
        0,
        0
    ],
    "_skin_": "sfcc54aca883481fb7a719076983d8e3",
    "_text_": "",
    "_top_": {
        "type": "string",
        "value": "-10%"
    },
    "_width_": {
        "type": "ref",
        "value": "preferred"
    },
    "_wrapping_": 2,
    "android": {
        "textStyle": {
            "letterSpacing": 0,
            "strikeThrough": false
        }
    },
    "canUpdateUI": true,
    "containerweight": 100,
    "contentalignment": 4,
    "id": "lblEditBillerNameTitile",
    "info": null,
    "ipad": {
        "psp": {
            "wrapping": 2
        }
    },
    "iphone": {
        "psp": {
            "wrapping": 2
        }
    },
    "isvisible": false,
    "kuid": "eeb869c5e0f1484baf536abbabc21c99",
    "maxnumberoflines": 1,
    "name": "kony.ui.Label",
    "parent": "flxBillerNameHolder",
    "pf": "frmAddNewPayeeKA",
    "texti18n": "i18n.billsPay.billerName",
    "texttruncateposition": 3,
    "tooltip": "",
    "wType": "Label",
    "zindex": 2
}