{
    "DNDConfig": null,
    "_height_": {
        "type": "ref",
        "value": "preferred"
    },
    "_margin_": [
        0,
        0,
        0,
        0
    ],
    "_padding_": [
        0,
        0,
        0,
        0
    ],
    "_skin_": "s6ce7a32ad744c6bb6a656db53b05b02",
    "allboxes": [],
    "autogrowmode": 1,
    "canUpdateUI": true,
    "children": [
        "transactionDate",
        "transactionAmount",
        "transactionAmountJOD",
        "lblLastTransaction",
        "transactionName",
        "lblCardStatementmerchant"
    ],
    "clipbounds": true,
    "containerId": true,
    "containerweight": 100,
    "disabledSkins": {},
    "enabled": false,
    "enablescrolling": true,
    "focusskin": "s6ce7a32ad744c6bb6a656db53b05b02",
    "id": "CopyFlexContainer0a99898df0f2a41",
    "info": null,
    "isTemplate": true,
    "isvisible": true,
    "kuid": "a1cb51ab3fcc4a828df18416c971de5b",
    "layouttype": 2,
    "name": "kony.ui.FlexContainer",
    "orientation": 6,
    "parent": "segDebitCardTrans",
    "percent": true,
    "pf": "segDebitCardTrans",
    "snapgridsize": 10,
    "snaptogrid": true,
    "wType": "FlexContainer",
    "widgetalignment": 1
}