{
    "@class": "com.kony.gen.viz.model.component.KVizButton",
    "DNDConfig": null,
    "__parentReadjusting__": false,
    "_height_": {
        "type": "string",
        "value": "0%"
    },
    "_left_": {
        "type": "string",
        "value": "0%"
    },
    "_margin_": [
        6,
        6,
        6,
        6
    ],
    "_padding_": [
        0,
        0,
        0,
        0
    ],
    "_skin_": "s1f2352c08344c18bc3e19c4756a569a",
    "_text_": "Proceed",
    "_top_": {
        "type": "string",
        "value": "0%"
    },
    "_width_": {
        "type": "string",
        "value": "0%"
    },
    "canUpdateUI": true,
    "centerx": {
        "type": "string",
        "value": "50%"
    },
    "containerweight": 100,
    "contentalignment": 5,
    "displaytext": true,
    "focusskin": "s2e859baca8041a3a002e98a02684d3b",
    "id": "btnEnglish",
    "info": null,
    "isvisible": false,
    "kuid": "c78d91640f97484da2552e929a0bf7a2",
    "masterType": 1,
    "name": "kony.ui.Button",
    "paddinginpixel": false,
    "parent": "flxMain",
    "pf": "frmNewTransferKA",
    "wType": "Button",
    "zindex": 1
}