{
    "@class": "com.kony.gen.viz.model.component.KVizButton",
    "DNDConfig": null,
    "__parentReadjusting__": false,
    "_height_": {
        "type": "string",
        "value": "20%"
    },
    "_left_": {
        "type": "string",
        "value": "5%"
    },
    "_margin_": [
        6,
        6,
        6,
        6
    ],
    "_padding_": [
        0,
        0,
        0,
        0
    ],
    "_skin_": "s7383615e4f04fc8a44f10f5e544ac57",
    "_text_": "o",
    "_top_": {
        "type": "string",
        "value": "20%"
    },
    "_width_": {
        "type": "string",
        "value": "90%"
    },
    "canUpdateUI": true,
    "containerweight": 100,
    "contentalignment": 6,
    "displaytext": true,
    "focusskin": "sfdddcea6cff4d788f42120343a323ef",
    "id": "btnTransferCategory",
    "ide_onClick": "AS_Button_e502a7ef8828435bbd0e4ff2e45d03b8",
    "info": null,
    "isvisible": true,
    "kuid": "g75a75bfd8234715b75398d8431e1449",
    "name": "kony.ui.Button",
    "parent": "flxPurpose",
    "pf": "frmNewTransferKA",
    "texti18n": "i18n.common.backReverse",
    "wType": "Button",
    "zindex": 3
}