{
    "DNDConfig": null,
    "__parentReadjusting__": false,
    "_height_": {
        "type": "string",
        "value": "70%"
    },
    "_left_": {
        "type": "string",
        "value": "-0.04%"
    },
    "_margin_": [
        0,
        0,
        0,
        0
    ],
    "_orientation_": 6,
    "_padding_": [
        0,
        0,
        0,
        0
    ],
    "_percent_": true,
    "_skin_": "s388f0c575ef4d08ac3a5ed0a4b90085",
    "_top_": {
        "type": "string",
        "value": "0%"
    },
    "_width_": {
        "type": "string",
        "value": "100%"
    },
    "allboxes": [],
    "autogrowmode": 0,
    "canUpdateUI": true,
    "children": [
        "flxIcon2",
        "lblAccountName2",
        "lblAccountNumber2",
        "btnForward2",
        "CopylblLine0hd66bb44c34643",
        "CopylblLine0b03cf015d52c4a"
    ],
    "clipbounds": true,
    "containerweight": 100,
    "enablescrolling": true,
    "id": "flxAcc2",
    "ide_onTouchStart": "AS_FlexContainer_c2307be089a04dca84eabfed19332cf6",
    "info": null,
    "isvisible": true,
    "kuid": "c5ba6cfc7cd342dea46ef0327d917cc0",
    "layouttype": 2,
    "name": "kony.ui.FlexContainer",
    "parent": "flxAccount2",
    "pf": "frmNewTransferKA",
    "snapgridsize": 10,
    "snaptogrid": true,
    "wType": "FlexContainer",
    "widgetalignment": 1,
    "zindex": 1
}