{
    "@class": "com.kony.gen.viz.model.component.KVizLabel",
    "DNDConfig": null,
    "__parentReadjusting__": false,
    "_height_": {
        "type": "ref",
        "value": "preferred"
    },
    "_left_": {
        "type": "string",
        "value": "30%"
    },
    "_margin_": [
        1,
        1,
        1,
        1
    ],
    "_padding_": [
        0,
        0,
        0,
        0
    ],
    "_skin_": "sfb9c290ea534fb998edfba8f5a96ad5",
    "_text_": "",
    "_top_": {
        "type": "string",
        "value": "19.82%"
    },
    "_width_": {
        "type": "ref",
        "value": "preferred"
    },
    "_wrapping_": 2,
    "android": {
        "textStyle": {
            "letterSpacing": 0,
            "strikeThrough": false
        }
    },
    "canUpdateUI": true,
    "centerx": {
        "type": "string",
        "value": "50.00%"
    },
    "containerweight": 100,
    "contentalignment": 5,
    "id": "lblHead",
    "info": null,
    "ipad": {
        "psp": {
            "wrapping": 2
        }
    },
    "iphone": {
        "psp": {
            "wrapping": 2
        }
    },
    "isvisible": true,
    "kuid": "da5e5908ab3e4716ac40b3d27eb17c9b",
    "name": "kony.ui.Label",
    "parent": "flx",
    "pf": "frmNewTransferKA",
    "texti18n": "i18.Transfer.sendmoneyto",
    "textstyle": {},
    "tooltip": "",
    "wType": "Label",
    "zindex": 1
}