{
    "@class": "com.kony.gen.viz.model.component.KVizButton",
    "DNDConfig": null,
    "__parentReadjusting__": false,
    "_height_": {
        "type": "string",
        "value": "60%"
    },
    "_left_": {
        "type": "string",
        "value": "0%"
    },
    "_margin_": [
        6,
        6,
        6,
        6
    ],
    "_padding_": [
        0,
        0,
        0,
        0
    ],
    "_skin_": "s1858dc0a19e403a93a532b59571c961",
    "_text_": "t",
    "_width_": {
        "type": "string",
        "value": "29%"
    },
    "canUpdateUI": true,
    "centery": {
        "type": "string",
        "value": "50%"
    },
    "containerweight": 100,
    "contentalignment": 5,
    "displaytext": true,
    "focusskin": "sfdddcea6cff4d788f42120343a323ef",
    "id": "btnDeliveryModeBranch",
    "ide_onClick": "AS_FlexContainer_cd2ada5379164cf9a63516e05945eaaf",
    "info": null,
    "isvisible": true,
    "kuid": "f0a6c42451804506a491aba95235d822",
    "name": "kony.ui.Button",
    "parent": "flxDeliveryModeBranch",
    "pf": "frmApplyNewCardsKA",
    "wType": "Button",
    "zindex": 1
}