{
  "android": {
    "font_size": 48,
    "isForked": false
  },
  "background_color": "00000000",
  "bg_type": "one",
  "border_color": "424242ff",
  "border_style": "plain",
  "border_type": 0,
  "border_width": 0,
  "desktopweb": {
    "font_size": 125,
    "isForked": false
  },
  "fontSizeInPx": true,
  "font_color": "ffffff99",
  "font_name": "System",
  "font_size": 71,
  "font_style": "normal",
  "font_weight": "normal",
  "ipad": {
    "font_size": 71,
    "isForked": false
  },
  "iphone": {
    "font_size": 71,
    "isForked": false
  },
  "isDefaultSkin": false,
  "kiosk": {
    "font_size": 125,
    "isForked": false
  },
  "kuid": "s446177e9fc64ae5b4b4aa139c3cdc71",
  "spaan": {
    "font_size": 67,
    "isForked": false
  },
  "spaandroidtablet": {
    "font_size": 63,
    "isForked": false
  },
  "spabb": {
    "font_size": 83,
    "isForked": false
  },
  "spaip": {
    "font_size": 71,
    "isForked": false
  },
  "spaipad": {
    "font_size": 59,
    "isForked": false
  },
  "spawindowstablet": {
    "font_size": 59,
    "isForked": false
  },
  "spawinphone8": {
    "font_size": 83,
    "isForked": false
  },
  "tabrcandroid": {
    "font_size": 119,
    "isForked": false
  },
  "wType": "Label",
  "watchos": {
    "font_name": "Cairo-Regular",
    "font_size": 71,
    "isForked": false
  },
  "windows8": {
    "font_size": 49,
    "isForked": false
  },
  "winphone8": {
    "font_size": 67,
    "isForked": false
  }
}