{
  "android": {
    "font_name": "Cairo-Regular",
    "font_size": 125,
    "isForked": false
  },
  "background_color": "00000002",
  "bg_type": "one",
  "border_color": "000000ff",
  "border_style": "plain",
  "border_type": 0,
  "border_width": 0,
  "desktopweb": {
    "font_name": "Cairo-Regular",
    "font_size": 125,
    "isForked": false
  },
  "font_color": "ffffffff",
  "font_name": "Cairo-Regular",
  "font_size": 125,
  "ipad": {
    "font_name": "Cairo-Regular",
    "font_size": 125,
    "isForked": false
  },
  "iphone": {
    "font_name": "Cairo-Regular",
    "font_size": 125,
    "isForked": false
  },
  "isDefaultSkin": false,
  "kiosk": {
    "font_name": "GenericMonospace",
    "font_size": 125,
    "isForked": false
  },
  "kuid": "s52dd383efbd4dd6aaca25887d48a3e8",
  "spaan": {
    "font_name": "Cairo-Regular",
    "font_size": 125,
    "isForked": false
  },
  "spaandroidtablet": {
    "font_name": "Cairo-Regular",
    "font_size": 125,
    "isForked": false
  },
  "spabb": {
    "font_name": "Cairo-Regular",
    "font_size": 125,
    "isForked": false
  },
  "spaip": {
    "font_name": "Cairo-Regular",
    "font_size": 125,
    "isForked": false
  },
  "spaipad": {
    "font_name": "Cairo-Regular",
    "font_size": 125,
    "isForked": false
  },
  "spawindowstablet": {
    "font_name": "Cairo-Regular",
    "font_size": 125,
    "isForked": false
  },
  "spawinphone8": {
    "font_name": "Cairo-Regular",
    "font_size": 125,
    "isForked": false
  },
  "tabrcandroid": {
    "font_name": "Cairo-Regular",
    "font_size": 125,
    "isForked": false
  },
  "wType": "Grid Calendar Cell Skin",
  "watchos": {
    "font_name": "Cairo-Regular",
    "font_size": 125,
    "isForked": false
  },
  "windows8": {
    "font_name": "GenericMonospace",
    "font_size": 125,
    "isForked": false
  },
  "winphone8": {
    "font_name": "GenericMonospace",
    "font_size": 125,
    "isForked": false
  }
}