{
  "background_color": "ffffff21",
  "bg_type": "one",
  "border_color": "ffffff21",
  "border_style": "plain",
  "border_type": 0,
  "border_width": 1,
  "isDefaultSkin": false,
  "kuid": "s02e8facee4f4d5aa49965ae03cb80d3",
  "wType": "FlexContainer"
}