{
  "background_image": "headerbig.png",
  "bg_type": "image",
  "border_color": "000000ff",
  "border_style": "plain",
  "border_type": 0,
  "border_width": 0,
  "isDefaultSkin": false,
  "kuid": "s7faeba8e79f4278a6b36c28ea36b97d",
  "wType": "FlexContainer"
}