{
  "android": {
    "font_name": "BoJFont",
    "font_size": 52,
    "isForked": false
  },
  "background_color": "00000000",
  "bg_type": "one",
  "border_color": "424242ff",
  "border_style": "plain",
  "border_type": 0,
  "border_width": 0,
  "desktopweb": {
    "font_name": "Andale Mono",
    "font_size": 138,
    "isForked": false
  },
  "fontSizeInPx": true,
  "font_color": "ffffffff",
  "font_name": "System",
  "font_size": 79,
  "font_style": "normal",
  "font_weight": "normal",
  "ipad": {
    "font_name": "AmericanTypewriter",
    "font_size": 79,
    "isForked": false
  },
  "iphone": {
    "font_name": "cairo",
    "font_size": 79,
    "isForked": false
  },
  "isDefaultSkin": false,
  "kiosk": {
    "font_name": "GenericMonospace",
    "font_size": 138,
    "isForked": false
  },
  "kuid": "sca515fe05204e8699a180a522fc01ef",
  "spaan": {
    "font_name": "Andale Mono",
    "font_size": 73,
    "isForked": false
  },
  "spaandroidtablet": {
    "font_name": "Andale Mono",
    "font_size": 69,
    "isForked": false
  },
  "spabb": {
    "font_name": "Andale Mono",
    "font_size": 92,
    "isForked": false
  },
  "spaip": {
    "font_name": "Andale Mono",
    "font_size": 79,
    "isForked": false
  },
  "spaipad": {
    "font_name": "Andale Mono",
    "font_size": 65,
    "isForked": false
  },
  "spawindowstablet": {
    "font_name": "Andale Mono",
    "font_size": 65,
    "isForked": false
  },
  "spawinphone8": {
    "font_name": "Andale Mono",
    "font_size": 92,
    "isForked": false
  },
  "tabrcandroid": {
    "font_name": "BoJFont",
    "font_size": 130,
    "isForked": false
  },
  "wType": "Label",
  "watchos": {
    "font_name": "Cairo-Regular",
    "font_size": 79,
    "isForked": false
  },
  "windows8": {
    "font_name": "GenericMonospace",
    "font_size": 54,
    "isForked": false
  },
  "winphone8": {
    "font_name": "GenericMonospace",
    "font_size": 73,
    "isForked": false
  }
}