{
  "background_color": "0f738f00",
  "bg_type": "one",
  "border_color": "000000ff",
  "border_radius": 2,
  "border_style": "custom",
  "border_type": 0,
  "border_width": 0,
  "font_color": "000000ff",
  "font_name": "Arial",
  "font_size": 100,
  "font_style": "normal",
  "font_weight": "normal",
  "isDefaultSkin": false,
  "kuid": "s60649ded06c41298977d6c6ae22c708",
  "wType": "Group",
  "watchos": {}
}