{
  "background_color": "072c48ff",
  "bg_type": "one",
  "border_color": "000000ff",
  "border_style": "plain",
  "border_type": 0,
  "border_width": 0,
  "isDefaultSkin": false,
  "kuid": "s2c8bd1500ee4bada555023f05f4d5b2",
  "wType": "FlexContainer"
}