{
  "background_color": "f7f7f7ff",
  "bg_type": "one",
  "border_color": "000000ff",
  "border_style": "plain",
  "border_type": 0,
  "border_width": 0,
  "isDefaultSkin": false,
  "kuid": "s05c10c374c2423a8c96e9f358055409",
  "wType": "FlexContainer"
}