{
  "android": {
    "font_size": 120,
    "isForked": false
  },
  "background_color": "ffffff00",
  "bg_type": "one",
  "border_color": "000000ff",
  "border_style": "plain",
  "border_type": 0,
  "border_width": 0,
  "desktopweb": {
    "font_size": 120,
    "isForked": false
  },
  "font_color": "ffffffb2",
  "font_name": "Cairo-Regular",
  "font_size": 120,
  "ipad": {
    "font_size": 120,
    "isForked": false
  },
  "iphone": {
    "font_name": "Cairo-Light",
    "font_size": 120,
    "isForked": false
  },
  "isDefaultSkin": false,
  "kiosk": {
    "font_size": 120,
    "isForked": false
  },
  "kuid": "safce39788ad43de89276a0afcd1f8c8",
  "spaan": {
    "font_size": 120,
    "isForked": false
  },
  "spaandroidtablet": {
    "font_size": 120,
    "isForked": false
  },
  "spabb": {
    "font_size": 120,
    "isForked": false
  },
  "spaip": {
    "font_size": 120,
    "isForked": false
  },
  "spaipad": {
    "font_size": 120,
    "isForked": false
  },
  "spawindowstablet": {
    "font_size": 120,
    "isForked": false
  },
  "spawinphone8": {
    "font_size": 120,
    "isForked": false
  },
  "tabrcandroid": {
    "font_size": 120,
    "isForked": false
  },
  "wType": "RadioButtonGroup",
  "watchos": {
    "font_size": 120,
    "isForked": false
  },
  "windows8": {
    "font_size": 120,
    "isForked": false
  },
  "winphone8": {
    "font_size": 120,
    "isForked": false
  }
}