{
  "android": {
    "background_color": "ffffff00",
    "bg_type": "one",
    "border_color": "fffffffc",
    "border_style": "cr",
    "border_type": 0,
    "border_width": 1,
    "font_color": "909090ff",
    "font_name": "Cairo-Regular",
    "isForked": true,
    "text_shadow": {
      "br": 0,
      "color": "000000ff",
      "x": 0,
      "y": -1
    }
  },
  "background_color": "ffffff00",
  "bg_type": "one",
  "border_color": "ffffffff",
  "border_radius": 100,
  "border_style": "custom",
  "border_type": 0,
  "border_width": 1,
  "desktopweb": {
    "background_color": "ffffff00",
    "bg_type": "one",
    "font_color": "909090ff",
    "font_name": "Cairo-Regular",
    "isForked": true
  },
  "font_color": "ffffffff",
  "font_name": "Cairo-Regular",
  "font_size": 148,
  "font_style": "normal",
  "font_weight": "normal",
  "ipad": {
    "background_color": "ffffff00",
    "bg_type": "one",
    "border_color": "fffffffc",
    "border_style": "cr",
    "border_type": 0,
    "border_width": 1,
    "font_color": "909090ff",
    "font_name": "Cairo-Regular",
    "isForked": true
  },
  "iphone": {
    "background_color": "ffffff00",
    "bg_type": "one",
    "border_color": "fffffffc",
    "border_type": 0,
    "font_name": "Cairo-Regular",
    "isForked": true
  },
  "isDefaultSkin": false,
  "kiosk": {
    "background_color": "ffffff00",
    "bg_type": "one",
    "border_color": "fffffffc",
    "border_style": "plain",
    "border_type": 0,
    "border_width": 1,
    "font_color": "909090ff",
    "font_name": "GenericMonospace",
    "isForked": true
  },
  "kuid": "se22e6c71bfa44618a7be7f0858a1316",
  "spaan": {
    "background_color": "ffffff00",
    "bg_type": "one",
    "font_color": "909090ff",
    "font_name": "Cairo-Regular",
    "isForked": true
  },
  "spaandroidtablet": {
    "background_color": "ffffff00",
    "bg_type": "one",
    "font_color": "909090ff",
    "font_name": "Cairo-Regular",
    "isForked": true
  },
  "spabb": {
    "background_color": "ffffff00",
    "bg_type": "one",
    "font_color": "909090ff",
    "font_name": "Cairo-Regular",
    "isForked": true
  },
  "spaip": {
    "background_color": "ffffff00",
    "bg_type": "one",
    "font_color": "909090ff",
    "font_name": "Cairo-Regular",
    "isForked": true
  },
  "spaipad": {
    "background_color": "ffffff00",
    "bg_type": "one",
    "font_color": "909090ff",
    "font_name": "Cairo-Regular",
    "isForked": true
  },
  "spawindowstablet": {
    "background_color": "ffffff00",
    "bg_type": "one",
    "font_color": "909090ff",
    "font_name": "Cairo-Regular",
    "isForked": true
  },
  "spawinphone8": {
    "background_color": "ffffff00",
    "bg_type": "one",
    "font_color": "909090ff",
    "font_name": "Cairo-Regular",
    "isForked": true
  },
  "tabrcandroid": {
    "background_color": "ffffff00",
    "bg_type": "one",
    "border_color": "fffffffc",
    "border_style": "cr",
    "border_type": 0,
    "border_width": 1,
    "font_color": "909090ff",
    "font_name": "Cairo-Regular",
    "isForked": true,
    "text_shadow": {
      "br": 0,
      "color": "000000ff",
      "x": 0,
      "y": -1
    }
  },
  "wType": "Button",
  "watchos": {
    "background_color": "ffffff00",
    "bg_type": "one",
    "font_color": "909090ff",
    "font_name": "Cairo-Regular",
    "isForked": true
  },
  "windows8": {
    "background_color": "ffffff00",
    "bg_type": "one",
    "border_color": "fffffffc",
    "border_style": "plain",
    "border_type": 0,
    "border_width": 1,
    "font_color": "909090ff",
    "font_name": "GenericMonospace",
    "isForked": true
  },
  "winphone8": {
    "background_color": "ffffff00",
    "bg_type": "one",
    "border_color": "fffffffc",
    "border_style": "plain",
    "border_type": 0,
    "border_width": 1,
    "font_color": "909090ff",
    "font_name": "GenericMonospace",
    "isForked": true
  }
}