{
  "background_color": "bdaebd00",
  "bg_type": "one",
  "border_color": "ffffff66",
  "border_style": "plain",
  "border_type": 0,
  "border_width": 1,
  "isDefaultSkin": false,
  "kuid": "s6c7484a4a4d4ce4af38ac703e62ab20",
  "wType": "FlexContainer"
}