{
  "android": {
    "background_image": "bg02.png",
    "bg_type": "image",
    "isForked": true
  },
  "background_image": "",
  "bg_type": "image",
  "border_color": "ffffffff",
  "delinkedPltfrms": {
    "desktop": [],
    "mobile": [
      "iphone"
    ],
    "tablet": [],
    "watch": []
  },
  "desktopweb": {
    "background_image": "bg02.png",
    "bg_type": "image",
    "bottom_left_border_color": "ffffffff",
    "bottom_left_border_style": "plain",
    "bottom_right_border_color": "ffffffff",
    "bottom_right_border_style": "plain",
    "isForked": true,
    "top_left_border_color": "ffffffff",
    "top_left_border_style": "plain",
    "top_right_border_color": "ffffffff",
    "top_right_border_style": "plain"
  },
  "ipad": {
    "background_image": "bg02.png",
    "bg_type": "image",
    "isForked": true
  },
  "iphone": {
    "background_image": "bgn.png",
    "bg_type": "image",
    "isForked": true
  },
  "isDefaultSkin": false,
  "kiosk": {
    "background_image": "bg02.png",
    "bg_type": "image",
    "isForked": true
  },
  "kuid": "s2cc2a4997dc4dc086b30ca70ac19f18",
  "spaan": {
    "background_image": "bg02.png",
    "bg_type": "image",
    "bottom_left_border_color": "ffffffff",
    "bottom_left_border_style": "plain",
    "bottom_right_border_color": "ffffffff",
    "bottom_right_border_style": "plain",
    "isForked": true,
    "top_left_border_color": "ffffffff",
    "top_left_border_style": "plain",
    "top_right_border_color": "ffffffff",
    "top_right_border_style": "plain"
  },
  "spaandroidtablet": {
    "background_image": "bg02.png",
    "bg_type": "image",
    "bottom_left_border_color": "ffffffff",
    "bottom_left_border_style": "plain",
    "bottom_right_border_color": "ffffffff",
    "bottom_right_border_style": "plain",
    "isForked": true,
    "top_left_border_color": "ffffffff",
    "top_left_border_style": "plain",
    "top_right_border_color": "ffffffff",
    "top_right_border_style": "plain"
  },
  "spabb": {
    "background_image": "bg02.png",
    "bg_type": "image",
    "bottom_left_border_color": "ffffffff",
    "bottom_left_border_style": "plain",
    "bottom_right_border_color": "ffffffff",
    "bottom_right_border_style": "plain",
    "isForked": true,
    "top_left_border_color": "ffffffff",
    "top_left_border_style": "plain",
    "top_right_border_color": "ffffffff",
    "top_right_border_style": "plain"
  },
  "spaip": {
    "background_image": "bg02.png",
    "bg_type": "image",
    "bottom_left_border_color": "ffffffff",
    "bottom_left_border_style": "plain",
    "bottom_right_border_color": "ffffffff",
    "bottom_right_border_style": "plain",
    "isForked": true,
    "top_left_border_color": "ffffffff",
    "top_left_border_style": "plain",
    "top_right_border_color": "ffffffff",
    "top_right_border_style": "plain"
  },
  "spaipad": {
    "background_image": "bg02.png",
    "bg_type": "image",
    "bottom_left_border_color": "ffffffff",
    "bottom_left_border_style": "plain",
    "bottom_right_border_color": "ffffffff",
    "bottom_right_border_style": "plain",
    "isForked": true,
    "top_left_border_color": "ffffffff",
    "top_left_border_style": "plain",
    "top_right_border_color": "ffffffff",
    "top_right_border_style": "plain"
  },
  "spawindowstablet": {
    "background_image": "bg02.png",
    "bg_type": "image",
    "bottom_left_border_color": "ffffffff",
    "bottom_left_border_style": "plain",
    "bottom_right_border_color": "ffffffff",
    "bottom_right_border_style": "plain",
    "isForked": true,
    "top_left_border_color": "ffffffff",
    "top_left_border_style": "plain",
    "top_right_border_color": "ffffffff",
    "top_right_border_style": "plain"
  },
  "spawinphone8": {
    "background_image": "bg02.png",
    "bg_type": "image",
    "bottom_left_border_color": "ffffffff",
    "bottom_left_border_style": "plain",
    "bottom_right_border_color": "ffffffff",
    "bottom_right_border_style": "plain",
    "isForked": true,
    "top_left_border_color": "ffffffff",
    "top_left_border_style": "plain",
    "top_right_border_color": "ffffffff",
    "top_right_border_style": "plain"
  },
  "tabrcandroid": {
    "background_image": "bg02.png",
    "bg_type": "image",
    "isForked": true
  },
  "wType": "Form",
  "watchos": {
    "background_image": "bg02.png",
    "bg_type": "image",
    "isForked": true
  },
  "windows8": {
    "background_image": "bg02.png",
    "bg_type": "image",
    "isForked": true
  },
  "winphone8": {
    "background_image": "bg02.png",
    "bg_type": "image",
    "isForked": true
  }
}