{
  "background_color": "ffffff00",
  "bg_type": "one",
  "border_color": "eeeeeeff",
  "border_style": "plain",
  "border_type": 0,
  "border_width": 0,
  "isDefaultSkin": false,
  "kuid": "s6c103fe0a1a44cfa468f57cebc1624f",
  "wType": "FlexContainer"
}