{
  "background_color": "ffffffff",
  "bg_type": "one",
  "border_color": "e2e2e2ff",
  "border_style": "plain",
  "border_type": 0,
  "border_width": 1,
  "isDefaultSkin": false,
  "kuid": "sb7087fa2d0347e0b12221fab93908c1",
  "wType": "FlexContainer"
}