{
  "background_color": "f7f7f7ff",
  "bg_type": "one",
  "border_color": "e2e2e2ff",
  "border_radius": 2,
  "border_style": "custom",
  "border_type": 0,
  "border_width": 1,
  "desktopweb": {
    "bottom_left_border_color": "e2e2e2ff",
    "bottom_left_border_style": "plain",
    "bottom_left_border_width": 1,
    "bottom_right_border_color": "e2e2e2ff",
    "bottom_right_border_style": "plain",
    "bottom_right_border_width": 1,
    "isForked": true,
    "shadow": {
      "br": 4,
      "color": "757575ff",
      "inner": false,
      "nm": 0,
      "x": 0,
      "y": 2
    },
    "top_left_border_color": "e2e2e2ff",
    "top_left_border_style": "plain",
    "top_left_border_width": 1,
    "top_right_border_color": "e2e2e2ff",
    "top_right_border_style": "plain",
    "top_right_border_width": 1
  },
  "ipad": {
    "isForked": true,
    "shadow": {
      "br": 4,
      "color": "757575ff",
      "inner": false,
      "nm": 0,
      "x": 0,
      "y": 2
    }
  },
  "iphone": {
    "isForked": true,
    "shadow": {
      "br": 4,
      "color": "757575ff",
      "inner": false,
      "nm": 0,
      "x": 0,
      "y": 2
    }
  },
  "isDefaultSkin": false,
  "kuid": "s49e44aaa1634748825a7c552faf759f",
  "spaan": {
    "bottom_left_border_color": "e2e2e2ff",
    "bottom_left_border_style": "plain",
    "bottom_left_border_width": 1,
    "bottom_right_border_color": "e2e2e2ff",
    "bottom_right_border_style": "plain",
    "bottom_right_border_width": 1,
    "isForked": true,
    "shadow": {
      "br": 4,
      "color": "757575ff",
      "inner": false,
      "nm": 0,
      "x": 0,
      "y": 2
    },
    "top_left_border_color": "e2e2e2ff",
    "top_left_border_style": "plain",
    "top_left_border_width": 1,
    "top_right_border_color": "e2e2e2ff",
    "top_right_border_style": "plain",
    "top_right_border_width": 1
  },
  "spaandroidtablet": {
    "bottom_left_border_color": "e2e2e2ff",
    "bottom_left_border_style": "plain",
    "bottom_left_border_width": 1,
    "bottom_right_border_color": "e2e2e2ff",
    "bottom_right_border_style": "plain",
    "bottom_right_border_width": 1,
    "isForked": true,
    "shadow": {
      "br": 4,
      "color": "757575ff",
      "inner": false,
      "nm": 0,
      "x": 0,
      "y": 2
    },
    "top_left_border_color": "e2e2e2ff",
    "top_left_border_style": "plain",
    "top_left_border_width": 1,
    "top_right_border_color": "e2e2e2ff",
    "top_right_border_style": "plain",
    "top_right_border_width": 1
  },
  "spabb": {
    "bottom_left_border_color": "e2e2e2ff",
    "bottom_left_border_style": "plain",
    "bottom_left_border_width": 1,
    "bottom_right_border_color": "e2e2e2ff",
    "bottom_right_border_style": "plain",
    "bottom_right_border_width": 1,
    "isForked": true,
    "shadow": {
      "br": 4,
      "color": "757575ff",
      "inner": false,
      "nm": 0,
      "x": 0,
      "y": 2
    },
    "top_left_border_color": "e2e2e2ff",
    "top_left_border_style": "plain",
    "top_left_border_width": 1,
    "top_right_border_color": "e2e2e2ff",
    "top_right_border_style": "plain",
    "top_right_border_width": 1
  },
  "spaip": {
    "bottom_left_border_color": "e2e2e2ff",
    "bottom_left_border_style": "plain",
    "bottom_left_border_width": 1,
    "bottom_right_border_color": "e2e2e2ff",
    "bottom_right_border_style": "plain",
    "bottom_right_border_width": 1,
    "isForked": true,
    "shadow": {
      "br": 4,
      "color": "757575ff",
      "inner": false,
      "nm": 0,
      "x": 0,
      "y": 2
    },
    "top_left_border_color": "e2e2e2ff",
    "top_left_border_style": "plain",
    "top_left_border_width": 1,
    "top_right_border_color": "e2e2e2ff",
    "top_right_border_style": "plain",
    "top_right_border_width": 1
  },
  "spaipad": {
    "bottom_left_border_color": "e2e2e2ff",
    "bottom_left_border_style": "plain",
    "bottom_left_border_width": 1,
    "bottom_right_border_color": "e2e2e2ff",
    "bottom_right_border_style": "plain",
    "bottom_right_border_width": 1,
    "isForked": true,
    "shadow": {
      "br": 4,
      "color": "757575ff",
      "inner": false,
      "nm": 0,
      "x": 0,
      "y": 2
    },
    "top_left_border_color": "e2e2e2ff",
    "top_left_border_style": "plain",
    "top_left_border_width": 1,
    "top_right_border_color": "e2e2e2ff",
    "top_right_border_style": "plain",
    "top_right_border_width": 1
  },
  "spawindowstablet": {
    "bottom_left_border_color": "e2e2e2ff",
    "bottom_left_border_style": "plain",
    "bottom_left_border_width": 1,
    "bottom_right_border_color": "e2e2e2ff",
    "bottom_right_border_style": "plain",
    "bottom_right_border_width": 1,
    "isForked": true,
    "shadow": {
      "br": 4,
      "color": "757575ff",
      "inner": false,
      "nm": 0,
      "x": 0,
      "y": 2
    },
    "top_left_border_color": "e2e2e2ff",
    "top_left_border_style": "plain",
    "top_left_border_width": 1,
    "top_right_border_color": "e2e2e2ff",
    "top_right_border_style": "plain",
    "top_right_border_width": 1
  },
  "spawinphone8": {
    "bottom_left_border_color": "e2e2e2ff",
    "bottom_left_border_style": "plain",
    "bottom_left_border_width": 1,
    "bottom_right_border_color": "e2e2e2ff",
    "bottom_right_border_style": "plain",
    "bottom_right_border_width": 1,
    "isForked": true,
    "shadow": {
      "br": 4,
      "color": "757575ff",
      "inner": false,
      "nm": 0,
      "x": 0,
      "y": 2
    },
    "top_left_border_color": "e2e2e2ff",
    "top_left_border_style": "plain",
    "top_left_border_width": 1,
    "top_right_border_color": "e2e2e2ff",
    "top_right_border_style": "plain",
    "top_right_border_width": 1
  },
  "wType": "FlexContainer"
}