{
  "background_color": "f7f7f7ff",
  "bg_type": "one",
  "border_color": "e2e2e2ff",
  "border_style": "plain",
  "border_type": 0,
  "border_width": 0,
  "isDefaultSkin": false,
  "kuid": "s452c398ea144f41b0d6d61222938baa",
  "wType": "FlexContainer"
}