{
  "background_color": "00000000",
  "bg_type": "one",
  "border_color": "00000019",
  "border_radius": 40,
  "border_style": "custom",
  "border_type": 0,
  "border_width": 1,
  "font_color": "000000ff",
  "font_name": "Cairo-Regular",
  "font_size": 100,
  "font_style": "normal",
  "font_weight": "normal",
  "isDefaultSkin": false,
  "kuid": "s85710590d0b4ac8b63e7887befc7431",
  "wType": "Camera"
}