{
  "background_color": "ffffffff",
  "bg_type": "one",
  "border_color": "0000004c",
  "border_style": "plain",
  "border_type": 0,
  "border_width": 1,
  "isDefaultSkin": false,
  "kuid": "s526e474eb95441a955a92dec241f796",
  "wType": "FlexContainer"
}