{
  "background_color": "072c48ff",
  "bg_type": "one",
  "border_color": "000000ff",
  "border_style": "plain",
  "border_type": 0,
  "border_width": 0,
  "isDefaultSkin": false,
  "kuid": "s522075c7961463dbb56113600c43cb1",
  "wType": "FlexContainer"
}