{
  "background_color": "00142fff",
  "bg_type": "one",
  "border_color": "000000ff",
  "border_style": "plain",
  "border_type": 0,
  "border_width": 0,
  "isDefaultSkin": false,
  "kuid": "sddd6039d09a461196f31b3011e720b5",
  "wType": "FlexContainer"
}