{
  "background_color": "f7f7f7ff",
  "bg_type": "one",
  "border_color": "e2e2e24c",
  "border_style": "rc",
  "border_type": 0,
  "border_width": 1,
  "isDefaultSkin": false,
  "kuid": "s6cbe22341c84ec795b92898f43b235e",
  "wType": "FlexContainer"
}