{
  "background_color": "05214a66",
  "bg_type": "one",
  "border_color": "000000ff",
  "border_style": "plain",
  "border_type": 0,
  "border_width": 0,
  "isDefaultSkin": false,
  "kuid": "s5556363cd32445c97a0b69cb7889976",
  "wType": "FlexContainer"
}