{
  "background_color": "949494ff",
  "bg_type": "one",
  "border_color": "949494ff",
  "border_radius": 100,
  "border_style": "custom",
  "border_type": 0,
  "border_width": 1,
  "isDefaultSkin": false,
  "kuid": "sc60030f2a5c4f9c8d9c41c9bfd0073a",
  "wType": "FlexContainer"
}