{
  "background_color": "909090ff",
  "bg_type": "one",
  "border_color": "909090ff",
  "border_radius": 100,
  "border_style": "custom",
  "border_type": 0,
  "border_width": 1,
  "isDefaultSkin": false,
  "kuid": "s7f6704979424b8787d4d1b072a96163",
  "wType": "FlexContainer"
}