{
  "background_color": "3394e800",
  "bg_type": "one",
  "border_color": "000000ff",
  "border_style": "plain",
  "border_type": 0,
  "border_width": 0,
  "isDefaultSkin": false,
  "kuid": "sa67d5adb1e646139237d978d14465be",
  "wType": "FlexContainer"
}