{
  "background_color": "072c48ff",
  "bg_type": "one",
  "border_color": "ffffff00",
  "border_radius": 100,
  "border_style": "custom",
  "border_type": 0,
  "border_width": 2,
  "isDefaultSkin": false,
  "kuid": "s7ad9ac5708d42b6b8221c9c884c5bee",
  "wType": "FlexContainer"
}