{
  "background_color": "093759ff",
  "bg_type": "one",
  "border_color": "000000ff",
  "border_style": "plain",
  "border_type": 0,
  "border_width": 0,
  "isDefaultSkin": false,
  "kuid": "s9ca35457cd64949bd945045f8d9638f",
  "wType": "FlexContainer"
}