{
  "android": {
    "background_color": "072c4800",
    "bg_type": "one",
    "border_color": "4e9dd9ff",
    "border_style": "plain",
    "border_type": 0,
    "border_width": 0,
    "isForked": true
  },
  "background_color": "4e9dd900",
  "bg_type": "one",
  "border_color": "4e9dd9ff",
  "border_style": "plain",
  "border_type": 0,
  "border_width": 1,
  "desktopweb": {
    "background_color": "072c4800",
    "bg_type": "one",
    "bottom_left_border_color": "4e9dd9ff",
    "bottom_left_border_style": "plain",
    "bottom_left_border_width": 1,
    "bottom_right_border_color": "4e9dd9ff",
    "bottom_right_border_style": "plain",
    "bottom_right_border_width": 1,
    "isForked": true,
    "top_left_border_color": "4e9dd9ff",
    "top_left_border_style": "plain",
    "top_left_border_width": 1,
    "top_right_border_color": "4e9dd9ff",
    "top_right_border_style": "plain",
    "top_right_border_width": 1
  },
  "ipad": {
    "background_color": "072c4800",
    "bg_type": "one",
    "border_color": "4e9dd9ff",
    "border_style": "plain",
    "border_type": 0,
    "border_width": 0,
    "isForked": true
  },
  "iphone": {
    "background_color": "072c4800",
    "bg_type": "one",
    "border_color": "4e9dd9ff",
    "border_style": "plain",
    "border_type": 0,
    "border_width": 0,
    "isForked": true
  },
  "isDefaultSkin": false,
  "kiosk": {
    "background_color": "072c4800",
    "bg_type": "one",
    "border_color": "4e9dd9ff",
    "border_style": "plain",
    "border_type": 0,
    "border_width": 0,
    "isForked": true
  },
  "kuid": "sdf1fb351682444ba64e04bca26c184a",
  "spaan": {
    "background_color": "072c4800",
    "bg_type": "one",
    "bottom_left_border_color": "4e9dd9ff",
    "bottom_left_border_style": "plain",
    "bottom_left_border_width": 1,
    "bottom_right_border_color": "4e9dd9ff",
    "bottom_right_border_style": "plain",
    "bottom_right_border_width": 1,
    "isForked": true,
    "top_left_border_color": "4e9dd9ff",
    "top_left_border_style": "plain",
    "top_left_border_width": 1,
    "top_right_border_color": "4e9dd9ff",
    "top_right_border_style": "plain",
    "top_right_border_width": 1
  },
  "spaandroidtablet": {
    "background_color": "072c4800",
    "bg_type": "one",
    "bottom_left_border_color": "4e9dd9ff",
    "bottom_left_border_style": "plain",
    "bottom_left_border_width": 1,
    "bottom_right_border_color": "4e9dd9ff",
    "bottom_right_border_style": "plain",
    "bottom_right_border_width": 1,
    "isForked": true,
    "top_left_border_color": "4e9dd9ff",
    "top_left_border_style": "plain",
    "top_left_border_width": 1,
    "top_right_border_color": "4e9dd9ff",
    "top_right_border_style": "plain",
    "top_right_border_width": 1
  },
  "spabb": {
    "background_color": "072c4800",
    "bg_type": "one",
    "bottom_left_border_color": "4e9dd9ff",
    "bottom_left_border_style": "plain",
    "bottom_left_border_width": 1,
    "bottom_right_border_color": "4e9dd9ff",
    "bottom_right_border_style": "plain",
    "bottom_right_border_width": 1,
    "isForked": true,
    "top_left_border_color": "4e9dd9ff",
    "top_left_border_style": "plain",
    "top_left_border_width": 1,
    "top_right_border_color": "4e9dd9ff",
    "top_right_border_style": "plain",
    "top_right_border_width": 1
  },
  "spaip": {
    "background_color": "072c4800",
    "bg_type": "one",
    "bottom_left_border_color": "4e9dd9ff",
    "bottom_left_border_style": "plain",
    "bottom_left_border_width": 1,
    "bottom_right_border_color": "4e9dd9ff",
    "bottom_right_border_style": "plain",
    "bottom_right_border_width": 1,
    "isForked": true,
    "top_left_border_color": "4e9dd9ff",
    "top_left_border_style": "plain",
    "top_left_border_width": 1,
    "top_right_border_color": "4e9dd9ff",
    "top_right_border_style": "plain",
    "top_right_border_width": 1
  },
  "spaipad": {
    "background_color": "072c4800",
    "bg_type": "one",
    "bottom_left_border_color": "4e9dd9ff",
    "bottom_left_border_style": "plain",
    "bottom_left_border_width": 1,
    "bottom_right_border_color": "4e9dd9ff",
    "bottom_right_border_style": "plain",
    "bottom_right_border_width": 1,
    "isForked": true,
    "top_left_border_color": "4e9dd9ff",
    "top_left_border_style": "plain",
    "top_left_border_width": 1,
    "top_right_border_color": "4e9dd9ff",
    "top_right_border_style": "plain",
    "top_right_border_width": 1
  },
  "spawindowstablet": {
    "background_color": "072c4800",
    "bg_type": "one",
    "bottom_left_border_color": "4e9dd9ff",
    "bottom_left_border_style": "plain",
    "bottom_left_border_width": 1,
    "bottom_right_border_color": "4e9dd9ff",
    "bottom_right_border_style": "plain",
    "bottom_right_border_width": 1,
    "isForked": true,
    "top_left_border_color": "4e9dd9ff",
    "top_left_border_style": "plain",
    "top_left_border_width": 1,
    "top_right_border_color": "4e9dd9ff",
    "top_right_border_style": "plain",
    "top_right_border_width": 1
  },
  "spawinphone8": {
    "background_color": "072c4800",
    "bg_type": "one",
    "bottom_left_border_color": "4e9dd9ff",
    "bottom_left_border_style": "plain",
    "bottom_left_border_width": 1,
    "bottom_right_border_color": "4e9dd9ff",
    "bottom_right_border_style": "plain",
    "bottom_right_border_width": 1,
    "isForked": true,
    "top_left_border_color": "4e9dd9ff",
    "top_left_border_style": "plain",
    "top_left_border_width": 1,
    "top_right_border_color": "4e9dd9ff",
    "top_right_border_style": "plain",
    "top_right_border_width": 1
  },
  "tabrcandroid": {
    "background_color": "072c4800",
    "bg_type": "one",
    "border_color": "4e9dd9ff",
    "border_style": "plain",
    "border_type": 0,
    "border_width": 0,
    "isForked": true
  },
  "wType": "HBox",
  "windows8": {
    "background_color": "072c4800",
    "bg_type": "one",
    "border_color": "4e9dd9ff",
    "border_style": "plain",
    "border_type": 0,
    "border_width": 0,
    "isForked": true
  },
  "winphone8": {
    "background_color": "072c4800",
    "bg_type": "one",
    "border_color": "4e9dd9ff",
    "border_style": "plain",
    "border_type": 0,
    "border_width": 0,
    "isForked": true
  }
}