{
  "android": {
    "font_color": "052b497f",
    "font_name": "Cairo-Regular",
    "font_size": 120,
    "isForked": true
  },
  "background_color": "00000000",
  "bg_type": "one",
  "border_color": "424242ff",
  "border_style": "plain",
  "border_type": 0,
  "border_width": 0,
  "desktopweb": {
    "font_color": "052b497f",
    "font_size": 120,
    "isForked": true
  },
  "fontSizeInPx": false,
  "font_color": "ffffff7f",
  "font_name": "Cairo-Regular",
  "font_size": 100,
  "font_style": "normal",
  "font_weight": "normal",
  "ipad": {
    "font_color": "052b497f",
    "font_size": 120,
    "isForked": true
  },
  "iphone": {
    "font_color": "052b497f",
    "font_name": "Cairo-Regular",
    "font_size": 120,
    "isForked": true
  },
  "isDefaultSkin": false,
  "kiosk": {
    "font_color": "052b497f",
    "font_size": 120,
    "isForked": true
  },
  "kuid": "sbdc565b2c794235ab59d9c015811f6e",
  "spaan": {
    "font_color": "052b497f",
    "font_size": 120,
    "isForked": true
  },
  "spaandroidtablet": {
    "font_color": "052b497f",
    "font_size": 120,
    "isForked": true
  },
  "spabb": {
    "font_color": "052b497f",
    "font_size": 120,
    "isForked": true
  },
  "spaip": {
    "font_color": "052b497f",
    "font_size": 120,
    "isForked": true
  },
  "spaipad": {
    "font_color": "052b497f",
    "font_size": 120,
    "isForked": true
  },
  "spawindowstablet": {
    "font_color": "052b497f",
    "font_size": 120,
    "isForked": true
  },
  "spawinphone8": {
    "font_color": "052b497f",
    "font_size": 120,
    "isForked": true
  },
  "tabrcandroid": {
    "font_color": "052b497f",
    "font_size": 120,
    "isForked": true
  },
  "wType": "Label",
  "watchos": {
    "font_color": "052b497f",
    "font_size": 120,
    "isForked": true
  },
  "windows8": {
    "font_color": "052b497f",
    "font_size": 120,
    "isForked": true
  },
  "winphone8": {
    "font_color": "052b497f",
    "font_size": 120,
    "isForked": true
  }
}