{
  "background_color": "052c49ff",
  "bg_type": "one",
  "border_color": "000000ff",
  "border_style": "plain",
  "border_type": 0,
  "border_width": 0,
  "isDefaultSkin": false,
  "kuid": "s85214ec8cac4cfea11d06cd7134aba2",
  "wType": "FlexContainer"
}