{
  "background_color": "ff4019ff",
  "bg_type": "one",
  "border_color": "424242ff",
  "border_style": "plain",
  "border_type": 0,
  "border_width": 0,
  "font_color": "ff4019ff",
  "font_name": "Cairo-Regular",
  "font_size": 214,
  "font_style": "normal",
  "font_weight": "normal",
  "isDefaultSkin": false,
  "kuid": "s634c3c036b340fc9a95fadbecc32e92",
  "wType": "Label"
}