{
  "background_color": "ffffff7f",
  "bg_type": "one",
  "border_color": "ffffff00",
  "border_radius": 100,
  "border_style": "custom",
  "border_type": 0,
  "border_width": 1,
  "isDefaultSkin": false,
  "kuid": "sb1f2af002e8412a86b949db32762d73",
  "wType": "FlexContainer"
}