{
  "android": {
    "font_name": "Lato-Light"
  },
  "background_color": "ffffff00",
  "bg_type": "one",
  "border_color": "282828ff",
  "border_style": "plain",
  "border_type": 0,
  "border_width": 1,
  "desktopweb": {
    "font_name": "Cairo-Regular"
  },
  "font_color": "555555ff",
  "font_name": "",
  "font_size": 107,
  "ipad": {
    "font_name": "Lato-Light"
  },
  "iphone": {
    "font_name": "Lato-Light"
  },
  "isDefaultSkin": false,
  "kiosk": {
    "font_name": "GenericMonospace"
  },
  "kuid": "sfdc78dd395d48a387d38e6a14d0fd92",
  "spaan": {
    "font_name": "Cairo-Regular"
  },
  "spaandroidtablet": {
    "font_name": "Cairo-Regular"
  },
  "spabb": {
    "font_name": "Cairo-Regular"
  },
  "spaip": {
    "font_name": "Cairo-Regular"
  },
  "spaipad": {
    "font_name": "Cairo-Regular"
  },
  "spawindowstablet": {
    "font_name": "Cairo-Regular"
  },
  "spawinphone8": {
    "font_name": "Cairo-Regular"
  },
  "tabrcandroid": {
    "font_name": "Lato-Light"
  },
  "wType": "TextField",
  "windows8": {
    "font_name": "GenericMonospace"
  },
  "winphone8": {
    "font_name": "GenericMonospace"
  }
}