{
  "background_color": "ffa500ff",
  "bg_type": "one",
  "border_color": "ffa500cc",
  "border_radius": 60,
  "border_style": "custom",
  "border_type": 0,
  "border_width": 1,
  "isDefaultSkin": false,
  "kuid": "sb06ec29a9f64e028b14acddc7a9e56e",
  "wType": "FlexContainer"
}