{
  "android": {
    "font_name": "Cairo-Regular",
    "font_size": 120,
    "isForked": false
  },
  "background_color": "ffffff00",
  "bg_type": "one",
  "border_color": "000000ff",
  "border_style": "plain",
  "border_type": 0,
  "border_width": 0,
  "desktopweb": {
    "font_name": "Cairo-Regular",
    "font_size": 120,
    "isForked": false
  },
  "fontSizeInPx": false,
  "font_color": "ffffff99",
  "font_name": "Cairo-Regular",
  "font_size": 120,
  "font_style": "normal",
  "font_weight": "normal",
  "ipad": {
    "font_name": "Cairo-Regular",
    "font_size": 120,
    "isForked": false
  },
  "iphone": {
    "font_name": "Cairo-Regular",
    "font_size": 120,
    "isForked": false
  },
  "isDefaultSkin": false,
  "kiosk": {
    "font_name": "GenericMonospace",
    "font_size": 120,
    "isForked": false
  },
  "kuid": "sc3f073ea9e94a7b87cf15b3a13bf504",
  "spaan": {
    "font_name": "Cairo-Regular",
    "font_size": 120,
    "isForked": false
  },
  "spaandroidtablet": {
    "font_name": "Cairo-Regular",
    "font_size": 120,
    "isForked": false
  },
  "spabb": {
    "font_name": "Cairo-Regular",
    "font_size": 120,
    "isForked": false
  },
  "spaip": {
    "font_name": "Cairo-Regular",
    "font_size": 120,
    "isForked": false
  },
  "spaipad": {
    "font_name": "Cairo-Regular",
    "font_size": 120,
    "isForked": false
  },
  "spawindowstablet": {
    "font_name": "Cairo-Regular",
    "font_size": 120,
    "isForked": false
  },
  "spawinphone8": {
    "font_name": "Cairo-Regular",
    "font_size": 120,
    "isForked": false
  },
  "tabrcandroid": {
    "font_name": "Cairo-Regular",
    "font_size": 120,
    "isForked": false
  },
  "wType": "RadioButtonGroup",
  "watchos": {
    "font_name": "Cairo-Regular",
    "font_size": 120,
    "isForked": false
  },
  "windows8": {
    "font_name": "GenericMonospace",
    "font_size": 120,
    "isForked": false
  },
  "winphone8": {
    "font_name": "GenericMonospace",
    "font_size": 120,
    "isForked": false
  }
}