{
  "background_color": "ffffffff",
  "bg_type": "one",
  "border_color": "d5d5d5ff",
  "border_style": "rc",
  "border_type": 0,
  "border_width": 1,
  "isDefaultSkin": false,
  "kuid": "s20d7307edd34690bec87aeb0ede5d4a",
  "wType": "FlexContainer"
}