{
  "android": {
    "background_image": "bojsplash.png",
    "bg_type": "image"
  },
  "background_color": "ffffff59",
  "bg_type": "one",
  "border_color": "ffffffff",
  "ipad": {
    "background_image": "bojsplash.png",
    "bg_type": "image"
  },
  "iphone": {
    "background_image": "bojsplash.png",
    "bg_type": "image"
  },
  "isDefaultSkin": false,
  "kuid": "sa528fe1f0e0494fb5ae69a507614888",
  "tabrcandroid": {
    "background_image": "bojsplash.png",
    "bg_type": "image"
  },
  "wType": "Form"
}