{
  "background_color": "00000000",
  "bg_type": "one",
  "border_color": "000000ff",
  "border_style": "plain",
  "border_type": 0,
  "border_width": 0,
  "font_color": "000000ff",
  "font_name": "Cairo-Regular",
  "font_size": 156,
  "font_style": "normal",
  "font_weight": "normal",
  "isDefaultSkin": true,
  "kuid": "s288bfbe07f3478aba7970cbf434dcdf",
  "wType": "Calendar"
}