{
  "background_color": "ee8922ff",
  "bg_type": "one",
  "border_color": "000000ff",
  "border_style": "plain",
  "border_type": 0,
  "border_width": 0,
  "isDefaultSkin": false,
  "kuid": "s6b57191d335481ab37fd8f431049cca",
  "wType": "FlexContainer"
}