{
  "background_color": "69809170",
  "bg_type": "one",
  "border_color": "000000ff",
  "border_style": "plain",
  "border_type": 0,
  "border_width": 0,
  "isDefaultSkin": false,
  "kuid": "sa5a89443b9445c58bf02a95564bfdd5",
  "wType": "FlexContainer"
}