{
  "android": {
    "font_name": "Cairo-Regular"
  },
  "background_color": "ffffff66",
  "bg_type": "one",
  "border_color": "ffffff02",
  "border_radius": 3,
  "border_style": "custom",
  "border_type": 0,
  "border_width": 1,
  "desktopweb": {
    "font_name": "Andale Mono"
  },
  "font_color": "ffffffff",
  "font_name": "",
  "font_size": 100,
  "font_style": "normal",
  "font_weight": "normal",
  "ipad": {
    "font_name": "Lato-Light"
  },
  "iphone": {
    "font_name": "Cairo-Regular"
  },
  "isDefaultSkin": false,
  "kiosk": {
    "font_name": "GenericMonospace"
  },
  "kuid": "s73f7f517ddd4ccfb09d161997022899",
  "spaan": {
    "font_name": "Andale Mono"
  },
  "spaandroidtablet": {
    "font_name": "Andale Mono"
  },
  "spabb": {
    "font_name": "Andale Mono"
  },
  "spaip": {
    "font_name": "Andale Mono"
  },
  "spaipad": {
    "font_name": "Andale Mono"
  },
  "spawindowstablet": {
    "font_name": "Andale Mono"
  },
  "spawinphone8": {
    "font_name": "Andale Mono"
  },
  "tabrcandroid": {
    "font_name": "Lato-Light"
  },
  "wType": "TextField",
  "watchos": {
    "font_name": "Arial"
  },
  "windows8": {
    "font_name": "GenericMonospace"
  },
  "winphone8": {
    "font_name": "GenericMonospace"
  }
}