{
  "background_image": "headerbig.png",
  "bg_type": "image",
  "border_color": "000000ff",
  "border_style": "plain",
  "border_type": 0,
  "border_width": 0,
  "isDefaultSkin": false,
  "kuid": "sc3164e3b74a48cea72ebddaa6207ae9",
  "wType": "FlexContainer"
}