{
  "background_color": "00000000",
  "bg_type": "one",
  "border_color": "000000ff",
  "border_style": "plain",
  "border_type": 0,
  "border_width": 0,
  "isDefaultSkin": false,
  "kuid": "saf0da53b0ff41829417181bd59b2eea",
  "wType": "FlexScrollContainer"
}