{
  "background_color": "b3b3b3ff",
  "bg_type": "one",
  "border_color": "b3b3b3ff",
  "border_style": "plain",
  "border_type": 0,
  "border_width": 0,
  "font_color": "b3b3b3ff",
  "font_name": "Cairo-Regular",
  "font_size": 156,
  "font_style": "normal",
  "font_weight": "normal",
  "isDefaultSkin": true,
  "kuid": "s2b97b9a4e9442939c98faab2bdc1884",
  "wType": "Line"
}