{
  "background_color": "dfc8efff",
  "bg_type": "one",
  "border_color": "dfc8efff",
  "border_style": "plain",
  "border_type": 0,
  "border_width": 1,
  "font_color": "424242ff",
  "font_name": "Cairo-Regular",
  "font_size": 214,
  "font_style": "normal",
  "font_weight": "normal",
  "isDefaultSkin": false,
  "kuid": "sc743af8bb994431b4fff1fd8f0a6a5b",
  "wType": "Label"
}