{
    "@class": "com.kony.gen.viz.model.component.KVizButton",
    "DNDConfig": null,
    "__parentReadjusting__": false,
    "_height_": {
        "type": "string",
        "value": "100%"
    },
    "_margin_": [
        6,
        6,
        6,
        6
    ],
    "_padding_": [
        0,
        0,
        0,
        0
    ],
    "_right_": {
        "type": "string",
        "value": "0%"
    },
    "_skin_": "s0c042beeeab49f58c4132537779445b",
    "_text_": "save",
    "_width_": {
        "type": "string",
        "value": "100%"
    },
    "canUpdateUI": true,
    "centery": {
        "type": "string",
        "value": "50%"
    },
    "containerweight": 100,
    "contentalignment": 5,
    "displaytext": true,
    "focusskin": "s0c042beeeab49f58c4132537779445b",
    "id": "btnSaveQuickBal",
    "ide_onClick": "AS_Button_hd30c8b058e84e48b65dfae882ee3f4e",
    "info": null,
    "isvisible": true,
    "kuid": "acb8af08fe26460fa2401695236da5d0",
    "name": "kony.ui.Button",
    "parent": "flxBack",
    "pf": "frmAuthorizationAlternatives",
    "texti18n": "i18n.common.save",
    "wType": "Button",
    "zindex": 2
}