{
    "DNDConfig": null,
    "__parentReadjusting__": false,
    "_height_": {
        "type": "string",
        "value": "25dp"
    },
    "_margin_": [
        0,
        0,
        0,
        0
    ],
    "_orientation_": 6,
    "_padding_": [
        0,
        0,
        0,
        0
    ],
    "_percent_": true,
    "_right_": {
        "type": "string",
        "value": "5%"
    },
    "_skin_": "sbcfe7bb08044eec8c39d165593571dc",
    "_top_": {
        "type": "string",
        "value": "0dp"
    },
    "_width_": {
        "type": "string",
        "value": "44dp"
    },
    "allboxes": [],
    "autogrowmode": 0,
    "canUpdateUI": true,
    "centery": {
        "type": "string",
        "value": "50%"
    },
    "children": [
        "CopyflxRoundDBlueOff0a5e3eddfada24b",
        "CopyflxNaveenbhaiKiLakeer0cb72155c61834c"
    ],
    "clipbounds": true,
    "containerId": true,
    "containerweight": 100,
    "enablescrolling": true,
    "id": "flxThisDeviceSwitchOff",
    "info": null,
    "isvisible": false,
    "kuid": "c6363c6bddb14ee78c7aeed7867e48fe",
    "layouttype": 2,
    "name": "kony.ui.FlexContainer",
    "parent": "flxDeviceDetailsEnabled",
    "pf": "tmpDeviceRegstrationEnabled",
    "snapgridsize": 10,
    "snaptogrid": true,
    "wType": "FlexContainer",
    "widgetalignment": 1,
    "zindex": 1
}