{
    "DNDConfig": null,
    "__parentReadjusting__": false,
    "_height_": {
        "type": "string",
        "value": "9%"
    },
    "_left_": {
        "type": "string",
        "value": "8%"
    },
    "_margin_": [
        0,
        0,
        0,
        0
    ],
    "_padding_": [
        0,
        0,
        0,
        0
    ],
    "_skin_": "s5449e85b7e0472ba7d4939096f3873d",
    "_top_": {
        "type": "string",
        "value": "1%"
    },
    "_width_": {
        "type": "string",
        "value": "75%"
    },
    "allboxes": [],
    "autogrowmode": 0,
    "canUpdateUI": true,
    "children": [
        "txtSecondaryEmail",
        "CopyborderBottom0f6eacdc8d58243",
        "lblSecondaryEmail"
    ],
    "clipbounds": true,
    "containerweight": 100,
    "defaultunit": 3,
    "enabled": false,
    "enablescrolling": true,
    "id": "flxSecondaryEmail",
    "info": null,
    "isvisible": true,
    "kuid": "b3c2404baa3e48e8b5a97cf119b3e0ea",
    "layouttype": 2,
    "name": "kony.ui.FlexContainer",
    "orientation": 6,
    "parent": "flxProfileEdit",
    "percent": true,
    "pf": "frmUserSettingsMyProfileKA",
    "snapgridsize": "20",
    "snaptogrid": true,
    "wType": "FlexContainer",
    "widgetalignment": 1,
    "zindex": 1
}