{
    "@class": "com.kony.gen.viz.model.component.KVizButton",
    "DNDConfig": null,
    "__parentReadjusting__": false,
    "_height_": {
        "type": "string",
        "value": "50%"
    },
    "_left_": {
        "type": "string",
        "value": "0%"
    },
    "_margin_": [
        6,
        6,
        6,
        6
    ],
    "_padding_": [
        0,
        0,
        0,
        0
    ],
    "_skin_": "sfdddcea6cff4d788f42120343a323ef",
    "_text_": "",
    "_top_": {
        "type": "string",
        "value": "35%"
    },
    "_width_": {
        "type": "string",
        "value": "90%"
    },
    "canUpdateUI": true,
    "containerweight": 100,
    "contentalignment": 6,
    "displaytext": true,
    "focusskin": "sfdddcea6cff4d788f42120343a323ef",
    "id": "btnAccountNumber",
    "ide_onClick": "AS_Button_b5539ce362fe4e19a40ffb0e8320fcd8",
    "info": null,
    "isvisible": true,
    "kuid": "bc60bd395f614e53a41a474d9682aca8",
    "name": "kony.ui.Button",
    "parent": "flxAccountNumber",
    "pf": "frmIPSRegistration",
    "texti18n": "i18n.common.reverseback",
    "wType": "Button",
    "zindex": 1
}