{
    "@class": "com.kony.gen.viz.model.component.KVizButton",
    "DNDConfig": null,
    "__parentReadjusting__": false,
    "_height_": {
        "type": "string",
        "value": "10%"
    },
    "_margin_": [
        6,
        6,
        6,
        6
    ],
    "_padding_": [
        0,
        0,
        0,
        0
    ],
    "_skin_": "sf7766faf6e34d0789442a84c1e76e1a",
    "_text_": "",
    "_width_": {
        "type": "string",
        "value": "70%"
    },
    "canUpdateUI": true,
    "centerx": {
        "type": "string",
        "value": "50%"
    },
    "centery": {
        "type": "string",
        "value": "50%"
    },
    "containerweight": 100,
    "contentalignment": 5,
    "displaytext": true,
    "focusskin": "sad5d6d4890b44858a39e4bf8a290332",
    "id": "btnConfirm",
    "ide_onClick": "AS_Button_dd3a17c7a39548498bd44bb6b70716c6",
    "info": null,
    "isvisible": true,
    "kuid": "id08655df1c64ec09fc84d8ffdc0fbcb",
    "name": "kony.ui.Button",
    "parent": "flxConfirmation",
    "pf": "frmIPSRegistration",
    "texti18n": "i18n.Bene.Confirm",
    "wType": "Button",
    "zindex": 1
}