{
    "DNDConfig": null,
    "__parentReadjusting__": false,
    "_height_": {
        "type": "string",
        "value": "7%"
    },
    "_left_": {
        "type": "string",
        "value": "5%"
    },
    "_margin_": [
        0,
        0,
        0,
        0
    ],
    "_orientation_": 6,
    "_padding_": [
        0,
        0,
        0,
        0
    ],
    "_percent_": true,
    "_skin_": "s388f0c575ef4d08ac3a5ed0a4b90085",
    "_top_": {
        "type": "string",
        "value": "0%"
    },
    "_width_": {
        "type": "string",
        "value": "90%"
    },
    "allboxes": [],
    "autogrowmode": 0,
    "canUpdateUI": true,
    "children": [
        "Image0i195c328eee24b",
        "lblDateRange",
        "Image0e7683ea123f546",
        "FlexContainer0b96ba0e3f06e4a"
    ],
    "clipbounds": true,
    "containerweight": 100,
    "enablescrolling": true,
    "id": "flxtimeperiod",
    "ide_onClick": "AS_FlexContainer_e623a58abed2467b883cd46b7462f8b9",
    "info": null,
    "isvisible": false,
    "kuid": "f1df6230808b485588fdc51a80a88cca",
    "layouttype": 2,
    "name": "kony.ui.FlexContainer",
    "parent": "flxFilterTransaction",
    "pf": "frmFilterSI",
    "snapgridsize": 10,
    "snaptogrid": true,
    "wType": "FlexContainer",
    "widgetalignment": 1,
    "zindex": 1
}