{
    "@class": "com.kony.gen.viz.model.component.KVizButton",
    "DNDConfig": null,
    "__parentReadjusting__": false,
    "_bottom_": {
        "type": "string",
        "value": "15dp"
    },
    "_height_": {
        "type": "string",
        "value": "40dp"
    },
    "_left_": {
        "type": "string",
        "value": "35dp"
    },
    "_margin_": [
        6,
        6,
        6,
        6
    ],
    "_padding_": [
        0,
        0,
        0,
        0
    ],
    "_skin_": "sa771871a36947659c4127086336ff4a",
    "_text_": "Apply",
    "_top_": {
        "type": "string",
        "value": "10dp"
    },
    "_width_": {
        "type": "string",
        "value": "80%"
    },
    "canUpdateUI": true,
    "centerx": {
        "type": "string",
        "value": "50%"
    },
    "containerweight": 100,
    "contentalignment": 5,
    "displaytext": true,
    "focusskin": "sc7bb351f223484a994119d9439f8136",
    "id": "btnAdAction2KA",
    "ide_onClick": "AS_Button_a112fd9896dc46cfa14ba251e43fa35c",
    "info": null,
    "isvisible": true,
    "kuid": "eaf28496c8a04426a9274d5f5d649a54",
    "name": "kony.ui.Button",
    "parent": "flxStatusKA",
    "pf": "frmPostLoginAdvertisementKA",
    "wType": "Button",
    "zindex": 2
}