{
    "@class": "com.kony.gen.viz.model.component.KVizButton",
    "DNDConfig": null,
    "__parentReadjusting__": false,
    "_height_": {
        "type": "string",
        "value": "80dp"
    },
    "_margin_": [
        6,
        6,
        6,
        6
    ],
    "_padding_": [
        0,
        0,
        0,
        0
    ],
    "_skin_": "s807c6e73d6f416bba9b0be7c288cc0f",
    "_text_": "B",
    "_width_": {
        "type": "string",
        "value": "80dp"
    },
    "canUpdateUI": true,
    "centerx": {
        "type": "string",
        "value": "50%"
    },
    "containerweight": 100,
    "contentalignment": 5,
    "displaytext": true,
    "focusskin": "sc679a6b9dd04f21af610b291690ffcd",
    "id": "btnPaymentH",
    "ide_onClick": "AS_Button_jf1cb6913c844c1c85e28cd983bd52a4",
    "info": null,
    "iphone": {
        "psp": {
            "showProgressIndicator": false
        }
    },
    "isvisible": true,
    "kuid": "b9f8973518934dc3b6abb3185b6b5044",
    "name": "kony.ui.Button",
    "parent": "flxRight3",
    "pf": "frmMore",
    "showprogressindicator": false,
    "wType": "Button",
    "zindex": 1
}