{
    "DNDConfig": null,
    "__markedForDelete__": true,
    "__parentReadjusting__": false,
    "_height_": {
        "type": "string",
        "value": "90dp"
    },
    "_left_": {
        "type": "string",
        "value": "5%"
    },
    "_margin_": [
        0,
        0,
        0,
        0
    ],
    "_padding_": [
        0,
        0,
        0,
        0
    ],
    "_skin_": "s5449e85b7e0472ba7d4939096f3873d",
    "_top_": {
        "type": "string",
        "value": "10%"
    },
    "_width_": {
        "type": "string",
        "value": "90%"
    },
    "allboxes": [],
    "autogrowmode": 0,
    "canUpdateUI": true,
    "children": [
        "txtPOSLimit",
        "POSLimitBorder",
        "lblPOSLimitTitle",
        "lblPOSLimitHint"
    ],
    "clipbounds": true,
    "containerweight": 100,
    "defaultunit": 3,
    "enabled": false,
    "enablescrolling": true,
    "id": "flxPOSLimitEntry",
    "info": null,
    "isvisible": true,
    "kuid": "hdadaa74acab49a3bc8928fbd67cc68d",
    "layouttype": 2,
    "name": "kony.ui.FlexContainer",
    "orientation": 6,
    "parent": "flxPOSLimit",
    "percent": true,
    "pf": "frmATMPOSLimit",
    "snapgridsize": "20",
    "snaptogrid": true,
    "wType": "FlexContainer",
    "widgetalignment": 1,
    "zindex": 1
}