{
    "DNDConfig": null,
    "__parentReadjusting__": false,
    "_bottom_": {
        "type": "string",
        "value": "4%"
    },
    "_height_": {
        "type": "string",
        "value": "60%"
    },
    "_left_": {
        "type": "string",
        "value": "2%"
    },
    "_margin_": [
        0,
        0,
        0,
        0
    ],
    "_orientation_": 6,
    "_padding_": [
        0,
        0,
        0,
        0
    ],
    "_percent_": true,
    "_skin_": "s388f0c575ef4d08ac3a5ed0a4b90085",
    "_width_": {
        "type": "string",
        "value": "100%"
    },
    "allboxes": [],
    "autogrowmode": 0,
    "canUpdateUI": true,
    "children": [
        "lblServiceType",
        "lblArrowServiceType",
        "lblEditBillerServiceTypeTitle"
    ],
    "clipbounds": true,
    "containerweight": 100,
    "enablescrolling": true,
    "id": "flxServiceTypeHolder",
    "ide_onClick": "AS_FlexContainer_dea82a277ad249e3a30a1ac947dd2ae3",
    "info": null,
    "isvisible": true,
    "kuid": "fe34bcb298ad4f4eb738e22b1515b505",
    "layouttype": 2,
    "name": "kony.ui.FlexContainer",
    "parent": "flxServiceType",
    "pf": "frmAddNewPrePayeeKA",
    "snapgridsize": 10,
    "snaptogrid": true,
    "wType": "FlexContainer",
    "widgetalignment": 1,
    "zindex": 2
}