{
    "@class": "com.kony.gen.viz.model.component.KVizTextBox2",
    "DNDConfig": null,
    "__parentReadjusting__": false,
    "_bottom_": {
        "type": "string",
        "value": "4%"
    },
    "_height_": {
        "type": "string",
        "value": "60%"
    },
    "_margin_": [
        0,
        0,
        0,
        0
    ],
    "_padding_": [
        3,
        0,
        0,
        0
    ],
    "_placeholder_": "",
    "_skin_": "s029998596d3421892d0917ea7492e1d",
    "_text_": "",
    "_width_": {
        "type": "string",
        "value": "100%"
    },
    "accessibilityconfig": {
        "a11yLabel": "Enter your Username"
    },
    "android": {
        "ide_onEndEditing": "AS_TextField_cfb3186419c24b1db3a561c25d804905",
        "onEndEditing": "AS_TextField_ja28486c7a3043998424fea66ecabfa6"
    },
    "autocapitalize": "none",
    "autocomplete": false,
    "autocorrect": false,
    "autofilter": false,
    "canUpdateUI": true,
    "centerx": {
        "type": "string",
        "value": "50%"
    },
    "containerheight": "",
    "containerheightmode": 1,
    "containerweight": 100,
    "contentalignment": 4,
    "disabledSkins": {},
    "focusskin": "s029998596d3421892d0917ea7492e1d",
    "id": "tbxBillerID",
    "ide_onDone": "AS_TextField_d3e1f5fc7e814cfe9d1873476b769383",
    "ide_onTextChange": "AS_TextField_de8fe5e4b5c342ffb3711d57b765d501",
    "ide_onTouchEnd": "AS_TextField_g59610233d7a4562a2bb30b953a7956a",
    "info": null,
    "iphone": {
        "ide_onEndEditing": "AS_TextField_dfe775b86b6c4f369e3ea4499f38c28e",
        "onBeginEditing": "AS_TextField_c0713df9ccfc44dba27a3f28bca350b8",
        "onEndEditing": "AS_TextField_c0713df9ccfc44dba27a3f28bca350b8"
    },
    "isvisible": true,
    "keyboardtype": "A",
    "kuid": "afa2f3016a2f404eaa9887d73e636165",
    "maxtextlength": 35,
    "mode": "A",
    "name": "kony.ui.TextBox2",
    "parent": "flxBillerID",
    "pf": "frmAddNewPrePayeeKA",
    "securetextentry": false,
    "textinputmode": "A",
    "viewtype": "default",
    "wType": "TextField",
    "zindex": 1
}