{
    "@class": "com.kony.gen.viz.model.component.KVizLabel",
    "DNDConfig": null,
    "__markedForDelete__": true,
    "__parentReadjusting__": false,
    "_height_": {
        "type": "string",
        "value": "100%"
    },
    "_margin_": [
        1,
        1,
        1,
        1
    ],
    "_padding_": [
        0,
        0,
        0,
        0
    ],
    "_skin_": "s10e6568beb345e9b0c469689c3d0c12",
    "_text_": "O",
    "_top_": {
        "type": "string",
        "value": "0dp"
    },
    "_width_": {
        "type": "string",
        "value": "10%"
    },
    "_wrapping_": 2,
    "android": {
        "textStyle": {
            "letterSpacing": 0,
            "strikeThrough": false
        }
    },
    "canUpdateUI": true,
    "centerx": {
        "type": "string",
        "value": "94%"
    },
    "containerweight": 100,
    "contentalignment": 5,
    "id": "lblClose",
    "ide_onTouchEnd": "AS_Label_b7f1f608484c4e0bb7c855314003e590",
    "info": null,
    "ipad": {
        "psp": {
            "wrapping": 2
        }
    },
    "iphone": {
        "psp": {
            "wrapping": 2
        }
    },
    "isvisible": true,
    "kuid": "c78981c1ce7a4f78af44fddfe89f33e2",
    "name": "kony.ui.Label",
    "parent": "flxHeader",
    "pf": "frmConfirmPrePayBill",
    "tooltip": "",
    "wType": "Label",
    "zindex": 1
}