{
    "@class": "com.kony.gen.viz.model.component.KVizLabel",
    "DNDConfig": null,
    "__parentReadjusting__": false,
    "_height_": {
        "type": "string",
        "value": "20dp"
    },
    "_left_": {
        "type": "string",
        "value": "5%"
    },
    "_margin_": [
        1,
        1,
        1,
        1
    ],
    "_padding_": [
        0,
        0,
        0,
        0
    ],
    "_skin_": "sd6cbe003a17434ebd97928a94d5e601",
    "_text_": "",
    "_width_": {
        "type": "string",
        "value": "65%"
    },
    "_wrapping_": 2,
    "canUpdateUI": true,
    "containerId": true,
    "containerweight": 100,
    "contentalignment": 4,
    "enabled": false,
    "id": "transactionDate",
    "info": null,
    "ipad": {
        "psp": {
            "wrapping": 2
        }
    },
    "iphone": {
        "psp": {
            "wrapping": 2
        }
    },
    "isvisible": true,
    "kuid": "1b4595805fc74d1bbe890dcc2ff31263",
    "name": "kony.ui.Label",
    "parent": "FlexContainer01ff055a4331e4f",
    "pf": "segCheckReOrderKA",
    "tooltip": "",
    "wType": "Label",
    "zindex": 1
}