{
    "@class": "com.kony.gen.viz.model.component.KVizTextBox2",
    "DNDConfig": null,
    "__parentReadjusting__": false,
    "_height_": {
        "type": "string",
        "value": "40dp"
    },
    "_left_": {
        "type": "number",
        "value": "0"
    },
    "_margin_": [
        0,
        0,
        0,
        0
    ],
    "_padding_": [
        3,
        0,
        0,
        0
    ],
    "_placeholder_": "Search for Keyword",
    "_skin_": "s52180c6450b4093917b43821ead97dc",
    "_text_": "",
    "_top_": {
        "type": "string",
        "value": "23dp"
    },
    "_width_": {
        "type": "string",
        "value": "260dp"
    },
    "autocapitalize": "none",
    "autocomplete": false,
    "autocorrect": false,
    "autofilter": false,
    "canUpdateUI": true,
    "centerx": {
        "type": "string",
        "value": "50%"
    },
    "centery": {
        "type": "string",
        "value": "50%"
    },
    "containerheight": "",
    "containerheightmode": 1,
    "containerweight": 100,
    "contentalignment": 4,
    "id": "txtSearchFaq",
    "info": null,
    "iphone": {},
    "isvisible": true,
    "keyboardtype": "A",
    "kuid": "bf3c475d9d0a4d4986f163fa2288772b",
    "mode": "A",
    "name": "kony.ui.TextBox2",
    "parent": "flxSearch",
    "pf": "frmInformationKA",
    "placeholderskin": "s2484680d5974fa68d5a96a96c6b37b6",
    "securetextentry": false,
    "textinputmode": "A",
    "viewtype": "default",
    "wType": "TextField",
    "zindex": 1
}