{
    "@class": "com.kony.gen.viz.model.component.KVizButton",
    "DNDConfig": null,
    "__markedForDelete__": true,
    "__parentReadjusting__": false,
    "_height_": {
        "type": "string",
        "value": "100%"
    },
    "_left_": {
        "type": "string",
        "value": "0%"
    },
    "_margin_": [
        6,
        6,
        6,
        6
    ],
    "_padding_": [
        0,
        0,
        0,
        0
    ],
    "_skin_": "scba750aa7f9473cadaf087f2356ea10",
    "_text_": "w",
    "_top_": {
        "type": "string",
        "value": "0%"
    },
    "_width_": {
        "type": "string",
        "value": "100%"
    },
    "canUpdateUI": true,
    "containerId": true,
    "containerweight": 100,
    "contentalignment": 5,
    "displaytext": true,
    "focusskin": "scba750aa7f9473cadaf087f2356ea10",
    "id": "btnDelete",
    "ide_onClick": "AS_Button_h5f988328ddf49b0a7b4b0755f24dc69",
    "info": null,
    "isvisible": true,
    "kuid": "e79b66ae474648e2a1c4bf40292e92f5",
    "name": "kony.ui.Button",
    "parent": "flxButtonHolder",
    "pf": "segShowAcc",
    "wType": "Button",
    "zindex": 1
}