{
    "@class": "com.kony.gen.viz.model.component.KVizButton",
    "DNDConfig": null,
    "__parentReadjusting__": false,
    "_height_": {
        "type": "string",
        "value": "100%"
    },
    "_margin_": [
        6,
        6,
        6,
        6
    ],
    "_padding_": [
        2,
        0,
        2,
        0
    ],
    "_skin_": "s93d8c38f408435dbc267d82e76bf88b",
    "_text_": "Directions",
    "_width_": {
        "type": "string",
        "value": "50%"
    },
    "canUpdateUI": true,
    "centery": {
        "type": "string",
        "value": "50%"
    },
    "containerweight": 100,
    "contentalignment": 5,
    "displaytext": true,
    "focusskin": "s5de7479b8fc41c7b7ac16645e143ed0",
    "id": "btnListKA",
    "ide_onClick": "AS_Button_9393bf8279db4ea0a5e2bd95354d736c",
    "info": null,
    "iphone": {
        "psp": {
            "showProgressIndicator": false
        }
    },
    "isvisible": true,
    "kuid": "2029be3205724094a6e3b16ba69484ff",
    "name": "kony.ui.Button",
    "paddinginpixel": false,
    "parent": "MapListControllerWrapper",
    "pf": "frmDirectionsKA",
    "showprogressindicator": false,
    "wType": "Button",
    "zindex": 1
}