{
    "@class": "com.kony.gen.viz.model.component.KVizImage2",
    "DNDConfig": null,
    "__parentReadjusting__": false,
    "_base64_": null,
    "_height_": {
        "type": "string",
        "value": "60dp"
    },
    "_margin_": [
        0,
        0,
        0,
        0
    ],
    "_padding_": [
        0,
        0,
        0,
        0
    ],
    "_skin_": "s319dbfc5808408bbf0cda0a09d985ce",
    "_src_": "locate.png",
    "_width_": {
        "type": "string",
        "value": "60dp"
    },
    "canUpdateUI": true,
    "centerx": {
        "type": "string",
        "value": "52%"
    },
    "centery": {
        "type": "string",
        "value": "52%"
    },
    "containerweight": 100,
    "context": {
        "channel": "mobile",
        "formID": "frmDirectionsKA",
        "ispercent": true,
        "platform": "android",
        "templateType": "forms",
        "topLevelBox": null
    },
    "enabled": false,
    "id": "Image02e834c4c0b774d",
    "imagescalemode": 1,
    "info": null,
    "invokedProperty": "src",
    "ispercent": true,
    "isvisible": true,
    "kuid": "0445a6f3e82d41edab17aad7f3d72ec4",
    "name": "kony.ui.Image2",
    "parent": "mapCurrentLocationWrapper",
    "pf": "frmDirectionsKA",
    "srcType": 1,
    "wType": "Image",
    "widgetalignment": 5,
    "zindex": 1
}