{
    "@class": "com.kony.gen.viz.model.container.KVizSegment2",
    "DNDConfig": null,
    "__parentReadjusting__": false,
    "_bounces_": false,
    "_data_": [
        {
            "imgDirKA": {
                "@class": "com.viz.ide.model.segment.ImageSegmentData",
                "src": "imagedrag.png"
            },
            "lblAddress1KA": {
                "@class": "com.viz.ide.model.segment.SimpleTextSegmentData",
                "text": "Address1"
            },
            "lblAddress2KA": {
                "@class": "com.viz.ide.model.segment.SimpleTextSegmentData",
                "text": "Address2"
            },
            "lblMilesKA": {
                "@class": "com.viz.ide.model.segment.SimpleTextSegmentData",
                "text": "20 Feet Right"
            }
        },
        {
            "imgDirKA": {
                "@class": "com.viz.ide.model.segment.ImageSegmentData",
                "src": "imagedrag.png"
            },
            "lblAddress1KA": {
                "@class": "com.viz.ide.model.segment.SimpleTextSegmentData",
                "text": "Address1"
            },
            "lblAddress2KA": {
                "@class": "com.viz.ide.model.segment.SimpleTextSegmentData",
                "text": "Address2"
            },
            "lblMilesKA": {
                "@class": "com.viz.ide.model.segment.SimpleTextSegmentData",
                "text": "20 Feet Right"
            }
        },
        {
            "imgDirKA": {
                "@class": "com.viz.ide.model.segment.ImageSegmentData",
                "src": "imagedrag.png"
            },
            "lblAddress1KA": {
                "@class": "com.viz.ide.model.segment.SimpleTextSegmentData",
                "text": "Address1"
            },
            "lblAddress2KA": {
                "@class": "com.viz.ide.model.segment.SimpleTextSegmentData",
                "text": "Address2"
            },
            "lblMilesKA": {
                "@class": "com.viz.ide.model.segment.SimpleTextSegmentData",
                "text": "20 Feet Right"
            }
        },
        {
            "imgDirKA": {
                "@class": "com.viz.ide.model.segment.ImageSegmentData",
                "src": "imagedrag.png"
            },
            "lblAddress1KA": {
                "@class": "com.viz.ide.model.segment.SimpleTextSegmentData",
                "text": "Address1"
            },
            "lblAddress2KA": {
                "@class": "com.viz.ide.model.segment.SimpleTextSegmentData",
                "text": "Address2"
            },
            "lblMilesKA": {
                "@class": "com.viz.ide.model.segment.SimpleTextSegmentData",
                "text": "20 Feet Right"
            }
        },
        {
            "imgDirKA": {
                "@class": "com.viz.ide.model.segment.ImageSegmentData",
                "src": "imagedrag.png"
            },
            "lblAddress1KA": {
                "@class": "com.viz.ide.model.segment.SimpleTextSegmentData",
                "text": "Address1"
            },
            "lblAddress2KA": {
                "@class": "com.viz.ide.model.segment.SimpleTextSegmentData",
                "text": "Address2"
            },
            "lblMilesKA": {
                "@class": "com.viz.ide.model.segment.SimpleTextSegmentData",
                "text": "20 Feet Right"
            }
        },
        {
            "imgDirKA": {
                "@class": "com.viz.ide.model.segment.ImageSegmentData",
                "src": "imagedrag.png"
            },
            "lblAddress1KA": {
                "@class": "com.viz.ide.model.segment.SimpleTextSegmentData",
                "text": "Address1"
            },
            "lblAddress2KA": {
                "@class": "com.viz.ide.model.segment.SimpleTextSegmentData",
                "text": "Address2"
            },
            "lblMilesKA": {
                "@class": "com.viz.ide.model.segment.SimpleTextSegmentData",
                "text": "20 Feet Right"
            }
        },
        {
            "imgDirKA": {
                "@class": "com.viz.ide.model.segment.ImageSegmentData",
                "src": "imagedrag.png"
            },
            "lblAddress1KA": {
                "@class": "com.viz.ide.model.segment.SimpleTextSegmentData",
                "text": "Address1"
            },
            "lblAddress2KA": {
                "@class": "com.viz.ide.model.segment.SimpleTextSegmentData",
                "text": "Address2"
            },
            "lblMilesKA": {
                "@class": "com.viz.ide.model.segment.SimpleTextSegmentData",
                "text": "20 Feet Right"
            }
        },
        {
            "imgDirKA": {
                "@class": "com.viz.ide.model.segment.ImageSegmentData",
                "src": "imagedrag.png"
            },
            "lblAddress1KA": {
                "@class": "com.viz.ide.model.segment.SimpleTextSegmentData",
                "text": "Address1"
            },
            "lblAddress2KA": {
                "@class": "com.viz.ide.model.segment.SimpleTextSegmentData",
                "text": "Address2"
            },
            "lblMilesKA": {
                "@class": "com.viz.ide.model.segment.SimpleTextSegmentData",
                "text": "20 Feet Right"
            }
        },
        {
            "imgDirKA": {
                "@class": "com.viz.ide.model.segment.ImageSegmentData",
                "src": "imagedrag.png"
            },
            "lblAddress1KA": {
                "@class": "com.viz.ide.model.segment.SimpleTextSegmentData",
                "text": "Address1"
            },
            "lblAddress2KA": {
                "@class": "com.viz.ide.model.segment.SimpleTextSegmentData",
                "text": "Address2"
            },
            "lblMilesKA": {
                "@class": "com.viz.ide.model.segment.SimpleTextSegmentData",
                "text": "20 Feet Right"
            }
        }
    ],
    "_height_": {
        "type": "string",
        "value": "100%"
    },
    "_indicator_": "none",
    "_margin_": [
        0,
        0,
        0,
        0
    ],
    "_orientation_": 2,
    "_padding_": [
        0,
        0,
        0,
        0
    ],
    "_top_": {
        "type": "string",
        "value": "1dp"
    },
    "_width_": {
        "type": "string",
        "value": "100%"
    },
    "autogrowmode": 0,
    "canUpdateUI": true,
    "centerx": {
        "type": "string",
        "value": "50.00%"
    },
    "containerweight": 100,
    "counter": "08",
    "disabledSkins": {},
    "focusedindex": null,
    "focuseditem": null,
    "generatedtemplate": "63edcc6433b943fa97ca335b70d09f53",
    "groupcells": false,
    "hasSections": false,
    "id": "locatorSegmentList",
    "info": null,
    "ipad": {
        "psp": {
            "indicator": "rowselect"
        }
    },
    "iphone": {
        "psp": {
            "bounces": true,
            "enableDictionary": false,
            "indicator": "none",
            "showProgressIndicator": false
        }
    },
    "isvisible": true,
    "kuid": "92cc63f3632f4ddcaef9be0df91f0c94",
    "masterdata": {},
    "name": "kony.ui.SegmentedUI2",
    "needpageindicator": true,
    "onrowclick": "AS_Segment_1267dc6be4174eb1abe781c436283113",
    "pageoffdotimage": "pageoffdot.png",
    "pageondotimage": "pageondot.png",
    "paginationconfig": {
        "position": "bottom"
    },
    "parent": "locatorListView",
    "pf": "frmDirectionsKA",
    "retainselection": false,
    "rowTemplateId": "2e2d570bb45340dbab3447f5a93938ac",
    "rowcounter": 8,
    "rowfocusskin": "s5fa38be22fb4f22b7c642b08276ab82",
    "rowskin": "sd2ca277651a46c0ba82f3226859f5a6",
    "rowtemplate": "CopyFlexContainer08af3de49f89842",
    "screenlevelwidget": false,
    "seccounter": 0,
    "sectionHeaderTemplateId": null,
    "sectionheaderskin": "s67621b8a82d49f285da06b4f5a0c993",
    "selectedRows": null,
    "selectedState": false,
    "selectedindex": null,
    "selectedindices": null,
    "selecteditems": null,
    "selectedsectionindex": 0,
    "selectionbehavior": "default",
    "separatorrequired": true,
    "showprogressindicator": false,
    "showscrollbars": false,
    "viewtype": "tableview",
    "wType": "Segment",
    "widgetalignment": 5,
    "widgetdatamap": {
        "CopyFlexContainer08af3de49f89842": "CopyFlexContainer08af3de49f89842",
        "contactListDivider": "contactListDivider",
        "imgDirKA": "imgDirKA",
        "informationListDivider": "informationListDivider",
        "lblAddress1KA": "lblAddress1KA",
        "lblAddress2KA": "lblAddress2KA",
        "lblMilesKA": "lblMilesKA"
    }
}