{
    "@class": "com.kony.gen.viz.model.component.KVizLabel",
    "DNDConfig": null,
    "__parentReadjusting__": false,
    "_height_": {
        "type": "string",
        "value": "100%"
    },
    "_left_": {
        "type": "string",
        "value": "0%"
    },
    "_margin_": [
        1,
        1,
        1,
        1
    ],
    "_padding_": [
        0,
        0,
        0,
        0
    ],
    "_skin_": "s0e793fdea084cafa0b2053e647410ba",
    "_text_": "q",
    "_top_": {
        "type": "string",
        "value": "0%"
    },
    "_width_": {
        "type": "string",
        "value": "8%"
    },
    "_wrapping_": 2,
    "android": {
        "textStyle": {
            "letterSpacing": 0,
            "strikeThrough": false
        }
    },
    "canUpdateUI": true,
    "containerweight": 100,
    "contentalignment": 5,
    "id": "lblTermsandConditionsCheckBox",
    "ide_onTouchEnd": "AS_Label_c46cec92cc1b4fe0a557d19f169c1a74",
    "info": null,
    "ipad": {
        "psp": {
            "wrapping": 2
        }
    },
    "iphone": {
        "psp": {
            "wrapping": 2
        }
    },
    "isvisible": true,
    "kuid": "a469eefa209149c2a2e41b605d61998c",
    "name": "kony.ui.Label",
    "parent": "flxTermsandConditionCheck",
    "pf": "frmCardlessTransaction",
    "tooltip": "",
    "wType": "Label",
    "zindex": 1
}