{
    "DNDConfig": null,
    "__parentReadjusting__": false,
    "_bottom_": {
        "type": "number",
        "value": "0"
    },
    "_height_": {
        "type": "string",
        "value": "100%"
    },
    "_left_": {
        "type": "string",
        "value": "0dp"
    },
    "_margin_": [
        0,
        0,
        0,
        0
    ],
    "_padding_": [
        0,
        0,
        0,
        0
    ],
    "_skin_": "sc5281c8ea3d42a595a1ab9e06519c11",
    "_top_": {
        "type": "string",
        "value": "0dp"
    },
    "_width_": {
        "type": "string",
        "value": "100%"
    },
    "allboxes": [],
    "autogrowmode": 0,
    "canUpdateUI": true,
    "children": [
        "searchSegmentedControllerWrapper",
        "flxResultAccountsKA",
        "flxResultSpendingKA",
        "flxResultBudgetKA"
    ],
    "clipbounds": true,
    "containerweight": 100,
    "enabled": false,
    "enablescrolling": true,
    "id": "mainContentSearch",
    "info": null,
    "isvisible": false,
    "kuid": "b27efbcf4ee2498396ae5fa44b5adf87",
    "layouttype": 4,
    "name": "kony.ui.FlexContainer",
    "orientation": 6,
    "parent": "frmMyMoneyListKA",
    "percent": true,
    "pf": "frmMyMoneyListKA",
    "snapgridsize": 10,
    "snaptogrid": true,
    "wType": "FlexContainer",
    "widgetalignment": 1,
    "zindex": 1
}