{
    "@class": "com.kony.gen.viz.model.component.KVizLabel",
    "DNDConfig": null,
    "__parentReadjusting__": false,
    "_height_": {
        "type": "string",
        "value": "30dp"
    },
    "_margin_": [
        1,
        1,
        1,
        1
    ],
    "_padding_": [
        0,
        0,
        0,
        0
    ],
    "_skin_": "s60f1d30699e4605b160a1590a61fcd8",
    "_text_": "Swipe for account preview",
    "_top_": {
        "type": "string",
        "value": "10dp"
    },
    "_width_": {
        "type": "ref",
        "value": "preferred"
    },
    "_wrapping_": 2,
    "canUpdateUI": true,
    "centerx": {
        "type": "string",
        "value": "50.00%"
    },
    "containerweight": 100,
    "contentalignment": 5,
    "enabled": false,
    "id": "accountPreviewLabel",
    "info": null,
    "ipad": {
        "psp": {
            "wrapping": 2
        }
    },
    "iphone": {
        "psp": {
            "wrapping": 2
        }
    },
    "isvisible": false,
    "kuid": "ab24375e212b438a9bf4464cf421d595",
    "name": "kony.ui.Label",
    "parent": "accountPreviewIndicator",
    "pf": "frmLanguageChange",
    "texti18n": "i18n.login.swipeAccountPreview",
    "tooltip": "",
    "wType": "Label",
    "zindex": 1
}