{
    "@class": "com.kony.gen.viz.model.component.KVizImage2",
    "DNDConfig": null,
    "_base64_": null,
    "_margin_": [
        0,
        0,
        0,
        0
    ],
    "_padding_": [
        0,
        0,
        0,
        0
    ],
    "_skin_": "sa625024fef740fea5133ed43bbfac5f",
    "_src_": "close_ad.png",
    "canUpdateUI": true,
    "containerweight": 100,
    "context": {
        "channel": "mobile",
        "ispercent": true,
        "platform": "iphone",
        "templateType": "popups",
        "topLevelBox": false
    },
    "id": "imgClose",
    "imagescalemode": 1,
    "info": null,
    "invokedProperty": "src",
    "ispercent": true,
    "isvisible": true,
    "kuid": "dd0e20f55fbd42feb1c932da7084249f",
    "name": "kony.ui.Image2",
    "parent": "vbxCommonAlertClose",
    "pf": "popupNotificationInfo",
    "srcType": 1,
    "wType": "Image",
    "widgetalignment": 5
}