{
    "@class": "com.kony.gen.viz.model.component.KVizButton",
    "DNDConfig": null,
    "__parentReadjusting__": false,
    "_height_": {
        "type": "string",
        "value": "50dp"
    },
    "_margin_": [
        6,
        6,
        6,
        6
    ],
    "_padding_": [
        0,
        0,
        0,
        0
    ],
    "_right_": {
        "type": "string",
        "value": "0.00%"
    },
    "_skin_": "sd128935a0994de98e699966fd0fa9ef",
    "_text_": "Sign Out",
    "_top_": {
        "type": "string",
        "value": "0dp"
    },
    "_width_": {
        "type": "string",
        "value": "90dp"
    },
    "canUpdateUI": true,
    "containerweight": 100,
    "contentalignment": 5,
    "displaytext": true,
    "focusskin": "s55cab51ac7b40b5a2db38b7b9c5822a",
    "id": "signOutButton",
    "ide_onClick": "AS_Button_7cc70941cc98453bb52351eb11d5f68c",
    "info": null,
    "iphone": {
        "psp": {
            "showProgressIndicator": false
        }
    },
    "isvisible": true,
    "kuid": "e30c5301872549c4ba6292f78c7ba6e0",
    "name": "kony.ui.Button",
    "onclick": "AS_Button_7704ef2413594df0a30a1120cc5b04ce",
    "parent": "flxSignOutKA",
    "pf": "frmSuccessFormKA",
    "showprogressindicator": false,
    "texti18n": "i18n.common.signOut",
    "wType": "Button",
    "zindex": 1
}