{
    "@class": "com.kony.gen.viz.model.component.KVizButton",
    "DNDConfig": null,
    "__parentReadjusting__": false,
    "_height_": {
        "type": "string",
        "value": "1dp"
    },
    "_left_": {
        "type": "string",
        "value": "150%"
    },
    "_margin_": [
        6,
        6,
        6,
        6
    ],
    "_padding_": [
        0,
        0,
        0,
        0
    ],
    "_skin_": "s72aa67130df495faae6089692441de7",
    "_text_": "Button",
    "_top_": {
        "type": "string",
        "value": "250%"
    },
    "_width_": {
        "type": "string",
        "value": "1dp"
    },
    "canUpdateUI": true,
    "containerweight": 100,
    "contentalignment": 5,
    "displaytext": true,
    "focusskin": "s10149300144466da99cbf92f4fdacc8",
    "id": "Button0e0efca8e93bc4a",
    "ide_onClick": "AS_Button_d346385a5e8b43c0a65b6199f8a3606a",
    "info": null,
    "isvisible": false,
    "kuid": "h2ed77f42c564828b4985c9ca81ead96",
    "name": "kony.ui.Button",
    "parent": "frmNewSubAccountConfirm",
    "pf": "frmNewSubAccountConfirm",
    "wType": "Button",
    "zindex": 1
}