{
    "@class": "com.kony.gen.viz.model.component.KVizButton",
    "DNDConfig": null,
    "__parentReadjusting__": false,
    "_height_": {
        "type": "string",
        "value": "100%"
    },
    "_margin_": [
        6,
        6,
        6,
        6
    ],
    "_padding_": [
        0,
        0,
        0,
        0
    ],
    "_skin_": "sf7766faf6e34d0789442a84c1e76e1a",
    "_text_": "",
    "_top_": {
        "type": "string",
        "value": "0%"
    },
    "_width_": {
        "type": "string",
        "value": "80%"
    },
    "canUpdateUI": true,
    "centerx": {
        "type": "string",
        "value": "50%"
    },
    "containerweight": 100,
    "contentalignment": 5,
    "disabledSkins": {},
    "displaytext": true,
    "focusskin": "sad5d6d4890b44858a39e4bf8a290332",
    "id": "CopybtnConfirm0afe340a6460347",
    "ide_onClick": "AS_Button_af1e16a18e254a7eb3bccc7c7134e02b",
    "info": null,
    "isvisible": true,
    "kuid": "ed4f6162c0164602957239417ef5dd15",
    "name": "kony.ui.Button",
    "parent": "flxConfirmBtn",
    "pf": "frmConfirmPayBill",
    "texti18n": "i18n.P2P.confirm",
    "wType": "Button"
}