{
    "@class": "com.kony.gen.viz.model.component.KVizTextBox2",
    "DNDConfig": null,
    "__parentReadjusting__": false,
    "_height_": {
        "type": "string",
        "value": "100%"
    },
    "_left_": {
        "type": "string",
        "value": "0%"
    },
    "_margin_": [
        0,
        0,
        0,
        0
    ],
    "_padding_": [
        0,
        0,
        0,
        0
    ],
    "_placeholder_": "",
    "_skin_": "s029998596d3421892d0917ea7492e1d",
    "_text_": "",
    "_top_": {
        "type": "string",
        "value": "0.00%"
    },
    "_width_": {
        "type": "string",
        "value": "100%"
    },
    "android": {
        "ide_onBeginEditing": "AS_TextField_j58877c71f6249b1a1f0c16e115fbaca",
        "ide_onEndEditing": "AS_TextField_hb7ab4ea13ba4c13843b6456a477ee2c"
    },
    "autocapitalize": "none",
    "autocomplete": false,
    "autocorrect": false,
    "autofilter": false,
    "canUpdateUI": true,
    "containerheight": "",
    "containerheightmode": 1,
    "containerweight": 100,
    "contentalignment": 4,
    "focusskin": "sa25e426dcb94c13ab46f59a2b31a09a",
    "id": "txtJomopayID",
    "ide_onDone": "AS_TextField_c690bd23793846d593b62f10793b55a2",
    "ide_onTextChange": "AS_TextField_g3be2e03d0dc435f9d4fe8b75f94a6eb",
    "ide_onTouchEnd": "AS_TextField_e6a8afebd96e4a409322c6f74d829986",
    "info": null,
    "iphone": {
        "ide_onBeginEditing": "AS_TextField_jd8085af0fcd405fa7eaff76fb310921",
        "ide_onEndEditing": "AS_TextField_ccdfaf9dcdfd423595d8966f4937435b",
        "psp": {
            "keyboardActionLabel": 1,
            "showClearButton": false,
            "showCloseButton": false,
            "showProgressIndicator": false
        }
    },
    "isvisible": true,
    "keyboardactionlabel": 4,
    "keyboardstyle": "A",
    "keyboardtype": "A",
    "kuid": "b6d91830ae634fa4953babc3795d7fc2",
    "maxtextlength": "",
    "mode": "N",
    "name": "kony.ui.TextBox2",
    "paddinginpixel": false,
    "parent": "flxJomopayIDs",
    "pf": "frmJoMoPayRegistration",
    "securetextentry": false,
    "showclearbutton": false,
    "showoprogressindicator": false,
    "textinputmode": "N",
    "viewtype": "default",
    "wType": "TextField",
    "zindex": 1
}