{
    "@class": "com.kony.gen.viz.model.component.KVizButton",
    "DNDConfig": null,
    "__markedForDelete__": true,
    "__parentReadjusting__": false,
    "_height_": {
        "type": "string",
        "value": "45dp"
    },
    "_margin_": [
        6,
        6,
        6,
        6
    ],
    "_padding_": [
        0,
        0,
        0,
        0
    ],
    "_skin_": "s7a8068a835c44dab75d379494b13a94",
    "_text_": "i",
    "_width_": {
        "type": "string",
        "value": "100%"
    },
    "canUpdateUI": true,
    "centerx": {
        "type": "string",
        "value": "50%"
    },
    "centery": {
        "type": "string",
        "value": "40%"
    },
    "containerweight": 100,
    "contentalignment": 5,
    "disabledSkins": {},
    "displaytext": true,
    "focusskin": "s7a8068a835c44dab75d379494b13a94",
    "id": "btnPayment",
    "info": null,
    "isvisible": true,
    "kuid": "hcadb2bfe143436085a60165e771c59d",
    "name": "kony.ui.Button",
    "parent": "FlxPayment",
    "pf": "frmPayBillHome",
    "wType": "Button",
    "zindex": 1
}