{
    "@class": "com.kony.gen.viz.model.component.KVizButton",
    "DNDConfig": null,
    "__markedForDelete__": true,
    "__parentReadjusting__": false,
    "_height_": {
        "type": "string",
        "value": "10%"
    },
    "_margin_": [
        6,
        6,
        6,
        6
    ],
    "_padding_": [
        0,
        0,
        0,
        0
    ],
    "_skin_": "sf7766faf6e34d0789442a84c1e76e1a",
    "_text_": "Add Bill",
    "_top_": {
        "type": "string",
        "value": "5%"
    },
    "_width_": {
        "type": "string",
        "value": "75%"
    },
    "canUpdateUI": true,
    "centerx": {
        "type": "string",
        "value": "50%"
    },
    "containerweight": 100,
    "contentalignment": 5,
    "disabledSkins": {},
    "displaytext": true,
    "focusskin": "sad5d6d4890b44858a39e4bf8a290332",
    "id": "btnScreen",
    "ide_onClick": "AS_Button_j99e1c53446b4acb87918593a3a00055",
    "info": null,
    "isvisible": true,
    "kuid": "b51dc78390204240a7b262b087f28100",
    "maxwidth": {
        "type": "string",
        "value": "90%"
    },
    "name": "kony.ui.Button",
    "paddinginpixel": false,
    "parent": "flxMainContainer",
    "pf": "frmPayBillHome",
    "texti18n": "i18n.billsPay.AddBill",
    "wType": "Button",
    "zindex": 1
}