{
    "DNDConfig": null,
    "_height_": {
        "type": "string",
        "value": "75dp"
    },
    "_margin_": [
        0,
        0,
        0,
        0
    ],
    "_orientation_": 6,
    "_padding_": [
        0,
        0,
        0,
        0
    ],
    "_percent_": true,
    "_skin_": "s388f0c575ef4d08ac3a5ed0a4b90085",
    "allboxes": [],
    "autogrowmode": 0,
    "canUpdateUI": true,
    "children": [
        "flxMain",
        "lblCurrency",
        "lblBuyRate",
        "lblSellRate",
        "lblCountry"
    ],
    "clipbounds": true,
    "containerId": true,
    "containerweight": 100,
    "enablescrolling": true,
    "id": "flxExchangeRatestmp",
    "info": null,
    "isTemplate": true,
    "isvisible": true,
    "kuid": "efa38d1d779c40d1a1582cae6a9f18bb",
    "layouttype": 2,
    "name": "kony.ui.FlexContainer",
    "parent": "tmpExchangeRates",
    "pf": "tmpExchangeRates",
    "snapgridsize": 10,
    "snaptogrid": true,
    "wType": "FlexContainer",
    "widgetalignment": 1
}