{
    "@class": "com.kony.gen.viz.model.component.KVizLabel",
    "DNDConfig": null,
    "__parentReadjusting__": false,
    "_height_": {
        "type": "ref",
        "value": "preferred"
    },
    "_left_": {
        "type": "string",
        "value": "4%"
    },
    "_margin_": [
        1,
        1,
        1,
        1
    ],
    "_padding_": [
        0,
        0,
        0,
        0
    ],
    "_skin_": "s632644f349348ba8e056388b6ae5ac4",
    "_text_": "You may be subject to fees depends on number of leaves and cheque books requested",
    "_top_": {
        "type": "string",
        "value": "72%"
    },
    "_width_": {
        "type": "string",
        "value": "92%"
    },
    "_wrapping_": 2,
    "android": {
        "textStyle": {
            "letterSpacing": 0,
            "strikeThrough": false
        }
    },
    "canUpdateUI": true,
    "containerweight": 100,
    "contentalignment": 5,
    "id": "Label0bd39896ab0b246",
    "info": null,
    "ipad": {
        "psp": {
            "wrapping": 2
        }
    },
    "iphone": {
        "psp": {
            "wrapping": 2
        }
    },
    "isvisible": true,
    "kuid": "dcb8b70a13884ad6bcad44e6e76f0b2a",
    "name": "kony.ui.Label",
    "parent": "frmOrderChequeBookConfirm",
    "pf": "frmOrderChequeBookConfirm",
    "texti18n": "i18n.accounts.ordersubjecttofees",
    "tooltip": "",
    "wType": "Label",
    "zindex": 1
}