{
    "@class": "com.kony.gen.viz.model.component.KVizButton",
    "DNDConfig": null,
    "__parentReadjusting__": false,
    "_height_": {
        "type": "string",
        "value": "100%"
    },
    "_left_": {
        "type": "string",
        "value": "0dp"
    },
    "_margin_": [
        6,
        6,
        6,
        6
    ],
    "_padding_": [
        0,
        0,
        0,
        0
    ],
    "_skin_": "sb28f0acc58c4fb192640c4d30c89058",
    "_text_": "h",
    "_top_": {
        "type": "string",
        "value": "0dp"
    },
    "_width_": {
        "type": "string",
        "value": "50%"
    },
    "canUpdateUI": true,
    "containerweight": 100,
    "contentalignment": 5,
    "displaytext": true,
    "focusskin": "s3a2dbead7cc4c83984735a2417af7b9",
    "id": "btnSearch",
    "ide_onClick": "AS_Button_df69320aef2d4221b035b01aa5725562",
    "info": null,
    "iscustomlayout": true,
    "isvisible": false,
    "kuid": "fb19af9446dd49f4ba4370daf7df74e3",
    "name": "kony.ui.Button",
    "parent": "flxIcons",
    "pf": "frmShowAllBeneficiary",
    "retaincontentalignment": true,
    "retainflexpositionproperties": true,
    "wType": "Button",
    "zindex": 1
}