{
    "DNDConfig": null,
    "__parentReadjusting__": false,
    "_height_": {
        "type": "string",
        "value": "100%"
    },
    "_left_": {
        "type": "string",
        "value": "75%"
    },
    "_margin_": [
        0,
        0,
        0,
        0
    ],
    "_orientation_": 6,
    "_padding_": [
        0,
        0,
        0,
        0
    ],
    "_percent_": true,
    "_skin_": "s388f0c575ef4d08ac3a5ed0a4b90085",
    "_top_": {
        "type": "string",
        "value": "0dp"
    },
    "_width_": {
        "type": "string",
        "value": "25%"
    },
    "allboxes": [],
    "autogrowmode": 0,
    "canUpdateUI": true,
    "children": [
        "btnTransactionStatus",
        "btnSearch",
        "btnAddBeneficiary"
    ],
    "clipbounds": true,
    "containerweight": 100,
    "enablescrolling": true,
    "id": "flxIcons",
    "info": null,
    "iscustomlayout": true,
    "isvisible": true,
    "kuid": "hfe31b5d367f4790bf4adcfe39ead6b8",
    "layouttype": 3,
    "name": "kony.ui.FlexContainer",
    "parent": "flxTop",
    "pf": "frmShowAllBeneficiary",
    "retainflexpositionproperties": true,
    "retainflowhorizontalalignment": true,
    "snapgridsize": 10,
    "snaptogrid": true,
    "wType": "FlexContainer",
    "widgetalignment": 1,
    "zindex": 1
}