{
    "DNDConfig": null,
    "_height_": {
        "type": "string",
        "value": "35dp"
    },
    "_margin_": [
        0,
        0,
        0,
        0
    ],
    "_padding_": [
        0,
        0,
        0,
        0
    ],
    "_skin_": "s9c14c5cfa624594965bca8fa71d4023",
    "allboxes": [],
    "autogrowmode": 0,
    "canUpdateUI": true,
    "children": [
        "flxP2PphonePayeeNameKA",
        "transactionDate",
        "transactionEmail",
        "lblSepKA"
    ],
    "clipbounds": true,
    "containerId": true,
    "containerweight": 100,
    "enabled": false,
    "enablescrolling": true,
    "id": "CopyFlexContainer0d4f57045e51b42",
    "info": null,
    "isTemplate": true,
    "isvisible": true,
    "kuid": "d2dc1bd93fe94908bae7e6528597d180",
    "layouttype": 2,
    "name": "kony.ui.FlexContainer",
    "orientation": 6,
    "parent": "tempP2PphonePayeeSectionsKA",
    "percent": true,
    "pf": "tempP2PphonePayeeSectionsKA",
    "snapgridsize": 10,
    "snaptogrid": true,
    "wType": "FlexContainer",
    "widgetalignment": 1
}