{
  "operationConfig" : {
    "name" : "prGetPpRegisteredBilling1942",
    "type" : "MappedToBackend",
    "cachable" : false,
    "smsEnabled" : false,
    "security" : "authorized_app",
    "responseEncoding" : "UTF-8",
    "httpMethod" : "GET",
    "decodeResponseBody" : false,
    "iMapping" : "<?xml version=\"1.0\" encoding=\"UTF-8\" standalone=\"yes\"?><mapper xmlns=\"http://www.kony.com/ns/mapper\">  <map inputpath=\"request_in\" outputpath=\"request_out\">    <set-param inputpath=\"p_lang\" outputpath=\"p_lang\"/>    <set-param inputpath=\"p_cust_id\" outputpath=\"p_cust_id\"/>    <set-param inputpath=\"usr\" outputpath=\"usr\"/>    <set-param inputpath=\"pass\" outputpath=\"pass\"/>    <set-param inputpath=\"p_fcdb_ref_no\" outputpath=\"p_fcdb_ref_no\"/>  </map></mapper>",
    "applyCommonMapping" : true,
    "backendMeta" : {
      "serviceVersion" : "1.0",
      "operationName" : "prGetPpRegisteredBilling",
      "serviceName" : "BojGetPpRegisteredBilling"
    },
    "relationshipHierarchyMapping" : {
      "children" : [ ],
      "name" : "Payee",
      "selected" : true
    },
    "requestXmlMappingOverride" : true,
    "responseXmlMappingOverride" : true
  }
}