{
    "AS_AppMenu_778a5b56bfea49e7ad42f25e8681b3fe": {
        "id": "AS_AppMenu_778a5b56bfea49e7ad42f25e8681b3fe",
        "type": "ACTION_SEQUENCE",
        "actions": [{
            "id": "NAVIGATE_TO_FORM___f649e45cc7144c7492528af2796f6190",
            "type": "NAVIGATE_TO_FORM",
            "formId": "frmDepositLandingKA",
            "formKUID": "3ef26f9acd5b475cb1fdad0f87db5781",
            "mappings": {},
            "mappingsOrder": [],
            "parentId": "",
            "callbackType": null,
            "enableMappingEditor": true
        }]
    }
}