{
    "AS_Button_5fa9f49a59a24684b8c4e205eb42f320": {
        "id": "AS_Button_5fa9f49a59a24684b8c4e205eb42f320",
        "type": "ACTION_SEQUENCE",
        "actions": [{
            "id": "NAVIGATE_TO_FORM__onClick_25ce3a919dca45ac9578b72161698630",
            "type": "NAVIGATE_TO_FORM",
            "formId": "frmUnauthInformationKA",
            "formKUID": "8ca0339cab9a45bf93258e727c1f8406",
            "mappings": {},
            "mappingsOrder": [],
            "parentId": "",
            "callbackType": null,
            "enableMappingEditor": true
        }]
    }
}