{
    "AS_Button_35d0aa7f2a6c40c1947eeb0716615cbe": {
        "id": "AS_Button_35d0aa7f2a6c40c1947eeb0716615cbe",
        "type": "ACTION_SEQUENCE",
        "actions": [{
            "id": "NAVIGATE_TO_FORM__onClick_e80d1775846045ec9373d91dcaa47327",
            "type": "NAVIGATE_TO_FORM",
            "formId": "frmMoreLandingKA",
            "formKUID": "f90cf53e47ae407c83e2e30720fff3da",
            "mappings": {},
            "mappingsOrder": [],
            "parentId": "",
            "callbackType": null,
            "enableMappingEditor": true
        }]
    }
}