{
    "AS_Button_38a1b0c712764c0e844a2a11b5af3f43": {
        "id": "AS_Button_38a1b0c712764c0e844a2a11b5af3f43",
        "type": "ACTION_SEQUENCE",
        "actions": [{
            "id": "NAVIGATE_TO_FORM__onClick_b173193bdd6f47b2a73478e6bdc92743",
            "type": "NAVIGATE_TO_FORM",
            "formId": "frmUserSettingsKA",
            "formKUID": "8c525af2d26c4599b2327f0b14f14239",
            "mappings": {},
            "mappingsOrder": [],
            "parentId": "",
            "callbackType": null,
            "enableMappingEditor": true
        }]
    }
}