{
    "AS_Button_9069b43719ff473597ed6e3f035be332": {
        "id": "AS_Button_9069b43719ff473597ed6e3f035be332",
        "type": "ACTION_SEQUENCE",
        "actions": [{
            "id": "NAVIGATE_TO_FORM___6062d24f60074792b226320636c9da05",
            "type": "NAVIGATE_TO_FORM",
            "formId": "frmTransferPayLandingKA",
            "formKUID": "dab7a50c55b94a12b3d961ae5bd49247",
            "mappings": {},
            "mappingsOrder": [],
            "parentId": "",
            "callbackType": null,
            "enableMappingEditor": true
        }]
    }
}