{
    "AS_Button_b1766612296e4500848105ce1538c886": {
        "id": "AS_Button_b1766612296e4500848105ce1538c886",
        "type": "ACTION_SEQUENCE",
        "params": [{
            "datatype": "collection",
            "name": "eventobject"
        }],
        "actions": [{
            "id": "ADD_SNIPPET_onClick_b902d2ba1d6446cdaeef225c26c9b67f",
            "type": "ADD_SNIPPET",
            "codeSnippet": "selectAccountCard(frmNewBillKA,\"from\",2);",
            "callbackType": null
        }]
    }
}