{
    "AS_Button_7e2c04f9170244e484d7dfd07daa95ab": {
        "id": "AS_Button_7e2c04f9170244e484d7dfd07daa95ab",
        "type": "ACTION_SEQUENCE",
        "actions": [{
            "id": "NAVIGATE_TO_FORM__onClick_1201e22a03444ca6b8dc170118727365",
            "type": "NAVIGATE_TO_FORM",
            "formId": "frmAccountsLandingKA",
            "formKUID": "d62a2a0906c64d2281addc95893a6544",
            "mappings": {},
            "mappingsOrder": [],
            "parentId": "",
            "callbackType": null,
            "enableMappingEditor": true
        }]
    }
}