{
    "AS_Button_131c386d25794097a74d55c5376ae580": {
        "id": "AS_Button_131c386d25794097a74d55c5376ae580",
        "type": "ACTION_SEQUENCE",
        "actions": [{
            "id": "NAVIGATE_TO_FORM__onClick_eadd9ae4df2d4bfa8ac0c9adc7f008a3",
            "type": "NAVIGATE_TO_FORM",
            "formId": "frmUnauthInformationKA",
            "formKUID": "8ca0339cab9a45bf93258e727c1f8406",
            "mappings": {},
            "mappingsOrder": [],
            "parentId": "",
            "callbackType": null,
            "enableMappingEditor": true
        }]
    }
}