{
    "AS_Button_287f9d4bbee8453ebd2107193ce10147": {
        "id": "AS_Button_287f9d4bbee8453ebd2107193ce10147",
        "type": "ACTION_SEQUENCE",
        "actions": [{
            "id": "NAVIGATE_TO_FORM__onClick_5028bdf7d0a44b2d80a2fb1ee02ac09c",
            "type": "NAVIGATE_TO_FORM",
            "formId": "frmAccountsLandingKA",
            "formKUID": "d62a2a0906c64d2281addc95893a6544",
            "mappings": {},
            "mappingsOrder": [],
            "parentId": "",
            "callbackType": null,
            "enableMappingEditor": true
        }]
    }
}