{
    "AS_Button_b301062ea85f4c50b113e84b516d025b": {
        "id": "AS_Button_b301062ea85f4c50b113e84b516d025b",
        "type": "ACTION_SEQUENCE",
        "actions": [{
            "id": "NAVIGATE_TO_FORM___33da6e43d0fb4f13b0da83db63a0b834",
            "type": "NAVIGATE_TO_FORM",
            "formId": "frmAccountInfoKA",
            "formKUID": "b2f984d11c5244e6ae5f81fe393d837e",
            "mappings": {},
            "mappingsOrder": [],
            "parentId": "",
            "callbackType": null,
            "enableMappingEditor": true
        }]
    }
}