{
    "AS_Button_002f2c927da34ebba098f66a397651c7": {
        "id": "AS_Button_002f2c927da34ebba098f66a397651c7",
        "type": "ACTION_SEQUENCE",
        "actions": [{
            "id": "NAVIGATE_TO_FORM___f06c3b6c61fa43b99d2afe4760679c2d",
            "type": "NAVIGATE_TO_FORM",
            "formId": "frmTransferPayLandingKA",
            "formKUID": "dab7a50c55b94a12b3d961ae5bd49247",
            "mappings": {},
            "mappingsOrder": [],
            "parentId": "",
            "callbackType": null,
            "enableMappingEditor": true
        }]
    }
}