{
    "AS_Button_8d6c9add5c5c4e838d2c5a71189114a0": {
        "id": "AS_Button_8d6c9add5c5c4e838d2c5a71189114a0",
        "type": "ACTION_SEQUENCE",
        "actions": [{
            "id": "NAVIGATE_TO_FORM__onClick_1f17b829b9e9432b8b1d439873fea950",
            "type": "NAVIGATE_TO_FORM",
            "formKUID": "db521e97422f4973ab4a6a7569d1cc93",
            "mappings": {},
            "mappingsOrder": [],
            "parentId": "",
            "callbackType": null,
            "enableMappingEditor": true
        }]
    }
}