{
    "AS_Button_8b59c165a50a47b6b5fd70785f53d3bf": {
        "id": "AS_Button_8b59c165a50a47b6b5fd70785f53d3bf",
        "type": "ACTION_SEQUENCE",
        "actions": [{
            "id": "NAVIGATE_TO_FORM__onClick_619eb13e7a8c41a6b2215dd9ee77f2e2",
            "type": "NAVIGATE_TO_FORM",
            "formId": "frmUnauthFeatureEnablingKA",
            "formKUID": "6267e3b5eb614ea581b492d24e980f30",
            "mappings": {},
            "mappingsOrder": [],
            "parentId": "",
            "callbackType": null,
            "enableMappingEditor": true
        }]
    }
}