{
    "AS_Button_6a46376d1b8245c9a7786b1107d30554": {
        "id": "AS_Button_6a46376d1b8245c9a7786b1107d30554",
        "type": "ACTION_SEQUENCE",
        "actions": [{
            "id": "NAVIGATE_TO_FORM__onClick_9f459f17894148358f909986ebeb36b9",
            "type": "NAVIGATE_TO_FORM",
            "formId": "frmRecentTransactionDetailsKA",
            "formKUID": "3e75bf63a2d4443486447188bb14c36b",
            "mappings": {},
            "mappingsOrder": [],
            "parentId": "",
            "callbackType": null,
            "enableMappingEditor": true
        }]
    }
}