{
    "AS_Button_24ac1164d80b4630a93de14057e8dde0": {
        "id": "AS_Button_24ac1164d80b4630a93de14057e8dde0",
        "type": "ACTION_SEQUENCE",
        "params": [{
            "datatype": "collection",
            "name": "eventobject"
        }],
        "actions": [{
            "id": "NAVIGATE_TO_FORM__onClick_a2357272efca4ddea31143e04b8b45d0",
            "type": "NAVIGATE_TO_FORM",
            "formId": "frmTransferPayLandingKA",
            "formKUID": "dab7a50c55b94a12b3d961ae5bd49247",
            "mappings": {},
            "mappingsOrder": [],
            "parentId": "",
            "callbackType": null,
            "enableMappingEditor": true
        }]
    }
}