{
    "AS_Form_9368b3207b7c479b91f5b9feccd0c832": {
        "id": "AS_Form_9368b3207b7c479b91f5b9feccd0c832",
        "type": "ACTION_SEQUENCE",
        "actions": [{
            "id": "ADD_SNIPPET__406d84cf61db44049a939fd381357786",
            "type": "ADD_SNIPPET",
            "codeSnippet": "loadBackButton();",
            "parentId": null,
            "callbackType": null
        }]
    }
}