{
    "AS_Label_9ff6473314344bee8d5205a0d90b1c0a": {
        "id": "AS_Label_9ff6473314344bee8d5205a0d90b1c0a",
        "type": "ACTION_SEQUENCE",
        "actions": [{
            "id": "MOVE_ACTION____4efcfbcfb3dd44b3b71de21bfa80c992",
            "type": "MOVE_ACTION",
            "itemType": "FORM",
            "itemId": "frmLoginKA",
            "widgetId": "__missing_id__",
            "itemKUID": "7b1aa8fceb6b4070833e9eab879b0e5e",
            "widgetKUID": "a62c6de48f9e4c42a956a3caa97badbe",
            "animationObject": {
                "left": "-320dp",
                "anchorPoint": {},
                "stepConfig": {
                    "timingFunction": "kony.anim.EASE"
                }
            },
            "config": {
                "delay": "0",
                "iterationCount": 1,
                "fillMode": "kony.anim.FILL_MODE_FORWARDS",
                "duration": "250"
            },
            "start": "Immediately",
            "animationId": "MOVE_ACTION____4efcfbcfb3dd44b3b71de21bfa80c992",
            "displayAnimationId": "MOVE_ACTION____4efcfbcfb3dd44b3b71de21bfa80c992",
            "forkedPlatform": "all",
            "parentId": null,
            "callbackType": null
        }, {
            "id": "MOVE_ACTION____e72c6a7163b5478492a1a33ae03ee005",
            "type": "MOVE_ACTION",
            "itemType": "FORM",
            "itemId": "frmLoginKA",
            "widgetId": "__missing_id__",
            "itemKUID": "7b1aa8fceb6b4070833e9eab879b0e5e",
            "widgetKUID": "6f86d96c80db48e2970144535ec99ae1",
            "animationObject": {
                "left": "0dp",
                "anchorPoint": {},
                "stepConfig": {
                    "timingFunction": "kony.anim.EASE"
                }
            },
            "config": {
                "delay": "0",
                "iterationCount": 1,
                "fillMode": "kony.anim.FILL_MODE_FORWARDS",
                "duration": "250"
            },
            "start": "Immediately",
            "parentAnimation": "MOVE_ACTION____4efcfbcfb3dd44b3b71de21bfa80c992",
            "animationId": "MOVE_ACTION____e72c6a7163b5478492a1a33ae03ee005",
            "displayAnimationId": "MOVE_ACTION____e72c6a7163b5478492a1a33ae03ee005",
            "forkedPlatform": "all",
            "parentId": null,
            "callbackType": null
        }]
    }
}