{
    "AS_Segment_496427d7f0e947b29cff94953bfb2f20": {
        "id": "AS_Segment_496427d7f0e947b29cff94953bfb2f20",
        "type": "ACTION_SEQUENCE",
        "params": [{
            "datatype": "collection",
            "name": "eventobject"
        }, {
            "datatype": "number",
            "name": "sectionNumber"
        }, {
            "datatype": "number",
            "name": "rowNumber"
        }],
        "actions": [{
            "id": "ADD_SNIPPET__31b83a3943a449f1922c00230afee82a",
            "type": "ADD_SNIPPET",
            "codeSnippet": "scheduledTransactionsOnRowClick();",
            "parentId": null,
            "callbackType": null
        }, {
            "id": "NAVIGATE_TO_FORM___d34bcd3bd6ac49b5a154b583d90fad4c",
            "type": "NAVIGATE_TO_FORM",
            "formId": "frmScheduledTransactionDetailsKA",
            "formKUID": "a4a9feb268574ec888040704309f1112",
            "mappings": {},
            "mappingsOrder": [],
            "parentId": "",
            "callbackType": null,
            "enableMappingEditor": true
        }]
    }
}