{
    "AS_Segment_e37faa7922fa4ac1bc59914c8ebcf147": {
        "id": "AS_Segment_e37faa7922fa4ac1bc59914c8ebcf147",
        "type": "ACTION_SEQUENCE",
        "actions": [{
            "id": "SHOW_ALERT_onRowClick_1845c8f827dd4a89ad589996a174a761",
            "type": "SHOW_ALERT",
            "alertType": "constants.ALERT_TYPE_CONFIRMATION",
            "alertTitle": "Call",
            "yesLabel": "Call",
            "noLabel": "Cancel",
            "alertMessage": " 284-123-1234",
            "messageType": "constant",
            "callbackType": null,
            "alertTitlei18n": null,
            "yesLabeli18n": null,
            "noLabeli18n": null
        }]
    }
}