{
    "AS_TextField_aa4a8c01d78541e6b5a39056da6399f8": {
        "id": "AS_TextField_aa4a8c01d78541e6b5a39056da6399f8",
        "type": "ACTION_SEQUENCE",
        "params": [{
            "datatype": "collection",
            "name": "eventobject"
        }, {
            "datatype": "string",
            "name": "changedtext"
        }],
        "actions": [{
            "id": "ADD_SNIPPET_onDone_93a9a7e41e544e56af45332ab0465a03",
            "type": "ADD_SNIPPET",
            "codeSnippet": "loginKeyboardInactive();",
            "callbackType": null
        }]
    }
}