{
    "AS_TextField_0f0eb62deef542c5bc4f6005704e2c8c": {
        "id": "AS_TextField_0f0eb62deef542c5bc4f6005704e2c8c",
        "type": "ACTION_SEQUENCE",
        "params": [{
            "datatype": "collection",
            "name": "eventobject"
        }, {
            "datatype": "string",
            "name": "changedtext"
        }],
        "actions": [{
            "id": "ADD_SNIPPET__cb84f167dafb474ba3eaa5506106876e",
            "type": "ADD_SNIPPET",
            "codeSnippet": "userStartsSearch();",
            "parentId": null,
            "callbackType": null
        }]
    }
}