{
    "AS_TitleBar_f6a0d449dc9849ef95f5cda26a5e0008": {
        "id": "AS_TitleBar_f6a0d449dc9849ef95f5cda26a5e0008",
        "type": "ACTION_SEQUENCE",
        "actions": [{
            "id": "NAVIGATE_TO_FORM___1ac5930557d34eaea4137c2406bb05e4",
            "type": "NAVIGATE_TO_FORM",
            "formId": "frmTransferPayLandingKA",
            "formKUID": "dab7a50c55b94a12b3d961ae5bd49247",
            "mappings": {},
            "mappingsOrder": [],
            "parentId": "",
            "callbackType": null,
            "enableMappingEditor": true
        }]
    }
}