{
    "@class": "com.kony.gen.viz.model.component.KVizLabel",
    "DNDConfig": null,
    "__parentReadjusting__": false,
    "_height_": {
        "type": "ref",
        "value": "preferred"
    },
    "_margin_": [
        1,
        1,
        1,
        1
    ],
    "_padding_": [
        0,
        0,
        0,
        0
    ],
    "_skin_": "sa4100b61cd141c4b7c6f82115bc37b9",
    "_text_": "Transfer between",
    "_top_": {
        "type": "string",
        "value": "1%"
    },
    "_width_": {
        "type": "string",
        "value": "80%"
    },
    "_wrapping_": 2,
    "android": {
        "textStyle": {
            "letterSpacing": 0,
            "strikeThrough": false
        }
    },
    "canUpdateUI": true,
    "centerx": {
        "type": "string",
        "value": "50%"
    },
    "containerweight": 100,
    "contentalignment": 5,
    "id": "lblOwnAccount",
    "info": null,
    "ipad": {
        "psp": {
            "wrapping": 2
        }
    },
    "iphone": {
        "psp": {
            "wrapping": 2
        }
    },
    "isvisible": true,
    "kuid": "f204c0bfc56f4cf4ac2f02ff8bb68c88",
    "name": "kony.ui.Label",
    "paddinginpixel": false,
    "parent": "flxLeft1",
    "pf": "frmPaymentDashboard",
    "texti18n": "i18n.PaymentDash.Transferbetween",
    "textstyle": {},
    "tooltip": "",
    "wType": "Label",
    "zindex": 1
}