{
    "@class": "com.kony.gen.viz.model.component.KVizButton",
    "DNDConfig": null,
    "__parentReadjusting__": false,
    "_height_": {
        "type": "string",
        "value": "52dp"
    },
    "_left_": {
        "type": "string",
        "value": "33.30%"
    },
    "_margin_": [
        6,
        6,
        6,
        6
    ],
    "_padding_": [
        6,
        0,
        6,
        0
    ],
    "_skin_": "s36ede5277a5491fb8d66d516425cec5",
    "_text_": "BOTH",
    "_top_": {
        "type": "string",
        "value": "0dp"
    },
    "_width_": {
        "type": "string",
        "value": "33.40%"
    },
    "canUpdateUI": true,
    "containerweight": 100,
    "contentalignment": 5,
    "displaytext": true,
    "focusskin": "s5de7479b8fc41c7b7ac16645e143ed0",
    "id": "btnBothFilterKA",
    "ide_onClick": "AS_Button_6ecb94c82db44686b648dc909710da12",
    "info": null,
    "iphone": {
        "psp": {
            "showProgressIndicator": false
        }
    },
    "isvisible": true,
    "kuid": "1ba00e7814be42ac9ed39a11f457873c",
    "name": "kony.ui.Button",
    "paddinginpixel": false,
    "parent": "androidSegmentedController",
    "pf": "frmLocatorKA",
    "showprogressindicator": false,
    "texti18n": "i18n.locateus.btnBoth",
    "wType": "Button",
    "zindex": 1
}