{
    "DNDConfig": null,
    "_height_": {
        "type": "string",
        "value": "60dp"
    },
    "_margin_": [
        0,
        0,
        0,
        0
    ],
    "_orientation_": 6,
    "_padding_": [
        0,
        0,
        0,
        0
    ],
    "_percent_": true,
    "_skin_": "s68c6a00fb1440c7ad8eafdfa9e188cf",
    "allboxes": [],
    "autogrowmode": 0,
    "canUpdateUI": true,
    "children": [
        "flxInnerRound"
    ],
    "clipbounds": true,
    "containerId": true,
    "containerweight": 100,
    "disabledSkins": {
        "focusSkin": "s14aad86900d4e8fb2cb747cd420d70c"
    },
    "enablescrolling": true,
    "id": "flxWrapperKA",
    "info": null,
    "isTemplate": true,
    "isvisible": true,
    "kuid": "a5211d457d8c44da94094c68f329fa54",
    "layouttype": 2,
    "name": "kony.ui.FlexContainer",
    "parent": "tmpTwoLabelsWithHyphen",
    "pf": "tmpTwoLabelsWithHyphen",
    "snapgridsize": 10,
    "snaptogrid": true,
    "wType": "FlexContainer",
    "widgetalignment": 1
}