{
    "@class": "com.kony.gen.viz.model.component.KVizButton",
    "DNDConfig": null,
    "__parentReadjusting__": false,
    "_height_": {
        "type": "string",
        "value": "100%"
    },
    "_left_": {
        "type": "string",
        "value": "0dp"
    },
    "_margin_": [
        6,
        6,
        6,
        6
    ],
    "_padding_": [
        0,
        1,
        0,
        0
    ],
    "_skin_": "s80191b6ac7b456395dfcf46858959f6",
    "_text_": "FEATURES",
    "_top_": {
        "type": "string",
        "value": "0dp"
    },
    "_width_": {
        "type": "string",
        "value": "33.33%"
    },
    "canUpdateUI": true,
    "containerweight": 100,
    "contentalignment": 5,
    "displaytext": true,
    "focusskin": "s80191b6ac7b456395dfcf46858959f6",
    "id": "btnFeaturesKA",
    "ide_onClick": "AS_Button_d8ae087aa2f44a94aff6ace43c413a04",
    "info": null,
    "iphone": {
        "psp": {
            "showProgressIndicator": false
        }
    },
    "isvisible": true,
    "kuid": "e7ce097407084a7fb75f79269ca3aee8",
    "name": "kony.ui.Button",
    "onclick": "AS_Button_d2238de200444d63b227dd2292c1e0fc",
    "paddinginpixel": false,
    "parent": "tabsWrapper",
    "pf": "frmCheckingJoint",
    "showprogressindicator": false,
    "texti18n": "i18n.opening_account.btnFeatures",
    "wType": "Button"
}