{
    "DNDConfig": null,
    "__parentReadjusting__": false,
    "_height_": {
        "type": "string",
        "value": "100%"
    },
    "_left_": {
        "type": "string",
        "value": "0dp"
    },
    "_margin_": [
        0,
        0,
        0,
        0
    ],
    "_orientation_": 6,
    "_padding_": [
        0,
        0,
        0,
        0
    ],
    "_percent_": true,
    "_skin_": "s388f0c575ef4d08ac3a5ed0a4b90085",
    "_top_": {
        "type": "string",
        "value": "0dp"
    },
    "_width_": {
        "type": "string",
        "value": "41%"
    },
    "allboxes": [],
    "autogrowmode": 0,
    "canUpdateUI": true,
    "children": [
        "CopyflxFlag0cfe0ad27a19042",
        "lblLeftValue"
    ],
    "clipbounds": true,
    "containerweight": 100,
    "enablescrolling": true,
    "id": "flxLeftList",
    "ide_onClick": "AS_FlexContainer_g4c50135d01747e7bfdfc2f22012eba1",
    "info": null,
    "isvisible": true,
    "kuid": "a99a12bacac7494cb17de85ae3467639",
    "layouttype": 2,
    "name": "kony.ui.FlexContainer",
    "parent": "CopyflxListbox0fc89f8830c884e",
    "pf": "frmFxRate",
    "snapgridsize": 10,
    "snaptogrid": true,
    "wType": "FlexContainer",
    "widgetalignment": 1,
    "zindex": 1
}