{
    "@class": "com.kony.gen.viz.model.component.KVizTextBox2",
    "DNDConfig": null,
    "__markedForDelete__": true,
    "__parentReadjusting__": false,
    "_height_": {
        "type": "string",
        "value": "40dp"
    },
    "_left_": {
        "type": "string",
        "value": "0%"
    },
    "_margin_": [
        0,
        0,
        0,
        0
    ],
    "_padding_": [
        3,
        0,
        0,
        0
    ],
    "_placeholder_": "Converted Value",
    "_skin_": "sb8bc4eeeab84ecc87373b3ff1a0bfb0",
    "_text_": "",
    "_top_": {
        "type": "string",
        "value": "0dp"
    },
    "_width_": {
        "type": "string",
        "value": "100%"
    },
    "autocapitalize": "none",
    "autocomplete": false,
    "autocorrect": false,
    "autofilter": false,
    "canUpdateUI": true,
    "containerheight": "",
    "containerheightmode": 1,
    "containerweight": 100,
    "contentalignment": 5,
    "focusskin": "sbe3b6583137485a9048da0950095a9e",
    "id": "txtConvertedValue",
    "ide_onTextChange": "AS_TextField_a0f9222e9df14d87b3970236ae3b8d66",
    "info": null,
    "iphone": {
        "psp": {
            "showClearButton": false,
            "showCloseButton": false,
            "showProgressIndicator": false
        }
    },
    "isvisible": true,
    "keyboardstyle": "A",
    "keyboardtype": "A",
    "kuid": "d6757dc06d3e41aab647fc76fd5345da",
    "maxtextlength": 13,
    "mode": "N",
    "name": "kony.ui.TextBox2",
    "parent": "CopyflxMobContainer0b316a4da99464b",
    "pf": "frmFxRate",
    "placeholderi18n": "i18n.ConvertedValue",
    "placeholderskin": "sec4b6ca5ea1469a9a3c05b25922dd4f",
    "securetextentry": false,
    "textinputmode": "N",
    "viewtype": "default",
    "wType": "TextField",
    "zindex": 1
}