{
    "AS_Button_cf5b6995bdcc4faab7df21d0a404be18": {
        "id": "AS_Button_cf5b6995bdcc4faab7df21d0a404be18",
        "type": "ACTION_SEQUENCE",
        "name": "acceptNUOTerms",
        "params": [{
            "datatype": "collection",
            "name": "eventobject"
        }],
        "contextObj": {
            "type": "forms",
            "platform": "",
            "KUID": "bf784665cb864bbb9326ee7471603cda"
        },
        "language": "js",
        "actions": [{
            "id": "ADD_SNIPPET__ed2bece877a449e4976a8f57cd82d018",
            "type": "ADD_SNIPPET",
            "codeSnippet": "//frmNewAccountKA.show();\nvar nuoTNC =applicationManager.getFrmNUOTandCKAViewController();\nnuoTNC.onAcceptbtnclick();",
            "parentId": null,
            "callbackType": null
        }]
    }
}