{
    "AS_FlexContainer_d0acb051ddef4b1fbeecf23ce4d42b13": {
        "id": "AS_FlexContainer_d0acb051ddef4b1fbeecf23ce4d42b13",
        "type": "ACTION_SEQUENCE",
        "name": "AccountsAlertPaymentOnClick",
        "params": [{
            "datatype": "collection",
            "name": "eventobject"
        }],
        "contextObj": {
            "name": "frmAccountAlertsKA",
            "type": "forms",
            "platform": "",
            "KUID": "bbe7fc072c444a808e3b02f2d737512c"
        },
        "language": "js",
        "actions": [{
            "id": "ADD_SNIPPET__8a6877b620664365843a16069ade0975",
            "type": "ADD_SNIPPET",
            "codeSnippet": "if(kony.os.userAgent()==\"iPhone\")\n  AlertsStatusUpdate(\"Payment Due Remainder\",frmAccountAlertsKA.account.text,frmAccountAlertsKA.payment.text);\nelse\n    AlertsStatusUpdate(\"Payment Due Remainder\",frmAccountAlertsKA.accountandro.text,frmAccountAlertsKA.payment.text);\n",
            "parentId": null,
            "callbackType": null
        }]
    }
}