{
    "AS_Button_c57cb32881f24e3cb577c720c1a6a66f": {
        "id": "AS_Button_c57cb32881f24e3cb577c720c1a6a66f",
        "type": "ACTION_SEQUENCE",
        "name": "actionOnChangePhoneNumber",
        "params": [{
            "datatype": "collection",
            "name": "eventobject"
        }],
        "contextObj": {
            "type": "forms",
            "platform": null,
            "KUID": "f3b3462928874d15a83d38c7499a4968"
        },
        "language": "js",
        "actions": [{
            "id": "ADD_SNIPPET_ide_onClick_dca050a961d84c6d954bbcc7db9ce2bf",
            "type": "ADD_SNIPPET",
            "codeSnippet": "kony.print(\"Deleted\");",
            "callbackType": null
        }]
    }
}