{
    "AS_Button_e70215a9a34444b2b5919177067f7296": {
        "id": "AS_Button_e70215a9a34444b2b5919177067f7296",
        "type": "ACTION_SEQUENCE",
        "name": "actionNUOnewaccountCancel",
        "params": [{
            "datatype": "collection",
            "name": "eventobject"
        }],
        "contextObj": {
            "type": "forms",
            "platform": "",
            "KUID": "ae9bd585c9dc472abb9f4a818592681b"
        },
        "language": "js",
        "actions": [{
            "id": "ADD_SNIPPET__dced0855470a419682d91a157587d2ff",
            "type": "ADD_SNIPPET",
            "codeSnippet": "kony.print(\"Deleted\");",
            "parentId": null,
            "callbackType": null
        }]
    }
}