{
    "AS_FlexContainer_bf6697d6defd49b6ab9cd4988deec4b9": {
        "id": "AS_FlexContainer_bf6697d6defd49b6ab9cd4988deec4b9",
        "type": "ACTION_SEQUENCE",
        "name": "actionOnMapAddress",
        "params": [{
            "datatype": "collection",
            "name": "eventobject"
        }, {
            "datatype": "string",
            "name": "x"
        }, {
            "datatype": "string",
            "name": "y"
        }],
        "contextObj": {
            "name": "frmNUOApplicationDetailsKA",
            "type": "forms",
            "platform": "",
            "KUID": "ga7736001df94de48b40dcd1e0f5f7da"
        },
        "language": "js",
        "actions": [{
            "id": "ADD_SNIPPET__d1313f29c92646e49099eab1e7fac500",
            "type": "ADD_SNIPPET",
            "codeSnippet": "var VC = applicationManager.getFrmNUOApplicationDetailsKAViewController();\nVC.onClickMapInApplicationDetails();",
            "parentId": null,
            "callbackType": null
        }]
    }
}