{
    "AS_Button_a443f993df114f939fb30fae8066341d": {
        "id": "AS_Button_a443f993df114f939fb30fae8066341d",
        "type": "ACTION_SEQUENCE",
        "name": "actionOnbtnProceed",
        "params": [{
            "datatype": "collection",
            "name": "eventobject"
        }],
        "language": "js",
        "actions": [{
            "id": "ADD_SNIPPET_ide_onClick_f8a6892c40f64ecb932d1d0312450fd7",
            "type": "ADD_SNIPPET",
            "codeSnippet": "kony.print(\"Deleted\");",
            "callbackType": null
        }]
    }
}