{
    "AS_TextField_h962af827d67470f83c241fb8b70c23e": {
        "id": "AS_TextField_h962af827d67470f83c241fb8b70c23e",
        "type": "ACTION_SEQUENCE",
        "name": "actionOnSeqQueOneTextChange",
        "params": [{
            "datatype": "collection",
            "name": "eventobject"
        }, {
            "datatype": "string",
            "name": "changedtext"
        }],
        "contextObj": {
            "type": "forms",
            "platform": "",
            "KUID": "cb977d23d25e44d0968c446c681f4dc7"
        },
        "language": "js",
        "actions": [{
            "id": "ADD_SNIPPET__e7b52e0156d049e69e27b0cdf84f66bc",
            "type": "ADD_SNIPPET",
            "codeSnippet": "kony.print(\"Deleted\");",
            "parentId": null,
            "callbackType": null
        }]
    }
}