{
    "AS_Button_b9647391c50d4ec0a86f4dd155cf9e3f": {
        "id": "AS_Button_b9647391c50d4ec0a86f4dd155cf9e3f",
        "type": "ACTION_SEQUENCE",
        "name": "actionOnSpouseNmeContinue",
        "params": [{
            "datatype": "collection",
            "name": "eventobject"
        }],
        "contextObj": {
            "type": "forms",
            "platform": "",
            "KUID": "f4e7e3da0c4e438a9a933922ca89141c"
        },
        "language": "js",
        "actions": [{
            "id": "ADD_SNIPPET__b2c5771f50c341de97fe69eee1409f59",
            "type": "ADD_SNIPPET",
            "codeSnippet": "kony.print(\"Deleted\");",
            "parentId": null,
            "callbackType": null
        }]
    }
}