{
    "AS_Button_g4d9c3c3d8774517b5062193f73873aa": {
        "id": "AS_Button_g4d9c3c3d8774517b5062193f73873aa",
        "type": "ACTION_SEQUENCE",
        "name": "actionNUOVerificationSubmit",
        "params": [{
            "datatype": "collection",
            "name": "eventobject"
        }],
        "contextObj": {
            "type": "forms",
            "platform": "",
            "KUID": "fc18fd91a5d94e439cafe361f3aa1224"
        },
        "language": "js",
        "actions": [{
            "id": "ADD_SNIPPET__ba30cdfd50a647b5ada1d8ec5d00069e",
            "type": "ADD_SNIPPET",
            "codeSnippet": "var userVC = applicationManager.getFrmNUOVerificationKAViewController();\nuserVC.onClickSubmit();",
            "parentId": null,
            "callbackType": null
        }]
    }
}