{
    "AS_Form_j7039f3d99df4354832c2e4870089722": {
        "id": "AS_Form_j7039f3d99df4354832c2e4870089722",
        "type": "ACTION_SEQUENCE",
        "name": "actionCreateCredentialsInit",
        "params": [{
            "datatype": "collection",
            "name": "eventobject"
        }],
        "contextObj": {
            "name": "frmCreateCredentials",
            "type": "forms",
            "platform": "",
            "KUID": "ec144124e44d4336b9c86f2ab49591df"
        },
        "language": "js",
        "actions": [{
            "id": "ADD_SNIPPET__b2f424d6808a4d48b0fb39367925ec27",
            "type": "ADD_SNIPPET",
            "codeSnippet": "var VC = applicationManager.getFrmCreateCredentialsViewController();\nVC.createCredentialsInit();",
            "parentId": null,
            "callbackType": null
        }]
    }
}