{
    "AS_Button_d442beba7763430bbc70209a5e425d80": {
        "id": "AS_Button_d442beba7763430bbc70209a5e425d80",
        "type": "ACTION_SEQUENCE",
        "name": "ActiontouploadDocuments",
        "params": [{
            "datatype": "collection",
            "name": "eventobject"
        }],
        "contextObj": {
            "type": "forms",
            "platform": "",
            "KUID": "d242d2d8afb149ed92b8c43908766e71"
        },
        "language": "js",
        "actions": [{
            "id": "ADD_SNIPPET__b502bbbcfff34037aef161443d9e3892",
            "type": "ADD_SNIPPET",
            "codeSnippet": "kony.print(\"Deleted\");",
            "parentId": null,
            "callbackType": null
        }]
    }
}