{
    "AS_Button_c1ed1cdc093d46b3b9257d6271a3ab64": {
        "id": "AS_Button_c1ed1cdc093d46b3b9257d6271a3ab64",
        "type": "ACTION_SEQUENCE",
        "name": "actionOnBackOfMaritalStatus",
        "params": [{
            "datatype": "collection",
            "name": "eventobject"
        }],
        "contextObj": {
            "type": "forms",
            "platform": "",
            "KUID": "i5fdc67c266a42c59e6302f1645d0c56"
        },
        "language": "js",
        "actions": [{
            "id": "ADD_SNIPPET__d7c7a2ba7e5e417bac6c0db9ce52e812",
            "type": "ADD_SNIPPET",
            "codeSnippet": "kony.print(\"Deleted\");",
            "parentId": null,
            "callbackType": null
        }]
    }
}