{
    "AS_Segment_db112cf714c549f286cc83e0352af7af": {
        "id": "AS_Segment_db112cf714c549f286cc83e0352af7af",
        "type": "ACTION_SEQUENCE",
        "name": "afwanrowClickofSeg",
        "params": [{
            "datatype": "collection",
            "name": "eventobject"
        }, {
            "datatype": "number",
            "name": "sectionNumber"
        }, {
            "datatype": "number",
            "name": "rowNumber"
        }],
        "contextObj": {
            "name": "frmJoMoPay",
            "type": "forms",
            "platform": "",
            "KUID": "d41a38dfc97d4e0a8f3b1db96d6a1ca0"
        },
        "language": "js",
        "actions": [{
            "id": "ADD_SNIPPET__b2b7319c1c1e4b44b79c803dc1649d31",
            "type": "ADD_SNIPPET",
            "codeSnippet": "if(flagtype==flagtransfertype)\n{\nfrmJoMoPay.lblTransferType.text=frmJoMoPay.segPopup.selectedItems[0].lblJP;\n}\nelse if(flagtype==flagaccounttype)\n{\nfrmJoMoPay.lblAccountType.text=frmJoMoPay.segPopup.selectedItems[0].lblJP;\n}\nelse if(flagtype==flagjomopaytype)\n{\nfrmJoMoPay.lblType.text=frmJoMoPay.segPopup.selectedItems[0].lblJP;\n  if(frmJoMoPay.lblType.text==\"Alias\")\n    {\n       aliasselected();\n    }\n  else  if(frmJoMoPay.lblType.text==\"Mobile Number\")\n    {\n     mobileselected();\n    }\n  else\n   nationalidselected();\n}\nfrmJoMoPay.flxPopupOuter.setVisibility(false);",
            "parentId": null,
            "callbackType": null
        }]
    }
}