{
    "AS_TextField_ha10c8a825c5479693b5046341776c30": {
        "id": "AS_TextField_ha10c8a825c5479693b5046341776c30",
        "type": "ACTION_SEQUENCE",
        "name": "animateRegisterConfrmPasswordLabelUp",
        "params": [{
            "datatype": "collection",
            "name": "eventobject"
        }, {
            "datatype": "string",
            "name": "x"
        }, {
            "datatype": "string",
            "name": "y"
        }],
        "contextObj": {
            "name": "frmCongratulations",
            "type": "forms",
            "platform": "",
            "KUID": "h0d76ad922194a6b81763ba19df1183c"
        },
        "language": "js",
        "actions": [{
            "id": "ADD_SNIPPET__ff7b67db0c1440199fb13bb64c1f3d06",
            "type": "ADD_SNIPPET",
            "codeSnippet": "animateLabel(\"UP\", \"lblConfirmPassword\", frmEnrolluserLandingKA.tbxConfrmPwdKA.text);\nfrmEnrolluserLandingKA.flxUnderlineConfirmPassword.skin = \"sknFlxBlueLine\";",
            "parentId": null,
            "callbackType": null
        }]
    }
}