{
    "AS_TextField_c5ac0110dbba405c94d1862a4e8642fa": {
        "id": "AS_TextField_c5ac0110dbba405c94d1862a4e8642fa",
        "type": "ACTION_SEQUENCE",
        "name": "AS_animateRegisterConfrmPasswordLabelDownAndroid",
        "params": [{
            "datatype": "collection",
            "name": "eventobject"
        }, {
            "datatype": "string",
            "name": "changedtext"
        }],
        "contextObj": {
            "name": "frmEnrolluserLandingKA",
            "type": "forms",
            "platform": "",
            "KUID": "de724966138b4e7c9bfdd35033a0bdb3"
        },
        "language": "js",
        "actions": [{
            "id": "ADD_SNIPPET__j6d0ccc08f184e03a3c4c89418c292e7",
            "type": "ADD_SNIPPET",
            "codeSnippet": "if(kony.retailBanking.util.validation.isValidPassword(frmEnrolluserLandingKA.tbxPasswordKA.text) && validateConfirmPassword(frmEnrolluserLandingKA.tbxPasswordKA.text, frmEnrolluserLandingKA.tbxConfrmPwdKA.text)){\n  frmEnrolluserLandingKA.flxUnderlineConfirmPassword.skin = \"sknFlxGreenLine\";\n  confrmPasswordFlag = true;\n}\nelse{\n  frmEnrolluserLandingKA.flxUnderlineConfirmPassword.skin = \"sknFlxOrangeLine\";\n  confrmPasswordFlag = false;\n}\n\nanimateLabel(\"DOWN\", \"lblConfirmPassword\", frmEnrolluserLandingKA.tbxConfrmPwdKA.text);",
            "parentId": null,
            "callbackType": null
        }]
    }
}