{
    "AS_Button_c8165793e83d4565bdd610ed483a42a1": {
        "id": "AS_Button_c8165793e83d4565bdd610ed483a42a1",
        "type": "ACTION_SEQUENCE",
        "params": [{
            "datatype": "collection",
            "name": "eventobject"
        }],
        "language": "js",
        "actions": [{
            "id": "ADD_SNIPPET_ide_onClick_c3f4a94d9d0f4d9db75c57259b05106f",
            "type": "ADD_SNIPPET",
            "codeSnippet": "frmBills.show();",
            "callbackType": null
        }]
    }
}