{
    "AS_Button_a27fd86b10c84934ba606e4493d4cf32": {
        "id": "AS_Button_a27fd86b10c84934ba606e4493d4cf32",
        "type": "ACTION_SEQUENCE",
        "name": "AS_Button_BOJPAYAPP",
        "params": [{
            "datatype": "collection",
            "name": "eventobject"
        }],
        "language": "js",
        "actions": [{
            "id": "ADD_SNIPPET_ide_onClick_de3c98d2769f470d818dd4308204f0d4",
            "type": "ADD_SNIPPET",
            "codeSnippet": "openBOJPAYAppLink();",
            "callbackType": null
        }]
    }
}