{
    "AS_Button_c70b64e66343465193c2ec216afd2080": {
        "id": "AS_Button_c70b64e66343465193c2ec216afd2080",
        "type": "ACTION_SEQUENCE",
        "params": [{
            "datatype": "collection",
            "name": "eventobject"
        }],
        "contextObj": {
            "type": "forms",
            "platform": null,
            "KUID": "74113b30eeaf46e1b36ebf46450f2290"
        },
        "language": "js",
        "actions": [{
            "id": "ADD_SNIPPET_ide_onClick_d76b3d85ae13417a9acabaa25ac48204",
            "type": "ADD_SNIPPET",
            "codeSnippet": "showFormOrderList();",
            "callbackType": null
        }]
    }
}