{
    "AS_Button_b54cd3687f51433baf3faacf7d809bd1": {
        "id": "AS_Button_b54cd3687f51433baf3faacf7d809bd1",
        "type": "ACTION_SEQUENCE",
        "params": [{
            "datatype": "collection",
            "name": "eventobject"
        }],
        "contextObj": {
            "name": "frmPaymentDashboard",
            "type": "forms",
            "platform": "",
            "KUID": "j5584f57cd764e66adb4087c6fc15f67"
        },
        "language": "js",
        "actions": [{
            "id": "ADD_SNIPPET__g29781147cb94be595f386e9a2857aca",
            "type": "ADD_SNIPPET",
            "codeSnippet": "customVerb_CARDSDETAILS();",
            "parentId": null,
            "callbackType": null
        }]
    }
}