{
    "AS_Button_hebe84d1637041dcb30470954d215b7d": {
        "id": "AS_Button_hebe84d1637041dcb30470954d215b7d",
        "type": "ACTION_SEQUENCE",
        "params": [{
            "datatype": "collection",
            "name": "eventobject"
        }],
        "language": "js",
        "actions": [{
            "id": "ADD_SNIPPET_ide_onClick_d0657250e90544e9bcc1c88e48ffaa8e",
            "type": "ADD_SNIPPET",
            "codeSnippet": "var previousForm=kony.application.getPreviousForm();\nif(previousForm.id !== \"frmLoginKA\")\n             frmMoreLandingKA.show();\nelse{\n  if(kony.retailBanking.globalData.deviceInfo.isIphone())\n  \t\tremoveSwipe();\n  frmLoginKA.show();\n}",
            "callbackType": null
        }]
    }
}