{
    "AS_Button_f9dd5db13e9c45dd987601f959a542ed": {
        "id": "AS_Button_f9dd5db13e9c45dd987601f959a542ed",
        "type": "ACTION_SEQUENCE",
        "params": [{
            "datatype": "collection",
            "name": "eventobject"
        }],
        "language": "js",
        "actions": [{
            "id": "ADD_SNIPPET_ide_onClick_c8f21e1bea814b0fa9e682e5370ac523",
            "type": "ADD_SNIPPET",
            "codeSnippet": "getAllLocations();",
            "callbackType": null
        }]
    }
}