{
    "AS_Button_b9c6e60dc0c6499abc6f04d3423699cd": {
        "id": "AS_Button_b9c6e60dc0c6499abc6f04d3423699cd",
        "type": "ACTION_SEQUENCE",
        "params": [{
            "datatype": "collection",
            "name": "eventobject"
        }],
        "language": "js",
        "actions": [{
            "id": "ADD_SNIPPET_ide_onClick_be1f2ca6b66c4193948c5d788171de6a",
            "type": "ADD_SNIPPET",
            "codeSnippet": "popupCommonAlertDimiss();\ngblToOTPFrom = \"web\"; \nShowLoadingScreen();\nperformOwnTransfer();",
            "callbackType": null
        }]
    }
}