{
    "AS_Button_a4a66f3ab84043499299b3e3692c013f": {
        "id": "AS_Button_a4a66f3ab84043499299b3e3692c013f",
        "type": "ACTION_SEQUENCE",
        "params": [{
            "datatype": "collection",
            "name": "eventobject"
        }],
        "language": "js",
        "actions": [{
            "id": "ADD_SNIPPET_ide_onClick_a224cbaeb1d24f8a93c392ae4f791200",
            "type": "ADD_SNIPPET",
            "codeSnippet": "frmPaymentDashboard.show();",
            "callbackType": null
        }]
    }
}