{
    "AS_Button_gf125b4731c84cd292011c78b11e169d": {
        "id": "AS_Button_gf125b4731c84cd292011c78b11e169d",
        "type": "ACTION_SEQUENCE",
        "params": [{
            "datatype": "collection",
            "name": "eventobject"
        }],
        "contextObj": {
            "name": "frmAccountDetailKA",
            "type": "forms",
            "platform": "",
            "KUID": "5ed703cad63c441882fc4a36f5ea0c28"
        },
        "language": "js",
        "actions": [{
            "id": "ADD_SNIPPET__a10854d3ed514dd7874e066929de302a",
            "type": "ADD_SNIPPET",
            "codeSnippet": "kony.print(\"asdas\");",
            "parentId": null,
            "callbackType": null
        }]
    }
}