{
    "AS_Button_h7010eddba354dbf886d2f74208a5c1a": {
        "id": "AS_Button_h7010eddba354dbf886d2f74208a5c1a",
        "type": "ACTION_SEQUENCE",
        "name": "AS_BtnCompletedfrmrequestStatus",
        "params": [{
            "datatype": "collection",
            "name": "eventobject"
        }],
        "language": "js",
        "actions": [{
            "id": "ADD_SNIPPET_ide_onClick_id299da245d3451795287c6ee4c01024",
            "type": "ADD_SNIPPET",
            "codeSnippet": "kony.print(\"Completed\");",
            "callbackType": null
        }]
    }
}