{
    "AS_Button_fb1eb98d40dd4bffac1512615ec41d7c": {
        "id": "AS_Button_fb1eb98d40dd4bffac1512615ec41d7c",
        "type": "ACTION_SEQUENCE",
        "params": [{
            "datatype": "collection",
            "name": "eventobject"
        }],
        "contextObj": {
            "name": "frmAccountDetailKA",
            "type": "forms",
            "platform": "",
            "KUID": "5ed703cad63c441882fc4a36f5ea0c28"
        },
        "language": "js",
        "actions": [{
            "id": "ADD_SNIPPET__i49bea8ef87d4992bc94fdf3601bcb0e",
            "type": "ADD_SNIPPET",
            "codeSnippet": "kony.print(\"sadasd\");",
            "parentId": null,
            "callbackType": null
        }]
    }
}