{
    "AS_Button_b37365556cbe4bc79765405aa7463b53": {
        "id": "AS_Button_b37365556cbe4bc79765405aa7463b53",
        "type": "ACTION_SEQUENCE",
        "params": [{
            "datatype": "collection",
            "name": "eventobject"
        }],
        "language": "js",
        "actions": [{
            "id": "ADD_SNIPPET__bfe79f01fd7a4578acd03bb398dffa4e",
            "type": "ADD_SNIPPET",
            "codeSnippet": "kony.print(\"Removed\");",
            "parentId": null,
            "callbackType": null
        }]
    }
}