{
    "AS_Button_3708e0f48747465eb989bcc0460a2bd0": {
        "id": "AS_Button_3708e0f48747465eb989bcc0460a2bd0",
        "type": "ACTION_SEQUENCE",
        "params": [{
            "datatype": "collection",
            "name": "eventobject"
        }],
        "language": "js",
        "actions": [{
            "id": "ADD_SNIPPET_ide_onClick_90ead9bb89c94c31b390ec1f6beabb88",
            "type": "ADD_SNIPPET",
            "codeSnippet": "kony.print(\"Deleted\");",
            "callbackType": null
        }]
    }
}