{
    "AS_Button_c70815bc8a8745009b21a00c33a2c32c": {
        "id": "AS_Button_c70815bc8a8745009b21a00c33a2c32c",
        "type": "ACTION_SEQUENCE",
        "params": [{
            "datatype": "collection",
            "name": "eventobject"
        }],
        "language": "js",
        "actions": [{
            "id": "ADD_SNIPPET_ide_onClick_hc73265f0fcc4d22b2f5d2c215a0b4b6",
            "type": "ADD_SNIPPET",
            "codeSnippet": "getBranchLocations();",
            "callbackType": null
        }]
    }
}