{
    "AS_Button_dd7a8430ba984063b0023c693cda610e": {
        "id": "AS_Button_dd7a8430ba984063b0023c693cda610e",
        "type": "ACTION_SEQUENCE",
        "params": [{
            "datatype": "collection",
            "name": "eventobject"
        }],
        "contextObj": {
            "name": "frmAccountDetailKA",
            "type": "forms",
            "platform": "",
            "KUID": "5ed703cad63c441882fc4a36f5ea0c28"
        },
        "language": "js",
        "actions": [{
            "id": "ADD_SNIPPET__b229b21f3d7c4ccca265d112600aa791",
            "type": "ADD_SNIPPET",
            "codeSnippet": "kony.print(\"asdas\");",
            "parentId": null,
            "callbackType": null
        }]
    }
}