{
    "AS_Button_adcaf2ce408a427091f721a2e8c00eab": {
        "id": "AS_Button_adcaf2ce408a427091f721a2e8c00eab",
        "type": "ACTION_SEQUENCE",
        "params": [{
            "datatype": "collection",
            "name": "eventobject"
        }],
        "language": "js",
        "actions": [{
            "id": "ADD_SNIPPET_ide_onClick_e1c898fe560e4c7d84eb2453815cf0a2",
            "type": "ADD_SNIPPET",
            "codeSnippet": "onChangingradioBtnNewBillKA(frmNewBillKA.btnBillsPayCards,frmNewBillKA.lblBillsPayCards.text);",
            "callbackType": null
        }]
    }
}