{
    "AS_Button_99854c0ce24a4b53ad37bf9a7be65c04": {
        "id": "AS_Button_99854c0ce24a4b53ad37bf9a7be65c04",
        "type": "ACTION_SEQUENCE",
        "params": [{
            "datatype": "collection",
            "name": "eventobject"
        }],
        "language": "js",
        "actions": [{
            "id": "NAVIGATE_TO_FORM___039cde355d3e4873804223ff6d0cf412",
            "type": "NAVIGATE_TO_FORM",
            "formId": "frmAddExternalAccountKA",
            "formKUID": "4943cca5d62d4f0ca6f2e9ab47274db5",
            "mappings": {},
            "mappingsOrder": [],
            "parentId": "",
            "callbackType": null,
            "enableMappingEditor": true,
            "package": "",
            "navigationObj": "{\n    \"_meta_\": {\n        \"eventName\": \"\",\n        \"widgetId\": \"\"\n    }\n}",
            "isCustomInput": false
        }]
    }
}