{
    "AS_Button_c888533455fb4968920cfe628b01eeab": {
        "id": "AS_Button_c888533455fb4968920cfe628b01eeab",
        "type": "ACTION_SEQUENCE",
        "params": [{
            "datatype": "collection",
            "name": "eventobject"
        }],
        "language": "js",
        "actions": [{
            "id": "ADD_SNIPPET_ide_onClick_ecdb21fa44a349cdbfa6851e123cbb29",
            "type": "ADD_SNIPPET",
            "codeSnippet": "getBranchLocations();",
            "callbackType": null
        }]
    }
}