{
    "AS_Button_d4eb38d5b7434a1c9dffe816a581aa1f": {
        "id": "AS_Button_d4eb38d5b7434a1c9dffe816a581aa1f",
        "type": "ACTION_SEQUENCE",
        "params": [{
            "datatype": "collection",
            "name": "eventobject"
        }],
        "contextObj": {
            "type": "forms",
            "platform": "",
            "KUID": "a42b238ed6d24762ade2b6d865ef4897"
        },
        "language": "js",
        "actions": [{
            "id": "ADD_SNIPPET__f7ca8e94e89c46aaa3d7f83f27f1f5f9",
            "type": "ADD_SNIPPET",
            "codeSnippet": "var obj = new kony.retailbanking.AdvancedAtmFilter();\nobj.onClickOfApply();",
            "parentId": null,
            "callbackType": null
        }]
    }
}