{
    "AS_Button_j1979157760d4889bb4c090698b04a8b": {
        "id": "AS_Button_j1979157760d4889bb4c090698b04a8b",
        "type": "ACTION_SEQUENCE",
        "name": "AS_Button_updateJomopayBeneficiary",
        "params": [{
            "datatype": "collection",
            "name": "eventobject"
        }, {
            "datatype": "collection",
            "name": "context"
        }],
        "language": "js",
        "actions": [{
            "id": "ADD_SNIPPET_ide_onClick_eb56687ddbf94a2481a29222b5e7bf62",
            "type": "ADD_SNIPPET",
            "codeSnippet": "navigate_JOMOPAYUPDATEBILLER(context.widgetInfo.selectedRowItems[0]);\n",
            "callbackType": null
        }]
    }
}