{
    "AS_Button_i2608f930790492f891625412f769468": {
        "id": "AS_Button_i2608f930790492f891625412f769468",
        "type": "ACTION_SEQUENCE",
        "params": [{
            "datatype": "collection",
            "name": "eventobject"
        }],
        "contextObj": {
            "name": "frmAccountDetailKA",
            "type": "forms",
            "platform": "",
            "KUID": "5ed703cad63c441882fc4a36f5ea0c28"
        },
        "language": "js",
        "actions": [{
            "id": "ADD_SNIPPET__a640024bdfe246b18a620c0cd24bc84f",
            "type": "ADD_SNIPPET",
            "codeSnippet": "kony.print(\"xy\");",
            "parentId": null,
            "callbackType": null
        }]
    }
}