{
    "AS_Button_bbd5e94fa2f04c7ab665e216f984244d": {
        "id": "AS_Button_bbd5e94fa2f04c7ab665e216f984244d",
        "type": "ACTION_SEQUENCE",
        "params": [{
            "datatype": "collection",
            "name": "eventobject"
        }],
        "contextObj": {
            "name": "frmPinEntryStep2",
            "type": "forms",
            "platform": null,
            "KUID": "e015f1b273d34ea480f2c966bc9044d2"
        },
        "language": "js",
        "actions": [{
            "id": "ADD_SNIPPET_ide_onClick_dcd55ff65fbb4bf3aba8a32856af2ba0",
            "type": "ADD_SNIPPET",
            "codeSnippet": "check(8);",
            "callbackType": null
        }]
    }
}