{
    "AS_Button_fe5cd2919fc94d4c9b90aba84ce33093": {
        "id": "AS_Button_fe5cd2919fc94d4c9b90aba84ce33093",
        "type": "ACTION_SEQUENCE",
        "params": [{
            "datatype": "collection",
            "name": "eventobject"
        }],
        "language": "js",
        "actions": [{
            "id": "ADD_SNIPPET_ide_onClick_2245f55e73e443b6b79969a0ce4acbcb",
            "type": "ADD_SNIPPET",
            "codeSnippet": "newCheckReOrderPreShow();",
            "callbackType": null
        }]
    }
}