{
    "AS_Button_7c1697adfd294608803978d850c5d8a0": {
        "id": "AS_Button_7c1697adfd294608803978d850c5d8a0",
        "type": "ACTION_SEQUENCE",
        "params": [{
            "datatype": "collection",
            "name": "eventobject"
        }],
        "language": "js",
        "actions": [{
            "id": "ADD_SNIPPET__e05d886712114f43ae0be2a16c88cd39",
            "type": "ADD_SNIPPET",
            "codeSnippet": "frmSearchOptionsKA.CalenderFrom.clear();\nnavigateToSearchOptions();\nKNYMetricsService.sendCustomMetrics(\"frmAccountDetailKA\", {\"searchButton\":\"Intial Search\"});\n",
            "parentId": null,
            "callbackType": null
        }]
    }
}