{
    "AS_Button_c85c3842c44a4303a37fd2d814bd447e": {
        "id": "AS_Button_c85c3842c44a4303a37fd2d814bd447e",
        "type": "ACTION_SEQUENCE",
        "name": "AS_Button_onClickTener1Month",
        "params": [{
            "datatype": "collection",
            "name": "eventobject"
        }],
        "contextObj": {
            "name": "frmOpenTermDeposit",
            "type": "forms",
            "platform": "",
            "KUID": "fec6fddbcf8543f2b30114c87e1a7e99"
        },
        "language": "js",
        "actions": [{
            "id": "ADD_SNIPPET__f36df07ccd394e3cbc11b0a447dfd30d",
            "type": "ADD_SNIPPET",
            "codeSnippet": "funSelectTener(\"1Month\");",
            "parentId": null,
            "callbackType": null
        }]
    }
}