{
    "AS_Button_fa5009557c21436e9a14a2359489b282": {
        "id": "AS_Button_fa5009557c21436e9a14a2359489b282",
        "type": "ACTION_SEQUENCE",
        "params": [{
            "datatype": "collection",
            "name": "eventobject"
        }],
        "language": "js",
        "actions": [{
            "id": "ADD_SNIPPET_ide_onClick_f99f0b5ad12a420c9869ed6b798b8a61",
            "type": "ADD_SNIPPET",
            "codeSnippet": "frmAddNewPayeeKA.btnPostPaid.skin = \"slButtonWhiteTab\";\nfrmAddNewPayeeKA.btnPrePaid.skin = \"slButtonWhiteTabDisabled\";\n\nkony.boj.selectedBillerType = \"PostPaid\";\n//kony.boj.restoreBillerTabDetails();\n//kony.boj.restoreTextboxAddBiller();",
            "callbackType": null
        }]
    }
}