{
    "AS_Button_b0556d8c4fac47c2b056b867bb70acf2": {
        "id": "AS_Button_b0556d8c4fac47c2b056b867bb70acf2",
        "type": "ACTION_SEQUENCE",
        "params": [{
            "datatype": "collection",
            "name": "eventobject"
        }],
        "contextObj": {
            "name": "frmPaymentDashboard",
            "type": "forms",
            "platform": "",
            "KUID": "j5584f57cd764e66adb4087c6fc15f67"
        },
        "language": "js",
        "actions": [{
            "id": "ADD_SNIPPET__fe571ff479704e66a8cad6c9a165f371",
            "type": "ADD_SNIPPET",
            "codeSnippet": "setDatestoCalendar();",
            "parentId": null,
            "callbackType": null
        }]
    }
}