{
    "AS_Button_eaba936138494c19ac8027e67eb3a444": {
        "id": "AS_Button_eaba936138494c19ac8027e67eb3a444",
        "type": "ACTION_SEQUENCE",
        "params": [{
            "datatype": "collection",
            "name": "eventobject"
        }],
        "language": "js",
        "actions": [{
            "id": "ADD_SNIPPET_ide_onClick_d68a3308bf7c4ebfbf0b646d89fb395e",
            "type": "ADD_SNIPPET",
            "codeSnippet": "frmJoMoPayLanding.txtSearch.text=\"\";\nfrmPaymentDashboard.show();",
            "callbackType": null
        }]
    }
}