{
    "AS_Button_8d98381c2b7842c7a379e9c81d8874e9": {
        "id": "AS_Button_8d98381c2b7842c7a379e9c81d8874e9",
        "type": "ACTION_SEQUENCE",
        "params": [{
            "datatype": "collection",
            "name": "eventobject"
        }],
        "language": "js",
        "actions": [{
            "id": "ADD_SNIPPET__5e3eda9dffde4494b28096dfee32cf0f",
            "type": "ADD_SNIPPET",
            "codeSnippet": "frmManageCardsKA.btnDeactivateKA.text = \"ACTIVATE\";",
            "parentId": null,
            "callbackType": null
        }, {
            "id": "NAVIGATE_TO_FORM__ide_onClick_24f2c03d3ffa45fa9a075b0ca6e708b4",
            "type": "NAVIGATE_TO_FORM",
            "formId": "frmCardOperationsKA",
            "formKUID": "2d490dd434d4419c838fe7bad7a62acb",
            "mappings": {},
            "mappingsOrder": [],
            "parentId": "",
            "callbackType": null,
            "enableMappingEditor": true,
            "package": "",
            "navigationObj": "{\n    \"_meta_\": {\n        \"eventName\": \"\",\n        \"widgetId\": \"\"\n    }\n}",
            "isCustomInput": false
        }]
    }
}