{
    "AS_Button_g09a2b6c58d9449aa3cb4430449e3da6": {
        "id": "AS_Button_g09a2b6c58d9449aa3cb4430449e3da6",
        "type": "ACTION_SEQUENCE",
        "name": "AS_btnNewfrmrequestStatus",
        "params": [{
            "datatype": "collection",
            "name": "eventobject"
        }],
        "language": "js",
        "actions": [{
            "id": "ADD_SNIPPET_ide_onClick_add8bb8cafbd43b5817b1a8ae745f35c",
            "type": "ADD_SNIPPET",
            "codeSnippet": "kony.print(\"New\");",
            "callbackType": null
        }]
    }
}