{
    "AS_Button_a78d3c26030e45c4b3c8a3ca02d1eee7": {
        "id": "AS_Button_a78d3c26030e45c4b3c8a3ca02d1eee7",
        "type": "ACTION_SEQUENCE",
        "params": [{
            "datatype": "collection",
            "name": "eventobject"
        }],
        "language": "js",
        "actions": [{
            "id": "ADD_SNIPPET_ide_onClick_e466ace3f0a5443a8a9739046719f8d9",
            "type": "ADD_SNIPPET",
            "codeSnippet": "customAlertPopup(geti18Value(\"i18n.common.AreYouSure\"), \n                 geti18Value(\"i18n.transfers.eraseAllAlert\"),\n                 onClickYesBackIPS, popupCommonAlertDimiss, \n                 geti18Value(\"i18n.common.YES\"),\n                 geti18Value(\"i18n.common.NO\"));",
            "callbackType": null
        }]
    }
}