{
    "AS_FlexContainer_hff6b89262a047ee976bde267eab0f33": {
        "id": "AS_FlexContainer_hff6b89262a047ee976bde267eab0f33",
        "type": "ACTION_SEQUENCE",
        "name": "AS_backFromCard",
        "params": [{
            "datatype": "collection",
            "name": "eventobject"
        }],
        "contextObj": {
            "name": "frmRegisterUser",
            "type": "forms",
            "platform": "",
            "KUID": "cd7432ec5087404590338186c94e35d2"
        },
        "language": "js",
        "actions": [{
            "id": "ADD_SNIPPET__j8b4e12bec2943acb0a427d1b2cb6ffb",
            "type": "ADD_SNIPPET",
            "codeSnippet": "if(gblFromModule == \"RegisterUser\"){\n  frmLoginKA.show();\n}\nelse{\n  gblReqField=\"Username\";\n  initialiseAndCallEnroll();\n}\n\nfrmRegisterUser.destroy();",
            "parentId": null,
            "callbackType": null
        }]
    }
}