{
    "AS_FlexContainer_d27ddd881c2b4a3496e57169b09d003c": {
        "id": "AS_FlexContainer_d27ddd881c2b4a3496e57169b09d003c",
        "type": "ACTION_SEQUENCE",
        "name": "AS_backClickofConfirmSubAccountLanding",
        "params": [{
            "datatype": "collection",
            "name": "eventobject"
        }],
        "language": "js",
        "actions": [{
            "id": "ADD_SNIPPET_ide_onClick_g72134e00baa40aa9b2d199ffa6f0331",
            "type": "ADD_SNIPPET",
            "codeSnippet": "frmNewSubAccountLandingNew.show();",
            "callbackType": null
        }]
    }
}