{
    "AS_Button_c888435dfdb94eeb830c2d252b5ce983": {
        "id": "AS_Button_c888435dfdb94eeb830c2d252b5ce983",
        "type": "ACTION_SEQUENCE",
        "params": [{
            "datatype": "collection",
            "name": "eventobject"
        }],
        "contextObj": {
            "name": "frmAccountDetailKA",
            "type": "forms",
            "platform": "",
            "KUID": "5ed703cad63c441882fc4a36f5ea0c28"
        },
        "language": "js",
        "actions": [{
            "id": "ADD_SNIPPET__dccd14e361bf4ae7b00a2af1640fa776",
            "type": "ADD_SNIPPET",
            "codeSnippet": "kony.print(\"\");",
            "parentId": null,
            "callbackType": null
        }]
    }
}