{
    "AS_Button_e419811ddb7b47e4979e9bc424910ee1": {
        "id": "AS_Button_e419811ddb7b47e4979e9bc424910ee1",
        "type": "ACTION_SEQUENCE",
        "name": "AS_Button_backToSettingKA",
        "params": [{
            "datatype": "collection",
            "name": "eventobject"
        }],
        "language": "js",
        "actions": [{
            "id": "ADD_SNIPPET__i6b96263eaab495fa2157b4cb1955e65",
            "type": "ADD_SNIPPET",
            "codeSnippet": "frmMyAccountSettingsKA.show();",
            "parentId": null,
            "callbackType": null
        }]
    }
}