{
    "AS_Button_ed5eae1e7cb6449281da19f2976e65ef": {
        "id": "AS_Button_ed5eae1e7cb6449281da19f2976e65ef",
        "type": "ACTION_SEQUENCE",
        "params": [{
            "datatype": "collection",
            "name": "eventobject"
        }],
        "contextObj": {
            "name": "PopupDeviceRegistration",
            "type": "popups",
            "platform": null,
            "KUID": "bc108d44ba9e4aeaa449b8cf78ba2d74"
        },
        "language": "js",
        "actions": [{
            "id": "ADD_SNIPPET_ide_onClick_d1616febbcf8402581967e9f58e13cf3",
            "type": "ADD_SNIPPET",
            "codeSnippet": "closeCardCancel();",
            "callbackType": null
        }]
    }
}