{
    "AS_Button_jb3e76caf5fa4bb9bfd874cff207cf3e": {
        "id": "AS_Button_jb3e76caf5fa4bb9bfd874cff207cf3e",
        "type": "ACTION_SEQUENCE",
        "name": "AS_Button_RegeisterToJomoPay",
        "params": [{
            "datatype": "collection",
            "name": "eventobject"
        }],
        "language": "js",
        "actions": [{
            "id": "ADD_SNIPPET_ide_onClick_f2522a37cef34d8ba7f0319e3efb61a6",
            "type": "ADD_SNIPPET",
            "codeSnippet": "call_serv_getjomoppayregdata();",
            "callbackType": null
        }]
    }
}