{
    "AS_Button_jf1cb6913c844c1c85e28cd983bd52a4": {
        "id": "AS_Button_jf1cb6913c844c1c85e28cd983bd52a4",
        "type": "ACTION_SEQUENCE",
        "name": "AS_Button_showMoreInfo",
        "params": [{
            "datatype": "collection",
            "name": "eventobject"
        }],
        "contextObj": {
            "name": "frmMore",
            "type": "forms",
            "platform": "",
            "KUID": "d84431c3625d480e87968404e4325341"
        },
        "language": "js",
        "actions": [{
            "id": "ADD_SNIPPET__cd33b3d6df1a489fb95dd29f33b5f2a7",
            "type": "ADD_SNIPPET",
            "codeSnippet": "onClickLocateUS(isLoggedIn,\"frmMore\");",
            "parentId": null,
            "callbackType": null
        }]
    }
}