{
    "AS_Button_d0e448ef0bb748d1b2cff4fd9404541d": {
        "id": "AS_Button_d0e448ef0bb748d1b2cff4fd9404541d",
        "type": "ACTION_SEQUENCE",
        "params": [{
            "datatype": "collection",
            "name": "eventobject"
        }],
        "contextObj": {
            "type": "forms",
            "platform": "",
            "KUID": "he1d62b4711f4c5abdcb97f4fa0c8653"
        },
        "language": "js",
        "actions": [{
            "id": "ADD_SNIPPET__aeac18cdedfb45628486bc354fc06e11",
            "type": "ADD_SNIPPET",
            "codeSnippet": "var vc = new kony.rb.frmContactListphnViewController();\nvc.contactListGoBack();",
            "parentId": null,
            "callbackType": null
        }]
    }
}