{
    "AS_Button_c463efd216e94491b0b23e1e0d4bd780": {
        "id": "AS_Button_c463efd216e94491b0b23e1e0d4bd780",
        "type": "ACTION_SEQUENCE",
        "name": "AS_Button_onClickMaturityInstructionsWithoutInterest",
        "params": [{
            "datatype": "collection",
            "name": "eventobject"
        }],
        "contextObj": {
            "name": "frmOpenTermDeposit",
            "type": "forms",
            "platform": "",
            "KUID": "fec6fddbcf8543f2b30114c87e1a7e99"
        },
        "language": "js",
        "actions": [{
            "id": "ADD_SNIPPET__f561a524fbf64f689f9b667b433d2bc2",
            "type": "ADD_SNIPPET",
            "codeSnippet": "funMatInstructions(\"withOutInt\");",
            "parentId": null,
            "callbackType": null
        }]
    }
}