{
    "AS_Button_ffd77008ba93426ba63063a9f68f7c73": {
        "id": "AS_Button_ffd77008ba93426ba63063a9f68f7c73",
        "type": "ACTION_SEQUENCE",
        "params": [{
            "datatype": "collection",
            "name": "eventobject"
        }],
        "contextObj": {
            "name": "frmConfirmCashWithDraw",
            "type": "forms",
            "platform": "",
            "KUID": "b2e7c11eabab44839d19ed317b9260fc"
        },
        "language": "js",
        "actions": [{
            "id": "ADD_SNIPPET__i1d17d3553244025a6f7bf9daab10e6e",
            "type": "ADD_SNIPPET",
            "codeSnippet": "var navManager = applicationManager.getNavManager();\nnavManager.goBack();",
            "parentId": null,
            "callbackType": null
        }]
    }
}