{
    "AS_Button_cb1c637e6e7f4e47a7ebc1b66ae3e978": {
        "id": "AS_Button_cb1c637e6e7f4e47a7ebc1b66ae3e978",
        "type": "ACTION_SEQUENCE",
        "name": "AS_Button_NationalIDRegistration",
        "params": [{
            "datatype": "collection",
            "name": "eventobject"
        }],
        "contextObj": {
            "name": "frmRegisterUser",
            "type": "forms",
            "platform": "",
            "KUID": "cd7432ec5087404590338186c94e35d2"
        },
        "language": "js",
        "actions": [{
            "id": "ADD_SNIPPET__faef0274238f4050bf10ecf0b6f808e7",
            "type": "ADD_SNIPPET",
            "codeSnippet": "goToNationalIDRegistration();",
            "parentId": null,
            "callbackType": null
        }]
    }
}