{
    "AS_Button_d4298955af8c41aabda75c59ed4c67d5": {
        "id": "AS_Button_d4298955af8c41aabda75c59ed4c67d5",
        "type": "ACTION_SEQUENCE",
        "params": [{
            "datatype": "collection",
            "name": "eventobject"
        }],
        "contextObj": {
            "name": "frmLocatorBranchDetailsKA",
            "type": "forms",
            "platform": "",
            "KUID": "413f08375ca14d89a7755001885d1014"
        },
        "language": "js",
        "actions": [{
            "id": "ADD_SNIPPET__e53ee6d6811d45b0b13a014ccdd3e505",
            "type": "ADD_SNIPPET",
            "codeSnippet": "frmLocatorKA.show();",
            "parentId": null,
            "callbackType": null
        }]
    }
}