{
    "AS_Button_304c59de1df04a1b90ced754277e6576": {
        "id": "AS_Button_304c59de1df04a1b90ced754277e6576",
        "type": "ACTION_SEQUENCE",
        "params": [{
            "datatype": "collection",
            "name": "eventobject"
        }],
        "contextObj": {
            "name": "frmTransactionDetailsPFMKA",
            "type": "forms",
            "platform": null,
            "KUID": "bc4386f15a294e678087a3a702d996b6"
        },
        "language": "js",
        "actions": [{
            "id": "ADD_SNIPPET_ide_onClick_345cc5e9dfac4385b9a2aaf832bae72e",
            "type": "ADD_SNIPPET",
            "codeSnippet": "\n var INSTANCE = kony.sdk.mvvm.KonyApplicationContext.getAppInstance();\n var controller = INSTANCE.getFormController(\"frmMyMoneyListKA\");\n controller.getFormModel().showView();\n",
            "callbackType": null
        }]
    }
}