{
    "AS_Button_e36a8f2af41e4d5f9a345d1b4399891e": {
        "id": "AS_Button_e36a8f2af41e4d5f9a345d1b4399891e",
        "type": "ACTION_SEQUENCE",
        "params": [{
            "datatype": "collection",
            "name": "eventobject"
        }],
        "language": "js",
        "actions": [{
            "id": "ADD_SNIPPET_ide_onClick_f369cb3b515645c99284dbbb1a6c0150",
            "type": "ADD_SNIPPET",
            "codeSnippet": "frmSettingsKA.show();",
            "callbackType": null
        }]
    }
}