{
    "AS_Button_3dc6f44b77c1439eb7f17c723db7c2ae": {
        "id": "AS_Button_3dc6f44b77c1439eb7f17c723db7c2ae",
        "type": "ACTION_SEQUENCE",
        "params": [{
            "datatype": "collection",
            "name": "eventobject"
        }],
        "language": "js",
        "actions": [{
            "id": "ADD_SNIPPET_ide_onClick_76b2af14b02e44c79a63b07e24f60b0b",
            "type": "ADD_SNIPPET",
            "codeSnippet": "//newTransferFrequencyEdit();\nonRecurrenceCardSelectionEdit();",
            "callbackType": null
        }]
    }
}