{
    "AS_Button_57e4315b167841d8b52f8f1cb99e96b2": {
        "id": "AS_Button_57e4315b167841d8b52f8f1cb99e96b2",
        "type": "ACTION_SEQUENCE",
        "params": [{
            "datatype": "collection",
            "name": "eventobject"
        }],
        "language": "js",
        "actions": [{
            "id": "ADD_SNIPPET_ide_onClick_fa5164dc411b4802bfb1c6f437ad4971",
            "type": "ADD_SNIPPET",
            "codeSnippet": "setAccountPreviewAndroid();",
            "callbackType": null
        }]
    }
}