{
    "AS_Button_cf49b16886a94c7abb9e1993a30d3e4e": {
        "id": "AS_Button_cf49b16886a94c7abb9e1993a30d3e4e",
        "type": "ACTION_SEQUENCE",
        "params": [{
            "datatype": "collection",
            "name": "eventobject"
        }],
        "language": "js",
        "actions": [{
            "id": "SHOW_ALERT_ide_onClick_c1c9f62f2b084c1a86a07c26921c711d",
            "type": "SHOW_ALERT",
            "alertType": "constants.ALERT_TYPE_CONFIRMATION",
            "alertTitle": "Confirm Sign Out",
            "yesLabel": "Sign Out",
            "noLabel": "Cancel",
            "alertMessage": "Are you sure you want to sign out?",
            "messageType": "constant",
            "callbackType": null,
            "alertTitlei18n": "i18n.common.confirmSignOut",
            "yesLabeli18n": "i18n.common.signOut",
            "noLabeli18n": "i18n.common.cancel",
            "alertMessagei18n": "i18n.common.signOutAlert",
            "iconPosition": "constants.ALERT_ICON_POSITION_LEFT"
        }, {
            "id": "ADD_SNIPPET_ide_onClick_h88df38b17d54fd1821171a702232e3a",
            "type": "ADD_SNIPPET",
            "codeSnippet": "kony.sdk.mvvm.LogoutAction();",
            "parentId": "SHOW_ALERT_ide_onClick_c1c9f62f2b084c1a86a07c26921c711d",
            "callbackType": "True"
        }]
    }
}