{
    "AS_Button_gcbe059d2ba54eba994daf4645c737b9": {
        "id": "AS_Button_gcbe059d2ba54eba994daf4645c737b9",
        "type": "ACTION_SEQUENCE",
        "params": [{
            "datatype": "collection",
            "name": "eventobject"
        }],
        "contextObj": {
            "name": "frmAccountDetailKA",
            "type": "forms",
            "platform": "",
            "KUID": "5ed703cad63c441882fc4a36f5ea0c28"
        },
        "language": "js",
        "actions": [{
            "id": "ADD_SNIPPET__b7159ec878a74eff81c0cb4f40aa19c8",
            "type": "ADD_SNIPPET",
            "codeSnippet": "kony.print(\"sad\");",
            "parentId": null,
            "callbackType": null
        }]
    }
}