{
    "AS_Button_d4425b3e3ba642e3bb88c950c5cab78f": {
        "id": "AS_Button_d4425b3e3ba642e3bb88c950c5cab78f",
        "type": "ACTION_SEQUENCE",
        "params": [{
            "datatype": "collection",
            "name": "eventobject"
        }],
        "language": "js",
        "actions": [{
            "id": "ADD_SNIPPET_ide_onClick_j980e2df22e14b27b18dbeef7b57f8b8",
            "type": "ADD_SNIPPET",
            "codeSnippet": "kony.store.setItem(\"denoFlag\",{});\nfrmNewBillKA.btnPrePaid.skin = \"slButtonWhiteTabDisabled\";\nfrmNewBillKA.btnPostPaid.skin = \"slButtonWhiteTab\";\ngblQuickFlow = \"post\";\nonClickPostPaidQuickPay();\nkony.boj.BillerResetFlag = true;\nkony.boj.selectedBillerType = \"PostPaid\";\nclearNewBillScreen();\nfrmNewBillKA.show();",
            "callbackType": null
        }]
    }
}