{
    "AS_Button_f2ccad04a5a34bb08ea7f457ffb82204": {
        "id": "AS_Button_f2ccad04a5a34bb08ea7f457ffb82204",
        "type": "ACTION_SEQUENCE",
        "params": [{
            "datatype": "collection",
            "name": "eventobject"
        }],
        "language": "js",
        "actions": [{
            "id": "ADD_SNIPPET_ide_onClick_dedf8f1e2bc94bb99fbd4bb0b320f67f",
            "type": "ADD_SNIPPET",
            "codeSnippet": "check(9);",
            "callbackType": null
        }]
    }
}