{
    "AS_Button_ccf3b2d1014945ceb0106c5bb562846f": {
        "id": "AS_Button_ccf3b2d1014945ceb0106c5bb562846f",
        "type": "ACTION_SEQUENCE",
        "params": [{
            "datatype": "collection",
            "name": "eventobject"
        }],
        "language": "js",
        "actions": [{
            "id": "ADD_SNIPPET_ide_onClick_d5f78b8e330240c5a1fd93258aed75b8",
            "type": "ADD_SNIPPET",
            "codeSnippet": "collapseMore();",
            "callbackType": null
        }]
    }
}