{
    "AS_Button_2c28c442bdba4e068c9ca8443e9b0b22": {
        "id": "AS_Button_2c28c442bdba4e068c9ca8443e9b0b22",
        "type": "ACTION_SEQUENCE",
        "params": [{
            "datatype": "collection",
            "name": "eventobject"
        }],
        "actions": [{
            "id": "NAVIGATE_TO_FORM__ide_onClick_e1c69667437b4d89a0ecf64ee0d7cc92",
            "type": "NAVIGATE_TO_FORM",
            "formId": "frmAccountsLandingKA",
            "formKUID": "d62a2a0906c64d2281addc95893a6544",
            "mappings": {},
            "mappingsOrder": [],
            "parentId": "",
            "callbackType": null,
            "enableMappingEditor": true
        }]
    }
}