{
    "AS_Button_ic41a5aeb39546ccb3943647cdaf66a4": {
        "id": "AS_Button_ic41a5aeb39546ccb3943647cdaf66a4",
        "type": "ACTION_SEQUENCE",
        "params": [{
            "datatype": "collection",
            "name": "eventobject"
        }],
        "language": "js",
        "actions": [{
            "id": "ADD_SNIPPET_ide_onClick_j48de58aad4e4d6185d9dae83dd31ebc",
            "type": "ADD_SNIPPET",
            "codeSnippet": "kony.boj.JomoPaytransferType(inputObj1,flagtransfertype);\n//frmJoMoPay.flxPopupOuter.setVisibility(true);",
            "callbackType": null
        }]
    }
}