{
    "AS_Button_id63e1d3969348a58602aaf52291db1f": {
        "id": "AS_Button_id63e1d3969348a58602aaf52291db1f",
        "type": "ACTION_SEQUENCE",
        "params": [{
            "datatype": "collection",
            "name": "eventobject"
        }],
        "language": "js",
        "actions": [{
            "id": "ADD_SNIPPET_ide_onClick_jf6640dc422b4184a04b43b541b45050",
            "type": "ADD_SNIPPET",
            "codeSnippet": "gotoPage(\"Login\");\nfrmNewUserOnboardVerificationKA.destroy();\nfrmRegisterUser.destroy();\nfrmCongratulations.destroy();\nfrmEnrolluserLandingKA.destroy();",
            "callbackType": null
        }]
    }
}