{
    "AS_Button_090d523b438b4da2ae190d0b439736d4": {
        "id": "AS_Button_090d523b438b4da2ae190d0b439736d4",
        "type": "ACTION_SEQUENCE",
        "params": [{
            "datatype": "collection",
            "name": "eventobject"
        }],
        "language": "js",
        "actions": [{
            "id": "ADD_SNIPPET__4a9a9fa3e0ca43fb8cacd8137fb2d63f",
            "type": "ADD_SNIPPET",
            "codeSnippet": "var previousForm=kony.application.getPreviousForm();\nif(previousForm.id !== \"frmLoginKA\")\n             frmMoreLandingKA.show();\nelse{\n  if(kony.retailBanking.globalData.deviceInfo.isIphone())\n  \t\tremoveSwipe();\n  frmLoginKA.show();\n}",
            "parentId": null,
            "callbackType": null
        }]
    }
}