{
    "AS_Button_b618a4a1a3f74290bcb406ef92919fd9": {
        "id": "AS_Button_b618a4a1a3f74290bcb406ef92919fd9",
        "type": "ACTION_SEQUENCE",
        "params": [{
            "datatype": "collection",
            "name": "eventobject"
        }],
        "contextObj": {
            "name": "frmLanguageChange",
            "type": "forms",
            "platform": "",
            "KUID": "gf87c4f80b864112b53423e6a7ad3af8"
        },
        "language": "js",
        "actions": [{
            "id": "ADD_SNIPPET__g1d95706042b4586a1543e31a8206bb5",
            "type": "ADD_SNIPPET",
            "codeSnippet": "onClickEnglish();",
            "parentId": null,
            "callbackType": null
        }]
    }
}