{
    "AS_Button_7b265671a73b49e8ab6edcc6c7a87b28": {
        "id": "AS_Button_7b265671a73b49e8ab6edcc6c7a87b28",
        "type": "ACTION_SEQUENCE",
        "params": [{
            "datatype": "collection",
            "name": "eventobject"
        }],
        "language": "js",
        "actions": [{
            "id": "ADD_SNIPPET_ide_onClick_9d5f266703684ce8b877958b0872d08e",
            "type": "ADD_SNIPPET",
            "codeSnippet": "newCheckReOrderPreShow();",
            "callbackType": null
        }]
    }
}