{
    "AS_Button_59e60cb6c1c34ce78aeef2841b99e475": {
        "id": "AS_Button_59e60cb6c1c34ce78aeef2841b99e475",
        "type": "ACTION_SEQUENCE",
        "params": [{
            "datatype": "collection",
            "name": "eventobject"
        }],
        "language": "js",
        "actions": [{
            "id": "ADD_SNIPPET_ide_onClick_28dec571f5274e2f8f6bc3f03ff6527a",
            "type": "ADD_SNIPPET",
            "codeSnippet": "var previousForm = kony.application.getPreviousForm().id;\nif(frmRecentDepositKA.lblLine1KA.text == \"frmAccountDetailKA\"){\n   var INSTANCE = kony.sdk.mvvm.KonyApplicationContext.getAppInstance();\n var controller = INSTANCE.getFormController(\"frmAccountDetailKA\");\n controller.getFormModel().showView();\n}else{\nif(previousForm==\"frmAccountDetailKA\"){\n var INSTANCE = kony.sdk.mvvm.KonyApplicationContext.getAppInstance();\n var controller = INSTANCE.getFormController(\"frmAccountDetailKA\");\n controller.getFormModel().showView();\n}else if(previousForm ==\"frmSearchKA\")\n{\n  var INSTANCE = kony.sdk.mvvm.KonyApplicationContext.getAppInstance();\n  var controller = INSTANCE.getFormController(\"frmSearchKA\");\n  controller.getFormModel().showView();\n\n}else if(previousForm==\"frmAccountDetailKA\"){\n  var INSTANCE = kony.sdk.mvvm.KonyApplicationContext.getAppInstance();\n  var controller = INSTANCE.getFormController(\"frmAccountDetailKA\");\n  controller.getFormModel().showView();\n}else{\n  frmDepositPayLandingKA.show();\n}\n}",
            "callbackType": null
        }]
    }
}