{
    "AS_Button_533b47ad202a4a80aadab0a239dc4888": {
        "id": "AS_Button_533b47ad202a4a80aadab0a239dc4888",
        "type": "ACTION_SEQUENCE",
        "params": [{
            "datatype": "collection",
            "name": "eventobject"
        }],
        "language": "js",
        "actions": [{
            "id": "ADD_SNIPPET_ide_onClick_2c979be32b8d41b69be2864623ab2532",
            "type": "ADD_SNIPPET",
            "codeSnippet": "backTOListFormCheckReOrder();",
            "callbackType": null
        }]
    }
}