{
    "AS_Button_g521499a285541ada4001eedbc73929c": {
        "id": "AS_Button_g521499a285541ada4001eedbc73929c",
        "type": "ACTION_SEQUENCE",
        "name": "AS_BbtnProgressfrmrequestStatus",
        "params": [{
            "datatype": "collection",
            "name": "eventobject"
        }],
        "language": "js",
        "actions": [{
            "id": "ADD_SNIPPET_ide_onClick_jc90f02775d94080bfdec0871e3d5296",
            "type": "ADD_SNIPPET",
            "codeSnippet": "kony.print(\"Progress\");",
            "callbackType": null
        }]
    }
}