{
    "AS_Button_cd951c39e80142dc8e104c90b4a56ed1": {
        "id": "AS_Button_cd951c39e80142dc8e104c90b4a56ed1",
        "type": "ACTION_SEQUENCE",
        "params": [{
            "datatype": "collection",
            "name": "eventobject"
        }],
        "contextObj": {
            "name": "frmNewBillDetails",
            "type": "forms",
            "platform": null,
            "KUID": "c2132c3b91ec4677ab952b729de9fc0e"
        },
        "language": "js",
        "actions": [{
            "id": "ADD_SNIPPET_ide_onClick_c343ef9f058a4cb5a62be1038fa2dc04",
            "type": "ADD_SNIPPET",
            "codeSnippet": "var INSTANCE = kony.sdk.mvvm.KonyApplicationContext.getAppInstance();\n        var listController = INSTANCE.getFormController(\"frmAddNewPayeeKA\");\n        var navigationObject = new kony.sdk.mvvm.NavigationObject();\n        var datamodelflxAddressKA = new kony.sdk.mvvm.DataModel();\n        navigationObject.setDataModel(null,kony.sdk.mvvm.OperationType.ADD, \"form\");\n        navigationObject.setRequestOptions(\"form\",{\"headers\":{\"session_token\":kony.retailBanking.globalData.session_token}});\n        \n        listController.performAction(\"navigateTo\",[\"frmAddNewPayeeKA\",navigationObject]);",
            "callbackType": null
        }]
    }
}