{
    "AS_Button_343b0e8f34124882ae914f436d0165fc": {
        "id": "AS_Button_343b0e8f34124882ae914f436d0165fc",
        "type": "ACTION_SEQUENCE",
        "params": [{
            "datatype": "collection",
            "name": "eventobject"
        }],
        "contextObj": {
            "type": "forms",
            "platform": null,
            "KUID": "f6857ccc7dc3462791659bccc5a32b4e"
        },
        "language": "js",
        "actions": [{
            "id": "ADD_SNIPPET__i1e1c2a610794fb3a68c763b2aad21dd",
            "type": "ADD_SNIPPET",
            "codeSnippet": "cancelNewAccountOpening();",
            "parentId": null,
            "callbackType": null
        }]
    }
}