{
    "AS_Button_fb39972cce15426590cd51153ec96ab5": {
        "id": "AS_Button_fb39972cce15426590cd51153ec96ab5",
        "type": "ACTION_SEQUENCE",
        "name": "AS_Button_Locator_back_navigation",
        "params": [{
            "datatype": "collection",
            "name": "eventobject"
        }],
        "contextObj": {
            "name": "frmLocatorKA",
            "type": "forms",
            "platform": "",
            "KUID": "c471585baa904bb49278190a4437d425"
        },
        "language": "js",
        "actions": [{
            "id": "ADD_SNIPPET__aa09cd2170bc45a8b71399b2d6523431",
            "type": "ADD_SNIPPET",
            "codeSnippet": "kony.print(\"Deleted\");",
            "parentId": null,
            "callbackType": null
        }]
    }
}