{
    "AS_Button_76167cfe2b944c2fb37a7dc478960f6f": {
        "id": "AS_Button_76167cfe2b944c2fb37a7dc478960f6f",
        "type": "ACTION_SEQUENCE",
        "params": [{
            "datatype": "collection",
            "name": "eventobject"
        }],
        "contextObj": {
            "name": "frmDeviceRegisterationIncorrectPinActicvationKA",
            "type": "forms",
            "platform": null,
            "KUID": "528c2066077141738a6187ecddb68366"
        },
        "language": "js",
        "actions": [{
            "id": "ADD_SNIPPET__3e170fcfd37b4d159582bcc44879c024",
            "type": "ADD_SNIPPET",
            "codeSnippet": "var devregID = deviceid;\nupdateDeviceReg(devregID);",
            "parentId": null,
            "callbackType": null
        }]
    }
}