{
    "AS_Button_d6aa1e9ba8994aaab4dd5a1533d811d3": {
        "id": "AS_Button_d6aa1e9ba8994aaab4dd5a1533d811d3",
        "type": "ACTION_SEQUENCE",
        "params": [{
            "datatype": "collection",
            "name": "eventobject"
        }],
        "language": "js",
        "actions": [{
            "id": "ADD_SNIPPET_ide_onClick_bac5b759813b4679ae22b3b2f9af33cb",
            "type": "ADD_SNIPPET",
            "codeSnippet": "closeInFeedAds();",
            "callbackType": null
        }]
    }
}