{
    "AS_Button_gf0e4bb5d73f4e219a7e3db07a6ed96a": {
        "id": "AS_Button_gf0e4bb5d73f4e219a7e3db07a6ed96a",
        "type": "ACTION_SEQUENCE",
        "params": [{
            "datatype": "collection",
            "name": "eventobject"
        }],
        "language": "js",
        "actions": [{
            "id": "ADD_SNIPPET_ide_onClick_a63f2d6741724e2c83e0b5707f6f0f49",
            "type": "ADD_SNIPPET",
            "codeSnippet": "frmMore.show();",
            "callbackType": null
        }]
    }
}