{
    "AS_Button_8a7939b2cdbd4c65a66a4f69f4379e58": {
        "id": "AS_Button_8a7939b2cdbd4c65a66a4f69f4379e58",
        "type": "ACTION_SEQUENCE",
        "params": [{
            "datatype": "collection",
            "name": "eventobject"
        }],
        "language": "js",
        "actions": [{
            "id": "ADD_SNIPPET__a1928ce4982c41938490d5f6e96cbdcb",
            "type": "ADD_SNIPPET",
            "codeSnippet": "contactUsPreshow();",
            "parentId": null,
            "callbackType": null
        }]
    }
}