{
    "AS_Button_gf036345a4ca4b0e975f97f7e5285aa3": {
        "id": "AS_Button_gf036345a4ca4b0e975f97f7e5285aa3",
        "type": "ACTION_SEQUENCE",
        "params": [{
            "datatype": "collection",
            "name": "eventobject"
        }],
        "language": "js",
        "actions": [{
            "id": "ADD_SNIPPET_ide_onClick_e9487dc3379e49b7b20f66cfd8cd7a8a",
            "type": "ADD_SNIPPET",
            "codeSnippet": "getDeviceRegStatus();",
            "callbackType": null
        }]
    }
}