{
    "AS_Button_c45596530c304e2680fc8218b8c16c11": {
        "id": "AS_Button_c45596530c304e2680fc8218b8c16c11",
        "type": "ACTION_SEQUENCE",
        "params": [{
            "datatype": "collection",
            "name": "eventobject"
        }],
        "language": "js",
        "actions": [{
            "id": "ADD_SNIPPET_ide_onClick_gc757e3f93a3437e8698d0dbad0c7511",
            "type": "ADD_SNIPPET",
            "codeSnippet": "  frmAddNewPayeeKA.btnPostPaid.skin = \"slButtonWhiteTabDisabled\";\n  frmAddNewPayeeKA.btnPrePaid.skin = \"slButtonWhiteTab\";\n\n  kony.boj.selectedBillerType = \"PrePaid\";\n  //kony.boj.restoreBillerTabDetails();\n  //kony.boj.restoreTextboxAddBiller();",
            "callbackType": null
        }]
    }
}