{
    "AS_Button_fbf77ead82324663a372503950b3a12f": {
        "id": "AS_Button_fbf77ead82324663a372503950b3a12f",
        "type": "ACTION_SEQUENCE",
        "params": [{
            "datatype": "collection",
            "name": "eventobject"
        }],
        "contextObj": {
            "type": "forms",
            "platform": "",
            "KUID": "ac09c32a534449b3b0961f8e48e26015"
        },
        "language": "js",
        "actions": [{
            "id": "ADD_SNIPPET__5e646f85a256407f8f677c8105c93396",
            "type": "ADD_SNIPPET",
            "codeSnippet": "clickSpecifyRange();",
            "parentId": null,
            "callbackType": null
        }]
    }
}