{
    "AS_Button_f55fc4f01ca140e6ab143aad8f9bce54": {
        "id": "AS_Button_f55fc4f01ca140e6ab143aad8f9bce54",
        "type": "ACTION_SEQUENCE",
        "params": [{
            "datatype": "collection",
            "name": "eventobject"
        }],
        "language": "js",
        "actions": [{
            "id": "ADD_SNIPPET_ide_onClick_c387e0b2919d4f9a8115f5c890b6a690",
            "type": "ADD_SNIPPET",
            "codeSnippet": "check(2);",
            "callbackType": null
        }]
    }
}