{
    "AS_Button_9f900e68f39f465b8c3ff382e06ddd46": {
        "id": "AS_Button_9f900e68f39f465b8c3ff382e06ddd46",
        "type": "ACTION_SEQUENCE",
        "params": [{
            "datatype": "collection",
            "name": "eventobject"
        }],
        "language": "js",
        "actions": [{
            "id": "ADD_SNIPPET__c80ad438edc24428ac077c86482e8885",
            "type": "ADD_SNIPPET",
            "codeSnippet": "updateTnCdepositsflag();\n\n",
            "parentId": null,
            "callbackType": null
        }]
    }
}