{
    "AS_Button_b368984ee2394998848803c6f8edfb2f": {
        "id": "AS_Button_b368984ee2394998848803c6f8edfb2f",
        "type": "ACTION_SEQUENCE",
        "params": [{
            "datatype": "collection",
            "name": "eventobject"
        }],
        "language": "js",
        "actions": [{
            "id": "SHOW_ALERT_ide_onClick_a49d9d32bbc7434694f3f9a325b3c670",
            "type": "SHOW_ALERT",
            "alertType": "constants.ALERT_TYPE_CONFIRMATION",
            "alertTitle": "Confirm Sign Out",
            "yesLabel": "Sign Out",
            "noLabel": "Cancel",
            "alertMessage": "Are you sure you want to sign out?",
            "messageType": "constant",
            "alertTitlei18n": "i18n.common.confirmSignOut",
            "yesLabeli18n": "i18n.common.signOut",
            "noLabeli18n": "i18n.common.cancel",
            "alertMessagei18n": "i18n.common.signOutAlert",
            "iconPosition": "constants.ALERT_ICON_POSITION_LEFT"
        }, {
            "id": "ADD_SNIPPET_ide_onClick_h9c0686a90004a45b0a506bbe744809a",
            "type": "ADD_SNIPPET",
            "codeSnippet": "frmAccountsLandingKA.flxAccntLandingNavOptKA.isVisible=false;\nkony.sdk.mvvm.LogoutAction();",
            "parentId": "SHOW_ALERT_ide_onClick_a49d9d32bbc7434694f3f9a325b3c670",
            "callbackType": "True"
        }]
    }
}