{
    "AS_Button_d71e185c3d9c44e8bb8653a3093c21a8": {
        "id": "AS_Button_d71e185c3d9c44e8bb8653a3093c21a8",
        "type": "ACTION_SEQUENCE",
        "name": "AS_Button_OnClickGetAliasesIPS",
        "params": [{
            "datatype": "collection",
            "name": "eventobject"
        }],
        "contextObj": {
            "name": "frmIPSManageBene",
            "type": "forms",
            "platform": "",
            "KUID": "d198f3888a0d4e49b2778593248a3f42"
        },
        "language": "js",
        "actions": [{
            "id": "ADD_SNIPPET__ib431402a06d42e58143fcaa908660f1",
            "type": "ADD_SNIPPET",
            "codeSnippet": "gblTModule=\"getAlias\";\nserv_IPS_REGISTRATION_STATUS();",
            "parentId": null,
            "callbackType": null
        }]
    }
}