{
    "AS_Button_fd659751407c4d6884f57ac2693fc98e": {
        "id": "AS_Button_fd659751407c4d6884f57ac2693fc98e",
        "type": "ACTION_SEQUENCE",
        "params": [{
            "datatype": "collection",
            "name": "eventobject"
        }],
        "contextObj": {
            "name": "frmConfirmPrePayBill",
            "type": "forms",
            "platform": null,
            "KUID": "a75e220839ea44a2b0654e6eee22b206"
        },
        "language": "js",
        "actions": [{
            "id": "ADD_SNIPPET_ide_onClick_c1727b609aaf4e1881672d775c17382a",
            "type": "ADD_SNIPPET",
            "codeSnippet": "ShowLoadingScreen();\ngblToOTPFrom = \"ConfirmPayBill\";\n//callRequestOTP();\nif(frmConfirmPrePayBill.flxTotalAmount.isVisible === true){\n  var amnt = frmConfirmPrePayBill.lblTotalAmount.text;\n  amnt = amnt.substring(0, amnt.length-4);\n  if(parseFloat(kony.store.getItem(\"BillPayfromAcc\").availableBalance) >= parseFloat(amnt)){\n      performBillPayPrePaid();\n  }else{\n      customAlertPopup(geti18Value(\"i18n.maps.Info\"), geti18Value(\"i18n.error.InsufficientFundInAccount\"), popupCommonAlertDimiss, \"\");\n  }\n}else{\n\tperformBillPayPrePaid();\n}",
            "callbackType": null
        }]
    }
}