{
    "AS_Button_7cf2c6e5c1bf4799a24cd06ca15ab3d8": {
        "id": "AS_Button_7cf2c6e5c1bf4799a24cd06ca15ab3d8",
        "type": "ACTION_SEQUENCE",
        "params": [{
            "datatype": "collection",
            "name": "eventobject"
        }],
        "language": "js",
        "actions": [{
            "id": "ADD_SNIPPET_ide_onClick_58f967ad3ca94229bb0441affd0abb25",
            "type": "ADD_SNIPPET",
            "codeSnippet": "hideDateRange();",
            "callbackType": null
        }]
    }
}