{
    "AS_Button_b22780a80ee9408e802dec5d01c6c93e": {
        "id": "AS_Button_b22780a80ee9408e802dec5d01c6c93e",
        "type": "ACTION_SEQUENCE",
        "params": [{
            "datatype": "collection",
            "name": "eventobject"
        }],
        "contextObj": {
            "name": "frmConfirmCashWithDraw",
            "type": "forms",
            "platform": "",
            "KUID": "b2e7c11eabab44839d19ed317b9260fc"
        },
        "language": "js",
        "actions": [{
            "id": "ADD_SNIPPET__c9ee431f640e456ba3a808e89a3e70bd",
            "type": "ADD_SNIPPET",
            "codeSnippet": "kony.print(\"Removed\");",
            "parentId": null,
            "callbackType": null
        }]
    }
}