{
    "AS_Button_h7c3386af28c4efd963b32bb1a62eb52": {
        "id": "AS_Button_h7c3386af28c4efd963b32bb1a62eb52",
        "type": "ACTION_SEQUENCE",
        "params": [{
            "datatype": "collection",
            "name": "eventobject"
        }],
        "contextObj": {
            "name": "frmAccountDetailKA",
            "type": "forms",
            "platform": "",
            "KUID": "5ed703cad63c441882fc4a36f5ea0c28"
        },
        "language": "js",
        "actions": [{
            "id": "ADD_SNIPPET__b820ecd7bdd94b819917ad4c16f9a879",
            "type": "ADD_SNIPPET",
            "codeSnippet": "kony.print(\"asd\");",
            "parentId": null,
            "callbackType": null
        }]
    }
}