{
    "AS_Button_bfe301b29c544cce9e985dab4e5eeb23": {
        "id": "AS_Button_bfe301b29c544cce9e985dab4e5eeb23",
        "type": "ACTION_SEQUENCE",
        "params": [{
            "datatype": "collection",
            "name": "eventobject"
        }],
        "language": "js",
        "actions": [{
            "id": "ADD_SNIPPET_ide_onClick_703de0469d804f48bdda0662f196456a",
            "type": "ADD_SNIPPET",
            "codeSnippet": "// scheduledBillpayEdit();\nkony.print(\"Code Clean up\");",
            "callbackType": null
        }]
    }
}