{
    "AS_Button_d3779d38976945d0afcc6332ffffd6e3": {
        "id": "AS_Button_d3779d38976945d0afcc6332ffffd6e3",
        "type": "ACTION_SEQUENCE",
        "params": [{
            "datatype": "collection",
            "name": "eventobject"
        }],
        "contextObj": {
            "name": "frmAccountDetailKA",
            "type": "forms",
            "platform": "",
            "KUID": "5ed703cad63c441882fc4a36f5ea0c28"
        },
        "language": "js",
        "actions": [{
            "id": "ADD_SNIPPET__c73f81865d7a4770b79fbddc942fc73c",
            "type": "ADD_SNIPPET",
            "codeSnippet": "navOptTransfer(5);",
            "parentId": null,
            "callbackType": null
        }]
    }
}