{
    "AS_Button_c1d333cfd6444b358710b377d43ace2a": {
        "id": "AS_Button_c1d333cfd6444b358710b377d43ace2a",
        "type": "ACTION_SEQUENCE",
        "params": [{
            "datatype": "collection",
            "name": "eventobject"
        }],
        "contextObj": {
            "name": "frmDirectionsKA",
            "type": "forms",
            "platform": null,
            "KUID": "2a844aaae75b49948039c6e28c65dfcc"
        },
        "language": "js",
        "actions": [{
            "id": "ADD_SNIPPET_ide_onClick_b4040a05c1ca4ee296cf877a75f41eb6",
            "type": "ADD_SNIPPET",
            "codeSnippet": "userEnteredLocationTerm();",
            "callbackType": null
        }]
    }
}