{
    "AS_Button_51c94f418c5c4b889e33aacf7ca712a2": {
        "id": "AS_Button_51c94f418c5c4b889e33aacf7ca712a2",
        "type": "ACTION_SEQUENCE",
        "params": [{
            "datatype": "collection",
            "name": "eventobject"
        }],
        "language": "js",
        "actions": [{
            "id": "ADD_SNIPPET_ide_onClick_be55de66e0a943728a8702f779d6a10d",
            "type": "ADD_SNIPPET",
            "codeSnippet": "frmNewBillKA.tolblAccountNumberKA.text = \"\";\nsetContainerState(frmNewBillKA,\"to\",\"ANIMATION_EXPAND\", toCardHeightPayBill);\n",
            "callbackType": null
        }]
    }
}