{
    "AS_Button_4d6a1510e635483f9b79d627343becf3": {
        "id": "AS_Button_4d6a1510e635483f9b79d627343becf3",
        "type": "ACTION_SEQUENCE",
        "params": [{
            "datatype": "collection",
            "name": "eventobject"
        }],
        "contextObj": {
            "name": "frmRecentTransactionDetailsKA",
            "type": "forms",
            "platform": "",
            "KUID": "3e75bf63a2d4443486447188bb14c36b"
        },
        "language": "js",
        "actions": [{
            "id": "ADD_SNIPPET__8929460a0b59476cbf78ebb104f5746c",
            "type": "ADD_SNIPPET",
            "codeSnippet": "ButtonClickInRecentTransaction();",
            "parentId": null,
            "callbackType": null
        }]
    }
}