{
    "AS_Button_ad209bcab4cb48f7acf4c7f14c7d8202": {
        "id": "AS_Button_ad209bcab4cb48f7acf4c7f14c7d8202",
        "type": "ACTION_SEQUENCE",
        "params": [{
            "datatype": "collection",
            "name": "eventobject"
        }],
        "contextObj": {
            "name": "frmLoginKA",
            "type": "forms",
            "platform": "",
            "KUID": "7b1aa8fceb6b4070833e9eab879b0e5e"
        },
        "language": "js",
        "actions": [{
            "id": "ADD_SNIPPET__b2f0be98d9b547269d41d906f7f9c870",
            "type": "ADD_SNIPPET",
            "codeSnippet": "startOnboardingActivity();",
            "parentId": null,
            "callbackType": null
        }]
    }
}