{
    "AS_Button_a90fce43e0f2490797f7cbc8e6b2378e": {
        "id": "AS_Button_a90fce43e0f2490797f7cbc8e6b2378e",
        "type": "ACTION_SEQUENCE",
        "params": [{
            "datatype": "collection",
            "name": "eventobject"
        }],
        "language": "js",
        "actions": [{
            "id": "ADD_SNIPPET_ide_onClick_i253ca92c72243e98a6f2bd181f2d8f7",
            "type": "ADD_SNIPPET",
            "codeSnippet": "kony.boj.displayParameter(\"DOM\");\nkony.boj.restoreDetails();\n// kony.boj.addBeneNextStatus();",
            "callbackType": null
        }]
    }
}