{
    "AS_Calendar_df8365c63127411da6ce6b47d86463eb": {
        "id": "AS_Calendar_df8365c63127411da6ce6b47d86463eb",
        "type": "ACTION_SEQUENCE",
        "params": [{
            "datatype": "collection",
            "name": "eventobject"
        }, {
            "datatype": "boolean",
            "name": "isValidDateSelected"
        }],
        "language": "js",
        "actions": [{
            "id": "ADD_SNIPPET_ide_onSelection_b10611b63e144fffa64381ab26d55f1d",
            "type": "ADD_SNIPPET",
            "codeSnippet": "onRecurrenceDateRangeSelection();",
            "callbackType": null
        }]
    }
}