{
    "AS_TextField_f958340f0288419582fe0ba29281bd4b": {
        "id": "AS_TextField_f958340f0288419582fe0ba29281bd4b",
        "type": "ACTION_SEQUENCE",
        "name": "AS_ConfirmPasswordOnTextChange",
        "params": [{
            "datatype": "collection",
            "name": "eventobject"
        }, {
            "datatype": "string",
            "name": "changedtext"
        }],
        "contextObj": {
            "name": "frmEnrolluserLandingKA",
            "type": "forms",
            "platform": "",
            "KUID": "de724966138b4e7c9bfdd35033a0bdb3"
        },
        "language": "js",
        "actions": [{
            "id": "ADD_SNIPPET__i90493ec9d57401fa87e9131096272fc",
            "type": "ADD_SNIPPET",
            "codeSnippet": "if(kony.retailBanking.util.validation.isValidPassword(frmEnrolluserLandingKA.tbxPasswordKA.text) && validateConfirmPassword(frmEnrolluserLandingKA.tbxPasswordKA.text, frmEnrolluserLandingKA.tbxConfrmPwdKA.text)){\n  frmEnrolluserLandingKA.flxUnderlineConfirmPassword.skin = \"sknFlxGreenLine\";\n  confrmPasswordFlag = true;\n}\nelse{\n  frmEnrolluserLandingKA.flxUnderlineConfirmPassword.skin = \"sknFlxOrangeLine\";\n  confrmPasswordFlag = false;\n}\nfrmEnrolluserLandingKA.flxUsernameValidation.isVisible = false;\nfrmEnrolluserLandingKA.flxPasswordValidation.isVisible = false;\nif(usernameFlag === true && passwordFlag === true && confrmPasswordFlag === true){\n  frmEnrolluserLandingKA.lblNext.skin = \"sknLblNextEnabled\";\n  frmEnrolluserLandingKA.flxProgress1.left = \"80%\";\n}\nelse{\n  frmEnrolluserLandingKA.lblNext.skin = \"sknLblNextDisabled\";\n  frmEnrolluserLandingKA.flxProgress1.left = \"65%\";\n}\n\nisClearButtonVisible(frmEnrolluserLandingKA.tbxConfrmPwdKA,frmEnrolluserLandingKA.CopylblClose0dcca487a6bc243);\nset_SHOW_BUTTON_VISIBILITY(frmEnrolluserLandingKA.tbxConfrmPwdKA, frmEnrolluserLandingKA.lblShowConfirmPassword);",
            "parentId": null,
            "callbackType": null
        }]
    }
}