{
    "AS_Calendar_d780c47911ec49808afed14fede81fdf": {
        "id": "AS_Calendar_d780c47911ec49808afed14fede81fdf",
        "type": "ACTION_SEQUENCE",
        "name": "AS_Calendar_onSelectionFromDate",
        "params": [{
            "datatype": "collection",
            "name": "eventobject"
        }, {
            "datatype": "boolean",
            "name": "isValidDateSelected"
        }],
        "contextObj": {
            "name": "frmNewTransferKA",
            "type": "forms",
            "platform": "",
            "KUID": "2ac343500306428da0ceef91a3b44d18"
        },
        "language": "js",
        "actions": [{
            "id": "ADD_SNIPPET__d06b8a753e4e401fb9b3340bd91b7c52",
            "type": "ADD_SNIPPET",
            "codeSnippet": "var currDate = frmNewTransferKA.calFrom.day;\nvar currMonth = frmNewTransferKA.calFrom.month;\nvar currYear = frmNewTransferKA.calFrom.year;\nif(validateSelectedDay()){ \nfrmNewTransferKA.calTo.date = ([currDate+1, currMonth, currYear]);\nfrmNewTransferKA.calTo.validStartDate = ([currDate+1, currMonth, currYear]);\nonTextChangeRecurrence();\nrecurrence_DATE_SELECTION();\n}\n\n\n",
            "parentId": null,
            "callbackType": null
        }]
    }
}