{
    "AS_CheckBoxGroup_88b23642d7694d77b7c3dafc479da986": {
        "id": "AS_CheckBoxGroup_88b23642d7694d77b7c3dafc479da986",
        "type": "ACTION_SEQUENCE",
        "params": [{
            "datatype": "collection",
            "name": "eventobject"
        }],
        "language": "js",
        "actions": [{
            "id": "ADD_SNIPPET_ide_onSelection_0dfa807834344133a75dbc2af1e83770",
            "type": "ADD_SNIPPET",
            "codeSnippet": "selectAmountRange();",
            "callbackType": null
        }]
    }
}