{
    "AS_FlexContainer_a90c5c5c406f4d4a97c242e3a023573a": {
        "id": "AS_FlexContainer_a90c5c5c406f4d4a97c242e3a023573a",
        "type": "ACTION_SEQUENCE",
        "name": "AS_clickBackofCommonFrmAccountTpeForm",
        "params": [{
            "datatype": "collection",
            "name": "eventobject"
        }],
        "language": "js",
        "actions": [{
            "id": "ADD_SNIPPET_ide_onClick_b566e56841904002bc536b57d0ea2f3c",
            "type": "ADD_SNIPPET",
            "codeSnippet": "backToOrignalFormFromFrmAccountType();",
            "callbackType": null
        }]
    }
}