{
    "AS_Form_c7d6aa2d6f674f0480a995727864ecd4": {
        "id": "AS_Form_c7d6aa2d6f674f0480a995727864ecd4",
        "type": "ACTION_SEQUENCE",
        "name": "AS_deviceRegistrationPreshow",
        "params": [{
            "datatype": "collection",
            "name": "eventobject"
        }],
        "contextObj": {
            "name": "frmDeviceRegistration",
            "type": "forms",
            "platform": "",
            "KUID": "d3f5bb6d97f641aa9040a4a3bbbb5f11"
        },
        "language": "js",
        "actions": [{
            "id": "ADD_SNIPPET__a03057c9dd644f3cbbcd720582e7d96c",
            "type": "ADD_SNIPPET",
            "codeSnippet": "",
            "parentId": null,
            "callbackType": null
        }]
    }
}