{
    "AS_Button_i26aba8b03004750a941af8bd92fc7d0": {
        "id": "AS_Button_i26aba8b03004750a941af8bd92fc7d0",
        "type": "ACTION_SEQUENCE",
        "name": "AS_ExchangeRatesMoreClick",
        "params": [{
            "datatype": "collection",
            "name": "eventobject"
        }],
        "language": "js",
        "actions": [{
            "id": "ADD_SNIPPET_ide_onClick_h5fe2861e2814fd59cf4daa5d17203b7",
            "type": "ADD_SNIPPET",
            "codeSnippet": "setgblcurrencyfullCountryListt();\nnavigateToExchangeRates();",
            "callbackType": null
        }]
    }
}