{
    "AS_FlexContainer_a99389e300f14aef8383d18d86db1e56": {
        "id": "AS_FlexContainer_a99389e300f14aef8383d18d86db1e56",
        "type": "ACTION_SEQUENCE",
        "params": [{
            "datatype": "collection",
            "name": "eventobject"
        }],
        "language": "js",
        "actions": [{
            "id": "ADD_SNIPPET_ide_onClick_bffe993dedcc4c0d812b41b60bcb7c04",
            "type": "ADD_SNIPPET",
            "codeSnippet": "kony.print(\"Removed\");",
            "callbackType": null
        }]
    }
}