{
    "AS_FlexContainer_d40983889904497cbc865c697e5fb6d5": {
        "id": "AS_FlexContainer_d40983889904497cbc865c697e5fb6d5",
        "type": "ACTION_SEQUENCE",
        "params": [{
            "datatype": "collection",
            "name": "eventobject"
        }],
        "language": "js",
        "actions": [{
            "id": "ADD_SNIPPET_ide_onClick_cb299db13b8b4fc9a0215ad703f273c2",
            "type": "ADD_SNIPPET",
            "codeSnippet": "if(kony.newCARD.applyCardsOption === true){\n\tfrmApplyNewCardsKA.show();\n}else{\nif(gblsubaccBranchList){\n  frmOrderCheckBook.show();\n }else if(gblrequestStatementBranch){\n  frmRequestStatementAccounts.show();\n }else if(gblRequestNewPinBranchList){\n  frmRequestPinCard.show();\n }/*else if(gblopenTermDepositeMI){// hassan open term deposite\n  frmOpenTermDeposit.show();\n }*/else if(gblWorkflowType === \"IPS\"){\n  frmEPS.show();\n }else{\nfrmAddExternalAccountKA.show();\nkony.boj.addBeneNextStatus();\n}\n}\n",
            "callbackType": null
        }]
    }
}