{
    "AS_FlexContainer_4ff06433802a4881a3de3e9c11b2d92e": {
        "id": "AS_FlexContainer_4ff06433802a4881a3de3e9c11b2d92e",
        "type": "ACTION_SEQUENCE",
        "params": [{
            "datatype": "collection",
            "name": "eventobject"
        }],
        "language": "js",
        "actions": [{
            "id": "ADD_SNIPPET_ide_onClick_e6e249bf26354d3f9210bbc7fdd82401",
            "type": "ADD_SNIPPET",
            "codeSnippet": "updateDealsAlertStatus(\"dealExpiring\");",
            "callbackType": null
        }]
    }
}