{
    "AS_FlexContainer_db6c48b0e1c5490cbbb20d6661b9c872": {
        "id": "AS_FlexContainer_db6c48b0e1c5490cbbb20d6661b9c872",
        "type": "ACTION_SEQUENCE",
        "params": [{
            "datatype": "collection",
            "name": "eventobject"
        }],
        "language": "js",
        "actions": [{
            "id": "ADD_SNIPPET_ide_onClick_b9dd82c400814a66b77b2fcc1c5bfa92",
            "type": "ADD_SNIPPET",
            "codeSnippet": "customAlertPopup(geti18Value(\"i18n.cards.Confirmation\"), \n                 geti18Value(\"i18n.transfers.eraseAllAlert\"),\n                 userResponseESP, onClickNoBackESP, \n                 geti18Value(\"i18n.common.YES\"),\n                 geti18Value(\"i18n.common.NO\"));\n\nfunction userResponseESP(){\n//   removeDatafrmTransfersformEPS();\n  ResetFormIPSData();\n  popupCommonAlertDimiss();\n  frmPaymentDashboard.show();\n  \n}\nfunction onClickNoBackESP(){\n  popupCommonAlertDimiss();\n}",
            "callbackType": null
        }]
    }
}