{
    "AS_FlexContainer_dab8583294f6432a877820289fdfa6d6": {
        "id": "AS_FlexContainer_dab8583294f6432a877820289fdfa6d6",
        "type": "ACTION_SEQUENCE",
        "params": [{
            "datatype": "collection",
            "name": "eventobject"
        }],
        "contextObj": {
            "type": "forms",
            "platform": "",
            "KUID": "e1a74e2010674478ae32526db3e182de"
        },
        "language": "js",
        "actions": [{
            "id": "ADD_SNIPPET__cecbfbc0311a42a8bd6d120a9b83c8fa",
            "type": "ADD_SNIPPET",
            "codeSnippet": "if(frmSelectProductKA.imgCollapsed2.src==\"collapsed.png\")\n  {\n    frmSelectProductKA.imgCollapsed2.src=\"expanded.png\";\n    frmSelectProductKA.segSavingsAccount.isVisible=true;\n  }\nelse\n  {\n    frmSelectProductKA.imgCollapsed2.src=\"collapsed.png\";\n    frmSelectProductKA.segSavingsAccount.isVisible=false;\n  }",
            "parentId": null,
            "callbackType": null
        }]
    }
}