{
    "AS_Form_5ca0bc6e1f7e4a8fa23ae88bb99255c6": {
        "id": "AS_Form_5ca0bc6e1f7e4a8fa23ae88bb99255c6",
        "type": "ACTION_SEQUENCE",
        "params": [{
            "datatype": "collection",
            "name": "eventobject"
        }],
        "contextObj": {
            "name": "frmConfirmationUserNameKA",
            "type": "forms",
            "platform": null,
            "KUID": "baeeff7263b1424fba99f4e7917cee30"
        },
        "language": "js",
        "actions": [{
            "id": "ADD_SNIPPET_ide_onHide_6b9f49828a0346e49e6f8e35e41d301e",
            "type": "ADD_SNIPPET",
            "codeSnippet": "kony.print(\"Removed\");",
            "callbackType": null
        }]
    }
}