{
    "AS_Form_j2ac951601904b16813a12e79ec1db74": {
        "id": "AS_Form_j2ac951601904b16813a12e79ec1db74",
        "type": "ACTION_SEQUENCE",
        "name": "AS_Form_LocatorPreshow",
        "params": [{
            "datatype": "collection",
            "name": "eventobject"
        }],
        "contextObj": {
            "name": "frmLocatorKA",
            "type": "forms",
            "platform": "",
            "KUID": "c471585baa904bb49278190a4437d425"
        },
        "language": "js",
        "actions": [{
            "id": "ADD_SNIPPET__ic60d8b19f0b4227980f50cb5d32f791",
            "type": "ADD_SNIPPET",
            "codeSnippet": "preshowLocatorKA();",
            "parentId": null,
            "callbackType": null
        }]
    }
}