{
    "AS_FlexContainer_f4ac3a7038474b629e580f59038682d3": {
        "id": "AS_FlexContainer_f4ac3a7038474b629e580f59038682d3",
        "type": "ACTION_SEQUENCE",
        "params": [{
            "datatype": "collection",
            "name": "eventobject"
        }],
        "language": "js",
        "actions": [{
            "id": "ADD_SNIPPET_ide_onClick_h363c42bf628452bbfff01d5aff9df0f",
            "type": "ADD_SNIPPET",
            "codeSnippet": "kony.print(\"Do nothing\");\n",
            "callbackType": null
        }]
    }
}