{
    "AS_FlexContainer_faaf63300c47427395ca01362075bfbd": {
        "id": "AS_FlexContainer_faaf63300c47427395ca01362075bfbd",
        "type": "ACTION_SEQUENCE",
        "params": [{
            "datatype": "collection",
            "name": "eventobject"
        }],
        "language": "js",
        "actions": [{
            "id": "ADD_SNIPPET_ide_onClick_dddea9f170b14d76ab43c31adb9f997a",
            "type": "ADD_SNIPPET",
            "codeSnippet": "if(frmEPS.lblNext.skin === \"sknLblNextEnabled\"){\n  if(validate_SufficientBalance()){\n    kony.sdk.mvvm.KonyApplicationContext.showLoadingScreen(\"\");\n    SetupConfirmationScreen();\n  //   GetAliasInfo();\n    frmEPS.flxMain.setVisibility(false);\n    frmEPS.flxConfirmEPS.setVisibility(true);\n    kony.sdk.mvvm.KonyApplicationContext.dismissLoadingScreen();\n  }else{\n  \tcustomAlertPopup(geti18Value(\"i18n.maps.Info\"), geti18Value(\"i18n.error.InsufficientFundInAccount\"), popupCommonAlertDimiss, \"\");\n  }\n}else{\n  alert(\"fields required not fully added\");\n}",
            "callbackType": null
        }]
    }
}