{
    "AS_FlexContainer_dc8b23addc12436ca4c1083d407f547d": {
        "id": "AS_FlexContainer_dc8b23addc12436ca4c1083d407f547d",
        "type": "ACTION_SEQUENCE",
        "params": [{
            "datatype": "collection",
            "name": "eventobject"
        }],
        "language": "js",
        "actions": [{
            "id": "ADD_SNIPPET_ide_onClick_f906f80ef9e445ebad89c8deecb0dc0c",
            "type": "ADD_SNIPPET",
            "codeSnippet": "alertBankCall();",
            "callbackType": null
        }]
    }
}