{
    "AS_Form_9549c6e87718468f886c266037dba453": {
        "id": "AS_Form_9549c6e87718468f886c266037dba453",
        "type": "ACTION_SEQUENCE",
        "params": [{
            "datatype": "collection",
            "name": "eventobject"
        }],
        "contextObj": {
            "type": "forms",
            "platform": "",
            "KUID": "2e63134c7cd34ec9801fa53d362efd33"
        },
        "language": "js",
        "actions": [{
            "id": "ADD_SNIPPET__f7b1ce6fb3094fbaab10fa07a2dc9885",
            "type": "ADD_SNIPPET",
            "codeSnippet": "kony.print(\"Deleted\");",
            "parentId": null,
            "callbackType": null
        }]
    }
}