{
    "AS_FlexContainer_ge7a32a3d5514fb4a330c100e7179906": {
        "id": "AS_FlexContainer_ge7a32a3d5514fb4a330c100e7179906",
        "type": "ACTION_SEQUENCE",
        "params": [{
            "datatype": "collection",
            "name": "eventobject"
        }],
        "language": "js",
        "actions": [{
            "id": "ADD_SNIPPET_ide_onClick_a5701e195dcd4b478469b3966c6b65b0",
            "type": "ADD_SNIPPET",
            "codeSnippet": "kony.print(\"Removed\");",
            "callbackType": null
        }]
    }
}