{
    "AS_Form_afb9a294c4414f1bb28199ae6f312417": {
        "id": "AS_Form_afb9a294c4414f1bb28199ae6f312417",
        "type": "ACTION_SEQUENCE",
        "params": [{
            "datatype": "collection",
            "name": "eventobject"
        }],
        "contextObj": {
            "name": "frmAccountDetailKA",
            "type": "forms",
            "platform": "",
            "KUID": "5ed703cad63c441882fc4a36f5ea0c28"
        },
        "language": "js",
        "actions": [{
            "id": "ADD_SNIPPET__d435bd14281249409fb98492da4e6d53",
            "type": "ADD_SNIPPET",
            "codeSnippet": "frmAccountDetailKA.titleBarAccountDetails.skin=\"flexTransparent\";",
            "parentId": null,
            "callbackType": null
        }]
    }
}