{
    "AS_FlexContainer_cacc6a2926974b998418ec06401fa4ff": {
        "id": "AS_FlexContainer_cacc6a2926974b998418ec06401fa4ff",
        "type": "ACTION_SEQUENCE",
        "params": [{
            "datatype": "collection",
            "name": "eventobject"
        }, {
            "datatype": "string",
            "name": "x"
        }, {
            "datatype": "string",
            "name": "y"
        }],
        "language": "js",
        "actions": [{
            "id": "ADD_SNIPPET_ide_onTouchStart_1700bee3f935475d8f50204bbe9d6b99",
            "type": "ADD_SNIPPET",
            "codeSnippet": "clearClicked();",
            "callbackType": null
        }]
    }
}