{
    "AS_Form_d52af5a2960b421cbfe1ab14bfe53fea": {
        "id": "AS_Form_d52af5a2960b421cbfe1ab14bfe53fea",
        "type": "ACTION_SEQUENCE",
        "params": [{
            "datatype": "collection",
            "name": "eventobject"
        }],
        "contextObj": {
            "name": "frmNewBillDetails",
            "type": "forms",
            "platform": null,
            "KUID": "c2132c3b91ec4677ab952b729de9fc0e"
        },
        "language": "js",
        "actions": [{
            "id": "ADD_SNIPPET_ide_onDeviceMenu_af871ec666774d5f91401ad86f7195f3",
            "type": "ADD_SNIPPET",
            "codeSnippet": null,
            "callbackType": null
        }]
    }
}