{
    "AS_FlexContainer_bdd7c303d8aa46ef97afdf1c98e503a7": {
        "id": "AS_FlexContainer_bdd7c303d8aa46ef97afdf1c98e503a7",
        "type": "ACTION_SEQUENCE",
        "name": "AS_FlexContainer_ActivateCard",
        "params": [{
            "datatype": "collection",
            "name": "eventobject"
        }],
        "contextObj": {
            "name": "frmManageCardsKA",
            "type": "forms",
            "platform": "",
            "KUID": "75db60b6b4944b7faf9c556f4dbcaf8d"
        },
        "language": "js",
        "actions": [{
            "id": "ADD_SNIPPET__a263c33df85a4ac3aed1151e4a5714c4",
            "type": "ADD_SNIPPET",
            "codeSnippet": "showPopupStopCard();",
            "parentId": null,
            "callbackType": null
        }]
    }
}