{
    "AS_FlexContainer_iaa59ddd8d3f4eee82a6fd7a7a9ac6bf": {
        "id": "AS_FlexContainer_iaa59ddd8d3f4eee82a6fd7a7a9ac6bf",
        "type": "ACTION_SEQUENCE",
        "params": [{
            "datatype": "collection",
            "name": "eventobject"
        }],
        "contextObj": {
            "type": "forms",
            "platform": "",
            "KUID": "d632c1724f9840698e446fcf7c83b2ca"
        },
        "language": "js",
        "actions": [{
            "id": "ADD_SNIPPET__a3a8450be81a40a0b3488bdc7915dac2",
            "type": "ADD_SNIPPET",
            "codeSnippet": "frmAccountInfoEditKA.copyflxAccountInfoNavOptKA.isVisible=false;",
            "parentId": null,
            "callbackType": null
        }]
    }
}