{
    "AS_Form_i8afc33577e54131847cc9fa0626d673": {
        "id": "AS_Form_i8afc33577e54131847cc9fa0626d673",
        "type": "ACTION_SEQUENCE",
        "params": [{
            "datatype": "collection",
            "name": "eventobject"
        }],
        "contextObj": {
            "name": "frmNewSubAccountLandingNew",
            "type": "forms",
            "platform": null,
            "KUID": "i277bc3c8d71465085f48b35ef80c31b"
        },
        "language": "js",
        "actions": [{
            "id": "ADD_SNIPPET__i18233e266614908b45f9e89c1ab9b82",
            "type": "ADD_SNIPPET",
            "codeSnippet": "gblsubacclist=\"\";",
            "parentId": null,
            "callbackType": null
        }]
    }
}