{
    "AS_Form_13fab0c525a647b8a1279d6af7ee63ff": {
        "id": "AS_Form_13fab0c525a647b8a1279d6af7ee63ff",
        "type": "ACTION_SEQUENCE",
        "params": [{
            "datatype": "collection",
            "name": "eventobject"
        }],
        "contextObj": {
            "name": "frmTransactionDetailsPFMKA",
            "type": "forms",
            "platform": null,
            "KUID": "bc4386f15a294e678087a3a702d996b6"
        },
        "language": "js",
        "actions": [{
            "id": "ADD_SNIPPET_ide_onDeviceBack_68bf3df8b2fe4b12a443d4368284f2e1",
            "type": "ADD_SNIPPET",
            "codeSnippet": "kony.print(\"Device Back\");",
            "callbackType": null
        }]
    }
}