{
    "AS_FlexContainer_faadade89d064587bd3bef706f6c6e72": {
        "id": "AS_FlexContainer_faadade89d064587bd3bef706f6c6e72",
        "type": "ACTION_SEQUENCE",
        "params": [{
            "datatype": "collection",
            "name": "eventobject"
        }],
        "contextObj": {
            "name": "frmLoginKA",
            "type": "forms",
            "platform": "",
            "KUID": "7b1aa8fceb6b4070833e9eab879b0e5e"
        },
        "language": "js",
        "actions": [{
            "id": "ADD_SNIPPET__f75aa11b674f4d819dd5ddc915d49f74",
            "type": "ADD_SNIPPET",
            "codeSnippet": "startChatbotBeforeLogin();",
            "parentId": null,
            "callbackType": null
        }]
    }
}