{
    "AS_FlexContainer_dd6d6c749b4741cca24e0d40b6ceb7b9": {
        "id": "AS_FlexContainer_dd6d6c749b4741cca24e0d40b6ceb7b9",
        "type": "ACTION_SEQUENCE",
        "params": [{
            "datatype": "collection",
            "name": "eventobject"
        }, {
            "datatype": "string",
            "name": "x"
        }, {
            "datatype": "string",
            "name": "y"
        }],
        "contextObj": {
            "name": "frmChatBots",
            "type": "forms",
            "platform": "",
            "KUID": "a5c82996d9864c6482f65cfffe81fda4"
        },
        "language": "js",
        "actions": [{
            "id": "ADD_SNIPPET__daee7a487b5645f78777242a6dc7b203",
            "type": "ADD_SNIPPET",
            "codeSnippet": "onTouchEnd1(eventobject,x,y);",
            "parentId": null,
            "callbackType": null
        }]
    }
}