{
    "AS_FlexContainer_g733e665ef5c4615a6838d59d51d50aa": {
        "id": "AS_FlexContainer_g733e665ef5c4615a6838d59d51d50aa",
        "type": "ACTION_SEQUENCE",
        "name": "AS_FlexContainer_SelectAccountBulkPayment",
        "params": [{
            "datatype": "collection",
            "name": "eventobject"
        }],
        "language": "js",
        "actions": [{
            "id": "ADD_SNIPPET_ide_onClick_e03dc7b4cc3b45219027b2a116c2e769",
            "type": "ADD_SNIPPET",
            "codeSnippet": "frmAccountDetailsScreen.lblHead.text = \"Accounts\";\ngblTModule = \"BulkPrePayPayment\";\ngotoAccountDetailsScreen(1);",
            "callbackType": null
        }]
    }
}