{
    "AS_Form_ff4e1e3ec9274d0ab2e7e3576d5c25db": {
        "id": "AS_Form_ff4e1e3ec9274d0ab2e7e3576d5c25db",
        "type": "ACTION_SEQUENCE",
        "params": [{
            "datatype": "collection",
            "name": "eventobject"
        }],
        "contextObj": {
            "name": "frmAddNewPrePayeeKA",
            "type": "forms",
            "platform": null,
            "KUID": "a843292d9c674ff7ba10a9b594b7e7e5"
        },
        "language": "js",
        "actions": [{
            "id": "ADD_SNIPPET_ide_preShow_fd7deb0cfdc44e958a547a2a62236c46",
            "type": "ADD_SNIPPET",
            "codeSnippet": "// frmAddNewPayeeKA.flxScrollCompanyListKA.isVisible = false;\n// frmAddNewPayeeKA.tboxReenterAccountNumberKA.text = \"\";\n// populateCompanyList();\nif(kony.boj.BillerResetFlag){\n  frmAddNewPrePayeeKA.lblTitle.text = geti18Value(\"i18n.billsPay.AddNewBill\");\n  frmAddNewPrePayeeKA.lblNickName.skin = \"sknLblNextDisabled\";\n  frmAddNewPrePayeeKA.lblBillerNumber.skin = \"sknLblNextDisabled\";\n  frmAddNewPrePayeeKA.lblNickName.top = \"40%\";\n  //frmAddNewPrePayeeKA.lblBillerNumber.top = \"35%\";\n  frmAddNewPrePayeeKA.lblArrowServiceType.isVisible = true;\n  frmAddNewPrePayeeKA.flxConfirmPopUp.isVisible = false;\n  frmAddNewPrePayeeKA.lblEditBillerNameTitile.isVisible = false;\n  frmAddNewPrePayeeKA.lblEditBillerServiceTypeTitle.isVisible = false;\n  frmAddNewPrePayeeKA.flxFormMain.isVisible  =true;\n  frmAddNewPrePayeeKA.lblArrowBillerName.isVisible = true;\n  frmAddNewPrePayeeKA.flxServiceType.setEnabled(true);\n  frmAddNewPrePayeeKA.flxBillerNumber.setEnabled(true);\n  //kony.boj.selectedBillerType = \"PostPaid\";\n  kony.boj.selectedBillerType = \"PrePaid\";\n  kony.boj.resetSelectedItemsBiller(\"PrePaid\");\n  kony.boj.resetPreBiller();\n}\n\nif(kony.boj.addBillerFromQuickPay){\n  frmAddNewPayeeKA.lblTitle.text = geti18Value(\"i18n.billsPay.AddNewBill\");\n  frmAddNewPayeeKA.flxConfirmPopUp.isVisible = false;\n  frmAddNewPayeeKA.flxFormMain.isVisible  =true;\n  frmAddNewPayeeKA.flxServiceType.setEnabled(true);\n  frmAddNewPayeeKA.flxBillerNumber.setEnabled(true);\n  kony.boj.partialResetBiller();\n}\n\n",
            "callbackType": null
        }]
    }
}