{
    "AS_Form_ge29cb0903bb416b8401439fa4fd0dea": {
        "id": "AS_Form_ge29cb0903bb416b8401439fa4fd0dea",
        "type": "ACTION_SEQUENCE",
        "params": [{
            "datatype": "collection",
            "name": "eventobject"
        }],
        "contextObj": {
            "name": "frmEstatementLandingKA",
            "type": "forms",
            "platform": "",
            "KUID": "d1dcb94f4a054dda97d66cbdc216d96a"
        },
        "language": "js",
        "actions": [{
            "id": "ADD_SNIPPET__ab943ad14e5b423c8cf7503816159a9e",
            "type": "ADD_SNIPPET",
            "codeSnippet": "frmEstatementLandingKA.btn.setFocus(true);",
            "parentId": null,
            "callbackType": null
        }]
    }
}