{
    "AS_FlexContainer_j8425e7341bf480bbf30289f53e5d4df": {
        "id": "AS_FlexContainer_j8425e7341bf480bbf30289f53e5d4df",
        "type": "ACTION_SEQUENCE",
        "params": [{
            "datatype": "collection",
            "name": "eventobject"
        }],
        "language": "js",
        "actions": [{
            "id": "IF_CONDITION_ide_onClick_a3eb492fc7284d3a8b832a35b368a928",
            "type": "IF_CONDITION",
            "conditions": [{
                "leftValueType": "expression",
                "leftValue": "frmFilterTransaction.flxDatePicker.isVisible == true"
            }],
            "callbackType": null,
            "criteria": "all"
        }, {
            "id": "ADD_SNIPPET_ide_onClick_b4054eb1b43e4443b574cbc642c6e91a",
            "type": "ADD_SNIPPET",
            "codeSnippet": "// clearForm.filterTransactions();\nif(kony.application.getPreviousForm().id == \"frmManageCardsKA\"){\n  searchTransation();\n}else if(frmFilterTransaction.lblDateRange.text == geti18nkey(\"i18n.FilterTransaction.pickadate\")){\n\tcustomAlertPopup(geti18nkey(\"i18n.maps.Info\"), geti18nkey(\"i18n.common.enterdate\"), popupCommonAlertDimiss, null, geti18nkey(\"i18n.settings.ok\"), null);\n}else{\n\tfrmFilterTransaction.flxDatePicker.isVisible = false;\n    frmFilterTransaction.flxFilterTransaction.isVisible = true;\n    frmFilterTransaction.lblFilterHeader.text = kony.i18n.getLocalizedString(\"i18n.FilterTransaction\");\n}",
            "parentId": "IF_CONDITION_ide_onClick_a3eb492fc7284d3a8b832a35b368a928",
            "callbackType": null
        }, {
            "id": "ELSE_IF_CONDITION_ide_onClick_g00974b1c1374cebb5b15b3915c4ee0e",
            "type": "ELSE_IF_CONDITION",
            "conditions": [{
                "leftValueType": "expression",
                "leftValue": "frmFilterTransaction.flxFilterTransaction.isVisible == true"
            }],
            "callbackType": null,
            "criteria": "all"
        }, {
            "id": "INVOKE_FUNCTION__ide_onClick_ad4eebfc28db445880aa5fd2507d2c6a",
            "type": "INVOKE_FUNCTION",
            "sequenceKUID": "searchTransation",
            "display": "searchTransation",
            "inputparams": [],
            "parentId": "ELSE_IF_CONDITION_ide_onClick_g00974b1c1374cebb5b15b3915c4ee0e",
            "callbackType": null,
            "disabled": null,
            "source": "module"
        }]
    }
}