{
    "AS_Form_i6c4f5fd068840ab9c969a410238d1ea": {
        "id": "AS_Form_i6c4f5fd068840ab9c969a410238d1ea",
        "type": "ACTION_SEQUENCE",
        "params": [{
            "datatype": "collection",
            "name": "eventobject"
        }],
        "contextObj": {
            "name": "frmSelectDetailsBene",
            "type": "forms",
            "platform": "",
            "KUID": "dc083a9578ae4c11820ce4dbba701670"
        },
        "language": "js",
        "actions": []
    }
}