{
    "AS_FlexContainer_fe19cbaf68994ef2b24d6324a92042d6": {
        "id": "AS_FlexContainer_fe19cbaf68994ef2b24d6324a92042d6",
        "type": "ACTION_SEQUENCE",
        "name": "AS_FlexContainer_showStopCard",
        "params": [{
            "datatype": "collection",
            "name": "eventobject"
        }],
        "contextObj": {
            "name": "frmManageCardsKA",
            "type": "forms",
            "platform": "",
            "KUID": "75db60b6b4944b7faf9c556f4dbcaf8d"
        },
        "language": "js",
        "actions": [{
            "id": "ADD_SNIPPET__d0e221f168c54b06824144811365a716",
            "type": "ADD_SNIPPET",
            "codeSnippet": "showPopupStopCard();",
            "parentId": null,
            "callbackType": null
        }]
    }
}