{
    "AS_FlexContainer_f66f4296266a4043bf4c307ad7e94cc1": {
        "id": "AS_FlexContainer_f66f4296266a4043bf4c307ad7e94cc1",
        "type": "ACTION_SEQUENCE",
        "params": [{
            "datatype": "collection",
            "name": "eventobject"
        }],
        "contextObj": {
            "name": "frmNewUserOnboardVerificationKA",
            "type": "forms",
            "platform": "",
            "KUID": "ie7b921fac134bd8a8afb16afc085409"
        },
        "language": "js",
        "actions": [{
            "id": "ADD_SNIPPET_ide_onClick_b11feec36de04955b82307dc329086d0",
            "type": "ADD_SNIPPET",
            "codeSnippet": "frmNewUserOnboardVerificationKA.txtOTP.setFocus(true);",
            "callbackType": null
        }]
    }
}