{
    "AS_FlexContainer_ff304176a9cd4c82b8b63923975448d3": {
        "id": "AS_FlexContainer_ff304176a9cd4c82b8b63923975448d3",
        "type": "ACTION_SEQUENCE",
        "params": [{
            "datatype": "collection",
            "name": "eventobject"
        }],
        "language": "js",
        "actions": [{
            "id": "ADD_SNIPPET_ide_onClick_bc1969ae81154bd5b9ddfba99ee3190e",
            "type": "ADD_SNIPPET",
            "codeSnippet": "gblsubacclist=\"Acc\";\nfrmAccountType.show();",
            "callbackType": null
        }]
    }
}