{
    "AS_FlexContainer_ae1a610229d5490bb3ec3f0e30f5486a": {
        "id": "AS_FlexContainer_ae1a610229d5490bb3ec3f0e30f5486a",
        "type": "ACTION_SEQUENCE",
        "params": [{
            "datatype": "collection",
            "name": "eventobject"
        }],
        "language": "js",
        "actions": [{
            "id": "ADD_SNIPPET_ide_onClick_a3e1838c61dc4c3db4fc4b2b382464b7",
            "type": "ADD_SNIPPET",
            "codeSnippet": "gblfrmName = \"\";\nadditionalValidationRdc(this,gotoDeposits);\n",
            "callbackType": null
        }]
    }
}