{
    "AS_FlexContainer_d460d8c342764861bcf4e19ac6546a14": {
        "id": "AS_FlexContainer_d460d8c342764861bcf4e19ac6546a14",
        "type": "ACTION_SEQUENCE",
        "name": "AS_FlexContainer_NavigateToDashboard",
        "params": [{
            "datatype": "collection",
            "name": "eventobject"
        }],
        "contextObj": {
            "name": "frmAuthorizationAlternatives",
            "type": "forms",
            "platform": "",
            "KUID": "d410b4cb8325465eb5a9cb0f8e472aec"
        },
        "language": "js",
        "actions": [{
            "id": "ADD_SNIPPET__dd32bacb571f41789fe540522811980b",
            "type": "ADD_SNIPPET",
            "codeSnippet": "kony.print(\"Landing form:\");\nfrmAccountsLandingKA.show();",
            "parentId": null,
            "callbackType": null
        }]
    }
}