{
    "AS_FlexContainer_j9f13eecea1745a1b6d1f82ec8b2bcef": {
        "id": "AS_FlexContainer_j9f13eecea1745a1b6d1f82ec8b2bcef",
        "type": "ACTION_SEQUENCE",
        "params": [{
            "datatype": "collection",
            "name": "eventobject"
        }],
        "contextObj": {
            "name": "frmCardStatementKA",
            "type": "forms",
            "platform": "",
            "KUID": "ebef3c7798e64ac49c7cc83d9df0b4f2"
        },
        "language": "js",
        "actions": []
    }
}