{
    "AS_Button_ebd8d1a83e9944e88dfb097712fcbe46": {
        "id": "AS_Button_ebd8d1a83e9944e88dfb097712fcbe46",
        "type": "ACTION_SEQUENCE",
        "name": "AS_footerButtonPaymentDashBoard",
        "params": [{
            "datatype": "collection",
            "name": "eventobject"
        }],
        "contextObj": {
            "name": "iphoneFooter",
            "type": "templates",
            "platform": "",
            "KUID": "5fc13b6bbe69451a84b41ce39703d431"
        },
        "language": "js",
        "actions": [{
            "id": "ADD_SNIPPET__cd570982eb8640fb899a8d4f2ee1870d",
            "type": "ADD_SNIPPET",
            "codeSnippet": "frmPaymentDashboard.show();",
            "parentId": null,
            "callbackType": null
        }]
    }
}