{
    "AS_FlexContainer_bdfd4da9eb104ea2bc06851ca67a1b04": {
        "id": "AS_FlexContainer_bdfd4da9eb104ea2bc06851ca67a1b04",
        "type": "ACTION_SEQUENCE",
        "params": [{
            "datatype": "collection",
            "name": "eventobject"
        }],
        "language": "js",
        "actions": [{
            "id": "ADD_SNIPPET_ide_onClick_bac175a7c37344ed8038f40b8ba4f96d",
            "type": "ADD_SNIPPET",
            "codeSnippet": "frmMore.show();",
            "callbackType": null
        }]
    }
}