{
    "AS_Form_b4fc4c8f91964230be818a95e5337d1b": {
        "id": "AS_Form_b4fc4c8f91964230be818a95e5337d1b",
        "type": "ACTION_SEQUENCE",
        "params": [{
            "datatype": "collection",
            "name": "eventobject"
        }],
        "contextObj": {
            "name": "frmEnlargeAdKA",
            "type": "forms",
            "platform": "",
            "KUID": "af0a08b95e4b4ced82724169b940deb3"
        },
        "language": "js",
        "actions": [{
            "id": "ADD_SNIPPET__a34e05d6bb3445b380cc770abc54b909",
            "type": "ADD_SNIPPET",
            "codeSnippet": "var enLargeAdVC = applicationManager.getEnlargedAdViewController();\nenLargeAdVC.preshowfrmEnlargedAd();",
            "parentId": null,
            "callbackType": null
        }]
    }
}