{
    "AS_FlexContainer_c2e8fe1aa70e4bb4b85207de137fe2c9": {
        "id": "AS_FlexContainer_c2e8fe1aa70e4bb4b85207de137fe2c9",
        "type": "ACTION_SEQUENCE",
        "name": "AS_FlexContainer_BackConfirmFrmBulkPayment",
        "params": [{
            "datatype": "collection",
            "name": "eventobject"
        }],
        "language": "js",
        "actions": [{
            "id": "ADD_SNIPPET_ide_onClick_i5b1dac2d20a4837860a0e524d52478f",
            "type": "ADD_SNIPPET",
            "codeSnippet": "frmBulkPaymentKA.flxConfirmPayment.isVisible = false;\nfrmBulkPaymentKA.flxMainContainer.isVisible = true;\nfrmBulkPaymentKA.lblNextPayNow.setEnabled(false);",
            "callbackType": null
        }]
    }
}