{
    "AS_FlexContainer_8e2bd2168a3e45d4a6b32165fb867941": {
        "id": "AS_FlexContainer_8e2bd2168a3e45d4a6b32165fb867941",
        "type": "ACTION_SEQUENCE",
        "params": [{
            "datatype": "collection",
            "name": "eventobject"
        }],
        "language": "js",
        "actions": [{
            "id": "ADD_SNIPPET_ide_onClick_a6f0ed8101a44f2c92489c2514910673",
            "type": "ADD_SNIPPET",
            "codeSnippet": "dateRangeOnClick(1);",
            "callbackType": null
        }]
    }
}