{
    "AS_Form_abaff60417014dd2b4d5f8945f5023b8": {
        "id": "AS_Form_abaff60417014dd2b4d5f8945f5023b8",
        "type": "ACTION_SEQUENCE",
        "params": [{
            "datatype": "collection",
            "name": "eventobject"
        }],
        "contextObj": {
            "name": "frmFacialAuthEnable",
            "type": "forms",
            "platform": "",
            "KUID": "f74e8c1156354b3cb1d8b5f6c757583f"
        },
        "language": "js",
        "actions": [{
            "id": "ADD_SNIPPET__b975d009915b445d96a5f441d5fb839e",
            "type": "ADD_SNIPPET",
            "codeSnippet": "frmFaceAuthEnablePreshow();",
            "parentId": null,
            "callbackType": null
        }]
    }
}