{
    "AS_FlexContainer_e8dacb6555ad4e1eaf887ce2fd5a0958": {
        "id": "AS_FlexContainer_e8dacb6555ad4e1eaf887ce2fd5a0958",
        "type": "ACTION_SEQUENCE",
        "name": "AS_FlexContainer_CancelCard",
        "params": [{
            "datatype": "collection",
            "name": "eventobject"
        }],
        "contextObj": {
            "name": "frmManageCardsKA",
            "type": "forms",
            "platform": "",
            "KUID": "75db60b6b4944b7faf9c556f4dbcaf8d"
        },
        "language": "js",
        "actions": [{
            "id": "ADD_SNIPPET__gdeeb9f4276b4a0bbd27610c6fbeaab0",
            "type": "ADD_SNIPPET",
            "codeSnippet": "frmCancelCardKA.show();",
            "parentId": null,
            "callbackType": null
        }]
    }
}