{
    "AS_FlexContainer_f9032d5e5d9d4ae8b127b7e5a669e234": {
        "id": "AS_FlexContainer_f9032d5e5d9d4ae8b127b7e5a669e234",
        "type": "ACTION_SEQUENCE",
        "params": [{
            "datatype": "collection",
            "name": "eventobject"
        }],
        "language": "js",
        "actions": [{
            "id": "ADD_SNIPPET_ide_onClick_a999b4051d9b407a918da5ba599a6412",
            "type": "ADD_SNIPPET",
            "codeSnippet": "var currentForm = kony.application.getCurrentForm();\nkony.chatbots.bot.showBotSplash(currentForm);",
            "callbackType": null
        }]
    }
}