{
    "AS_Form_ac7adfc406da42b2a4a5889a4f8e6c3b": {
        "id": "AS_Form_ac7adfc406da42b2a4a5889a4f8e6c3b",
        "type": "ACTION_SEQUENCE",
        "name": "AS_Form_Settings_Preshow",
        "params": [{
            "datatype": "collection",
            "name": "eventobject"
        }],
        "contextObj": {
            "name": "frmSettingsKA",
            "type": "forms",
            "platform": "",
            "KUID": "hb0fb66c0c224ed284a1334d78669bfa"
        },
        "language": "js",
        "actions": [{
            "id": "ADD_SNIPPET__e8706ac1f1aa4eb3999785591887f948",
            "type": "ADD_SNIPPET",
            "codeSnippet": "prev_FORM = kony.application.getPreviousForm();\nonLoadSettings();\nfrmSettingsKA.flxMenuContainer.showFadingEdges = false;\n// kony.print(\"appconfig ::\"+JSON.stringify(appConfig));\n// var currentAppVersion = appConfig.appVersion;\n// frmSettingsKA.lblVersion.text = \"V \" + currentAppVersion;",
            "parentId": null,
            "callbackType": null
        }]
    }
}