{
    "AS_FlexContainer_ecdccdab719f44509bb637db78c72e99": {
        "id": "AS_FlexContainer_ecdccdab719f44509bb637db78c72e99",
        "type": "ACTION_SEQUENCE",
        "name": "AS_FlextoMonthReqStmnttList",
        "params": [{
            "datatype": "collection",
            "name": "eventobject"
        }],
        "language": "js",
        "actions": [{
            "id": "ADD_SNIPPET_ide_onClick_c4bcff72b46c4dbc8fd48ee316345cbe",
            "type": "ADD_SNIPPET",
            "codeSnippet": "if(frmRequestStatementAccounts.lblYearFromValue.text != geti18Value(\"i18n.filtertransaction.year\") && frmRequestStatementAccounts.lblYearToValue.text \t!= geti18Value(\"i18n.filtertransaction.year\") && frmRequestStatementAccounts.lblMonthFromValue.text != geti18Value(\"i18n.common.month\")){\ngblsubacclist=\"toMonth\";\nfrmAccountType.show();\n}else{\n  if(frmRequestStatementAccounts.lblYearFromValue.text == geti18Value(\"i18n.filtertransaction.year\")){\n     frmRequestStatementAccounts.lblLineFY.skin = \"sknFlxOrangeLine\";\n     }\n   if(frmRequestStatementAccounts.lblYearToValue.text \t== geti18Value(\"i18n.filtertransaction.year\")){\n     frmRequestStatementAccounts.lblLineTY.skin = \"sknFlxOrangeLine\";\n     }\n  if(frmRequestStatementAccounts.lblMonthFromValue.text == geti18Value(\"i18n.common.month\")){\n     frmRequestStatementAccounts.lblLineFM.skin = \"sknFlxOrangeLine\";\n     }\n}",
            "callbackType": null
        }]
    }
}