{
    "AS_FlexContainer_hef9268296374824b49528807f9230c3": {
        "id": "AS_FlexContainer_hef9268296374824b49528807f9230c3",
        "type": "ACTION_SEQUENCE",
        "params": [{
            "datatype": "collection",
            "name": "eventobject"
        }],
        "contextObj": {
            "name": "frmEstatementLandingKA",
            "type": "forms",
            "platform": "",
            "KUID": "d1dcb94f4a054dda97d66cbdc216d96a"
        },
        "language": "js",
        "actions": [{
            "id": "ADD_SNIPPET__b1e7157c53074723bcc854fe4d322d7c",
            "type": "ADD_SNIPPET",
            "codeSnippet": "frmEstatementLandingKA.flxSwitchOnTouchLogin.setVisibility(true);\nfrmEstatementLandingKA.flxSwitchOffTouchLogin.setVisibility(false);\nif(frmEstatementLandingKA.lblTermsandConditionsCheckBox.text === \"p\" && frmEstatementLandingKA.txtEmail1.text!==null && frmEstatementLandingKA.txtEmail1.text!==\"\" && isValidEmaill(frmEstatementLandingKA.txtEmail1.text))\n  frmEstatementLandingKA.lblNext.skin = \"sknLblNextEnabled\";\nelse\n  frmEstatementLandingKA.lblNext.skin =\"sknLblNextDisabled\";",
            "parentId": null,
            "callbackType": null
        }]
    }
}