{
    "AS_Form_ga01d3d6b5d94835b5855b12235729da": {
        "id": "AS_Form_ga01d3d6b5d94835b5855b12235729da",
        "type": "ACTION_SEQUENCE",
        "params": [{
            "datatype": "collection",
            "name": "eventobject"
        }],
        "contextObj": {
            "name": "frmConfirmP2PRegistrationKA",
            "type": "forms",
            "platform": null,
            "KUID": "j3748976af8941aa993b14b2d72a60b1"
        },
        "language": "js",
        "actions": [{
            "id": "ADD_SNIPPET__e6e7533687f7448eb0060de4f9cd2a6e",
            "type": "ADD_SNIPPET",
            "codeSnippet": "var vc=applicationManager.getfrmConfirmP2PRegistrationViewController();\nvc.confirmP2PRegistrationPreshow();",
            "parentId": null,
            "callbackType": null
        }]
    }
}