{
    "AS_FlexContainer_jace43f422aa4865a32c09529aee7816": {
        "id": "AS_FlexContainer_jace43f422aa4865a32c09529aee7816",
        "type": "ACTION_SEQUENCE",
        "params": [{
            "datatype": "collection",
            "name": "eventobject"
        }],
        "contextObj": {
            "type": "forms",
            "platform": "",
            "KUID": "f644133a06fe4ebb8fed2a0bbbe06db2"
        },
        "language": "js",
        "actions": [{
            "id": "ADD_SNIPPET__e7b8ac9591694371b3605e2f7e91ba77",
            "type": "ADD_SNIPPET",
            "codeSnippet": "kony.print(\"Deleted\");",
            "parentId": null,
            "callbackType": null
        }]
    }
}