{
    "AS_Form_fb161b7a9eb649a3864a537d80289904": {
        "id": "AS_Form_fb161b7a9eb649a3864a537d80289904",
        "type": "ACTION_SEQUENCE",
        "params": [{
            "datatype": "collection",
            "name": "eventobject"
        }],
        "contextObj": {
            "name": "frmConfirmPayBill",
            "type": "forms",
            "platform": null,
            "KUID": "9244958e3f364c6b9e342b6d7ea74555"
        },
        "language": "js",
        "actions": [{
            "id": "ADD_SNIPPET_ide_onDeviceBack_96a3e6b8a6ea49ccb8d9f2d75de54784",
            "type": "ADD_SNIPPET",
            "codeSnippet": "if(QuickFlowprev == \"bill\")\n\tfrmBills.show();\nelse\n  frmNewBillDetails.show();",
            "callbackType": null
        }]
    }
}