{
    "AS_Form_j0c3685acb7f4b75b31915979163cdac": {
        "id": "AS_Form_j0c3685acb7f4b75b31915979163cdac",
        "type": "ACTION_SEQUENCE",
        "name": "AS_Form_CardsAddNicknamePostshow",
        "params": [{
            "datatype": "collection",
            "name": "eventobject"
        }],
        "contextObj": {
            "name": "frmCardsAddNickname",
            "type": "forms",
            "platform": null,
            "KUID": "d382c627ba0b45cfb446cc6dd8d8759e"
        },
        "language": "js",
        "actions": [{
            "id": "ADD_SNIPPET_ide_postShow_fcc856b52a344b1b8cec3d3c1c84624d",
            "type": "ADD_SNIPPET",
            "codeSnippet": "if(isEmpty(frmCardsAddNickname.txtAddNickName.text))\nanimateLabel(\"DOWN\",\"lblAddNickName\",frmCardsAddNickname.txtAddNickName.text);\nelse\nanimateLabel(\"UP\",\"lblAddNickName\",frmCardsAddNickname.txtAddNickName.text);\n\n"
        }]
    }
}