{
    "AS_FlexContainer_8bb76ba18725429783633f967893bdb2": {
        "id": "AS_FlexContainer_8bb76ba18725429783633f967893bdb2",
        "type": "ACTION_SEQUENCE",
        "params": [{
            "datatype": "collection",
            "name": "eventobject"
        }, {
            "datatype": "string",
            "name": "x"
        }, {
            "datatype": "string",
            "name": "y"
        }],
        "contextObj": {
            "name": "frmMyMoneyListKA",
            "type": "forms",
            "platform": "",
            "KUID": "4c6f3d4dd57b4bc3a51ee85d32b7cd14"
        },
        "language": "js",
        "actions": [{
            "id": "ADD_SNIPPET__18f603fc31ed40a1970c79f94d808c2f",
            "type": "ADD_SNIPPET",
            "codeSnippet": "navigateToUncategorisedList();",
            "parentId": null,
            "callbackType": null
        }]
    }
}