{
    "AS_FlexContainer_fb0334d3d737463d97b6965e95a2bbcb": {
        "id": "AS_FlexContainer_fb0334d3d737463d97b6965e95a2bbcb",
        "type": "ACTION_SEQUENCE",
        "name": "AS_FlexContainer_alertsSettingsClickKA",
        "params": [{
            "datatype": "collection",
            "name": "eventobject"
        }],
        "contextObj": {
            "name": "frmSettingsKA",
            "type": "forms",
            "platform": "",
            "KUID": "hb0fb66c0c224ed284a1334d78669bfa"
        },
        "language": "js",
        "actions": [{
            "id": "ADD_SNIPPET__b6bac673d7ce44e296d9da6a2d7bf525",
            "type": "ADD_SNIPPET",
            "codeSnippet": "onselection_ALERTANDNOTIFICATIONTOGGLE(\"ALERT\");",
            "parentId": null
        }]
    }
}