{
    "AS_FlexContainer_dc5c016cc8f8468f88e9ad1b70aa456d": {
        "id": "AS_FlexContainer_dc5c016cc8f8468f88e9ad1b70aa456d",
        "type": "ACTION_SEQUENCE",
        "params": [{
            "datatype": "collection",
            "name": "eventobject"
        }, {
            "datatype": "string",
            "name": "x"
        }, {
            "datatype": "string",
            "name": "y"
        }],
        "contextObj": {
            "name": "frmEPS",
            "type": "forms",
            "platform": "",
            "KUID": "c49bbb3175be499d86d933cee301b3c4"
        },
        "language": "js",
        "actions": []
    }
}