{
    "AS_FlexContainer_dccde2f492b5488180aef45913449974": {
        "id": "AS_FlexContainer_dccde2f492b5488180aef45913449974",
        "type": "ACTION_SEQUENCE",
        "params": [{
            "datatype": "collection",
            "name": "eventobject"
        }],
        "contextObj": {
            "name": "frmLoginKA",
            "type": "forms",
            "platform": "",
            "KUID": "7b1aa8fceb6b4070833e9eab879b0e5e"
        },
        "language": "js",
        "actions": [{
            "id": "ADD_SNIPPET__cc1737f7f16c48fa864faae56d88fae7",
            "type": "ADD_SNIPPET",
            "codeSnippet": "startChatbotBeforeLogin();",
            "parentId": null,
            "callbackType": null
        }]
    }
}