{
    "AS_Form_ja8256911b054d4d8d0a37aad90bd121": {
        "id": "AS_Form_ja8256911b054d4d8d0a37aad90bd121",
        "type": "ACTION_SEQUENCE",
        "params": [{
            "datatype": "collection",
            "name": "eventobject"
        }],
        "contextObj": {
            "name": "frmEstatementLandingKA",
            "type": "forms",
            "platform": "",
            "KUID": "d1dcb94f4a054dda97d66cbdc216d96a"
        },
        "language": "js",
        "actions": [{
            "id": "ADD_SNIPPET__d47bf242277c42d6b0667a3a774517ab",
            "type": "ADD_SNIPPET",
            "codeSnippet": "/*if(frmEstatementLandingKA.txtEmail1.text!==null && frmEstatementLandingKA.txtEmail1.text!==\"\" && isValidEmaill(frmEstatementLandingKA.txtEmail1.text))\n{  \n  frmEstatementLandingKA.lblNext.skin = \"sknLblNextEnabled\";\n  frmEstatementLandingKA.lblTermsandConditionsCheckBox.text = \"p\";\n}else{\n  frmEstatementLandingKA.lblTermsandConditionsCheckBox.text = \"q\";\n  frmEstatementLandingKA.lblNext.skin =\"sknLblNextDisabled\";\n}*/\n\nfrmEstatementLandingKA.btn.setFocus(true);\nfrmEstatementLandingKA.richtxtTermsandCondition.text = \"<U>\"+geti18Value(\"i18n.tnc.cardrequest\")+\"</U>\";",
            "parentId": null,
            "callbackType": null
        }]
    }
}