{
    "AS_Form_f9bfa4fd68f54cdc8556034fe245ff03": {
        "id": "AS_Form_f9bfa4fd68f54cdc8556034fe245ff03",
        "type": "ACTION_SEQUENCE",
        "params": [{
            "datatype": "collection",
            "name": "eventobject"
        }],
        "contextObj": {
            "name": "frmDeviceRegistrationOptionsKA",
            "type": "forms",
            "platform": null,
            "KUID": "24f3bbc2ed074c75a9b6604d9e48a90c"
        },
        "language": "js",
        "actions": [{
            "id": "ADD_SNIPPET_ide_preShow_7ff4747efeb74c5cb83f9c015f4382ba",
            "type": "ADD_SNIPPET",
            "codeSnippet": "kony.print(\"Rempved\");",
            "callbackType": null
        }]
    }
}