{
    "AS_Form_ceb90b0b375e41e693fb17f3602dc616": {
        "id": "AS_Form_ceb90b0b375e41e693fb17f3602dc616",
        "type": "ACTION_SEQUENCE",
        "name": "AS_Form_UserSettingTouchIDPreShow",
        "params": [{
            "datatype": "collection",
            "name": "eventobject"
        }],
        "contextObj": {
            "name": "frmUserSettingsTouchIdKA",
            "type": "forms",
            "platform": "",
            "KUID": "16105f00f47f4b3aac423736a1b9dbdf"
        },
        "language": "js",
        "actions": [{
            "id": "ADD_SNIPPET__ieb34de4049143d886c7f5ea812f90fa",
            "type": "ADD_SNIPPET",
            "codeSnippet": "frmUserSettingsTouchIdKA.flxSwitchOffTouchLogin.accessibilityConfig = {\n\t\n\t\t\"a11yValue\": geti18Value(\"i18n.common.touchIDEnable\"),\n\t\t\"a11yLabel\": \"\",\n\t\t\"a11yHint\": \"\"\n\t\t};\nfrmUserSettingsTouchIdKA.flxSwitchOnTouchLogin.accessibilityConfig = {\n\t\n\t\t\"a11yValue\": geti18Value(\"i18n.common.touchIDUnable\"),\n\t\t\"a11yLabel\": \"\",\n\t\t\"a11yHint\": \"\"\n\t\t};\n// Edit for the Touch ID flexContainer\nfrmUserSettingsTouchIdKA.imgCloseTouchId.accessibilityConfig = {\n\t\n\t\t\"a11yValue\": geti18Value(\"i18n.termDeposit.close\"),\n\t\t\"a11yLabel\": \"\",\n\t\t\"a11yHint\": \"\"\n\t\t};\nfrmUserSettingsTouchIdKA.Image096dc60e703ce4f.accessibilityConfig = {\n\t\n\t\t\"a11yValue\": geti18Value(\"i18n.fingerprint.ICON\"),\n\t\t\"a11yLabel\": \"\",\n\t\t\"a11yHint\": \"\"\n\t\t};\n// Edit for the Touch ID flexContainer",
            "parentId": null,
            "callbackType": null
        }]
    }
}