{
    "AS_FlexScrollContainer_e902339cc2854a989ed9912c839c519c": {
        "id": "AS_FlexScrollContainer_e902339cc2854a989ed9912c839c519c",
        "type": "ACTION_SEQUENCE",
        "params": [{
            "datatype": "collection",
            "name": "eventobject"
        }],
        "language": "js",
        "actions": [{
            "id": "ADD_SNIPPET_ide_onScrolling_g4ac4c7c91ba4c1f8952fd4bc3bf0119",
            "type": "ADD_SNIPPET",
            "codeSnippet": "innerAccountScroll();",
            "callbackType": null
        }]
    }
}