{
    "AS_FlexContainer_cde86567dd5541c2bda13a5b86559f94": {
        "id": "AS_FlexContainer_cde86567dd5541c2bda13a5b86559f94",
        "type": "ACTION_SEQUENCE",
        "params": [{
            "datatype": "collection",
            "name": "eventobject"
        }],
        "language": "js",
        "actions": [{
            "id": "ADD_SNIPPET_ide_onClick_b8a400aab6b445a3ac082a750e4c4640",
            "type": "ADD_SNIPPET",
            "codeSnippet": "gblfrmName = \"\";\nadditionalValidationRdc(this,gotoDeposits);\n",
            "callbackType": null
        }]
    }
}