{
    "AS_FlexContainer_bdb0354048e14d6496e1056236c3f612": {
        "id": "AS_FlexContainer_bdb0354048e14d6496e1056236c3f612",
        "type": "ACTION_SEQUENCE",
        "params": [{
            "datatype": "collection",
            "name": "eventobject"
        }],
        "contextObj": {
            "name": "frmLoginKA",
            "type": "forms",
            "platform": "",
            "KUID": "7b1aa8fceb6b4070833e9eab879b0e5e"
        },
        "language": "js",
        "actions": []
    }
}