{
    "AS_FlexContainer_i288c2e1a4fb4e35b94231bb5c8df667": {
        "id": "AS_FlexContainer_i288c2e1a4fb4e35b94231bb5c8df667",
        "type": "ACTION_SEQUENCE",
        "params": [{
            "datatype": "collection",
            "name": "eventobject"
        }],
        "language": "js",
        "actions": [{
            "id": "ADD_SNIPPET_ide_onClick_afc2b94a24c1420bbb2e4e9c17c464f1",
            "type": "ADD_SNIPPET",
            "codeSnippet": "gblfrmName = \"\";\nadditionalValidationRdc(this,gotoDeposits);\n",
            "callbackType": null
        }]
    }
}