{
    "AS_FlexContainer_8abf7374d4e34c99a6bc6acced994785": {
        "id": "AS_FlexContainer_8abf7374d4e34c99a6bc6acced994785",
        "type": "ACTION_SEQUENCE",
        "params": [{
            "datatype": "collection",
            "name": "eventobject"
        }],
        "language": "js",
        "actions": [{
            "id": "ADD_SNIPPET_ide_onClick_c27bdaf5f04849648f5f2eafdf37428d",
            "type": "ADD_SNIPPET",
            "codeSnippet": "updateSecurityAletStatus(\"addressPhoneChanged\");",
            "callbackType": null
        }]
    }
}