{
    "AS_Form_hdd574f0a5954a188d7dbbb25b87943e": {
        "id": "AS_Form_hdd574f0a5954a188d7dbbb25b87943e",
        "type": "ACTION_SEQUENCE",
        "name": "AS_Form_deviceBack",
        "params": [{
            "datatype": "collection",
            "name": "eventobject"
        }],
        "contextObj": {
            "name": "frmStopCardKA",
            "type": "forms",
            "platform": "",
            "KUID": "d1990ea752394c34b740814066dc6ac7"
        },
        "language": "js",
        "actions": [{
            "id": "ADD_SNIPPET__hdd531b31b23435580f2191b3bf5c37b",
            "type": "ADD_SNIPPET",
            "codeSnippet": "doNothing();",
            "parentId": null,
            "callbackType": null
        }]
    }
}