{
    "AS_Form_e5359e1ac2a04ec3a1aaa731dec71c4d": {
        "id": "AS_Form_e5359e1ac2a04ec3a1aaa731dec71c4d",
        "type": "ACTION_SEQUENCE",
        "name": "AS_Form_frmFxRatePostShow",
        "params": [{
            "datatype": "collection",
            "name": "eventobject"
        }],
        "contextObj": {
            "name": "frmFxRate",
            "type": "forms",
            "platform": "",
            "KUID": "hecd02a154084a89904bda155d565470"
        },
        "language": "js",
        "actions": [{
            "id": "ADD_SNIPPET__f6053850619244eb80eab111323ee04c",
            "type": "ADD_SNIPPET",
            "codeSnippet": "frmFxRate.txtConvertedValue.isReadOnly = true;",
            "parentId": null,
            "callbackType": null
        }]
    }
}