{
    "AS_Form_980b115b0ca04bf5bdaa33c98d975247": {
        "id": "AS_Form_980b115b0ca04bf5bdaa33c98d975247",
        "type": "ACTION_SEQUENCE",
        "params": [{
            "datatype": "collection",
            "name": "eventobject"
        }],
        "contextObj": {
            "name": "frmConfirmDepositKA",
            "type": "forms",
            "platform": "",
            "KUID": "422237ff93274fe59fc6163e5e1f62cd"
        },
        "language": "js",
        "actions": [{
            "id": "ADD_SNIPPET__9ff4b16597114526a9ec6c8287b6415a",
            "type": "ADD_SNIPPET",
            "codeSnippet": "kony.print(\"Device Back\");",
            "parentId": null,
            "callbackType": null
        }]
    }
}