{
    "AS_FlexContainer_d0a3206f32dd4d3e8fbf899a995ff3aa": {
        "id": "AS_FlexContainer_d0a3206f32dd4d3e8fbf899a995ff3aa",
        "type": "ACTION_SEQUENCE",
        "params": [{
            "datatype": "collection",
            "name": "eventobject"
        }],
        "contextObj": {
            "name": "tabBarAccounts",
            "type": "templates",
            "platform": "",
            "KUID": "9ceb0802eab24c759c1e8b5a27a8bf7a"
        },
        "language": "js",
        "actions": [{
            "id": "ADD_SNIPPET__cd4d0c9556e044a2a0d03cf3c81c822f",
            "type": "ADD_SNIPPET",
            "codeSnippet": "gblfrmName = \"\";\ngotoDeposits();",
            "parentId": null,
            "callbackType": null
        }]
    }
}