{
    "AS_FlexContainer_a6922ef6bda24557995b7eff09e616e8": {
        "id": "AS_FlexContainer_a6922ef6bda24557995b7eff09e616e8",
        "type": "ACTION_SEQUENCE",
        "params": [{
            "datatype": "collection",
            "name": "eventobject"
        }],
        "contextObj": {
            "name": "frmUserSettingsSiri",
            "type": "forms",
            "platform": null,
            "KUID": "f6a73333c5b04d9f97a80b02ff57e6ae"
        },
        "language": "js",
        "actions": [{
            "id": "ADD_SNIPPET_ide_onClick_gbbb3ebd4c9e44dcb2e27137acdc4cb5",
            "type": "ADD_SNIPPET",
            "codeSnippet": "customAlertPopup(geti18Value(\"i18n.cards.Confirmation\"), kony.i18n.getLocalizedString(\"i18n.Siri.SureDisableText\"), enableSiri, popupCommonAlertDimiss, kony.i18n.getLocalizedString(\"i18n.common.YES\"), kony.i18n.getLocalizedString(\"i18n.common.NO\")); ",
            "callbackType": null
        }]
    }
}