{
    "AS_FlexContainer_be08217dfeea4ccf90df6d2e53ccb590": {
        "id": "AS_FlexContainer_be08217dfeea4ccf90df6d2e53ccb590",
        "type": "ACTION_SEQUENCE",
        "params": [{
            "datatype": "collection",
            "name": "eventobject"
        }],
        "language": "js",
        "actions": [{
            "id": "ADD_SNIPPET_ide_onClick_7aa32c6d57f644569e806c1130e3f9df",
            "type": "ADD_SNIPPET",
            "codeSnippet": "frmDepositPayLandingKA.flxCheckDepositNavOptKA.isVisible=false;",
            "callbackType": null
        }]
    }
}