{
    "AS_FlexContainer_c0f6d0e573724cb7a5ccd616fd6b1894": {
        "id": "AS_FlexContainer_c0f6d0e573724cb7a5ccd616fd6b1894",
        "type": "ACTION_SEQUENCE",
        "params": [{
            "datatype": "collection",
            "name": "eventobject"
        }],
        "language": "js",
        "actions": [{
            "id": "ADD_SNIPPET_ide_onClick_ce3ab35cd6df4a8abee395c95af20950",
            "type": "ADD_SNIPPET",
            "codeSnippet": "if(frmAuthorizationAlternatives.flxSwitchOff.isVisible === true){\n  frmAuthorizationAlternatives.flxSwitchOn.isVisible = true;\n frmAuthorizationAlternatives.flxSwitchOff.isVisible  = false;\n  var segLength = frmAuthorizationAlternatives.segAccounts.data.length;\n     var segArray = [];\n    kony.print(\"da---:\"+JSON.stringify(frmAuthorizationAlternatives.segAccounts.data));\n     for(var i = 0; i<segLength;i++){\n       var segData = frmAuthorizationAlternatives.segAccounts.data[i];\n        segData.lblIncommingTick.isVisible = true;\n       segArray.push(segData);\n         }\n   frmAuthorizationAlternatives.segAccounts.setData(segArray);\n  customAlertPopup(geti18Value(\"i18n.maps.Info\"), kony.i18n.getLocalizedString(\"i18n.showSwipeQuick.desc\"),popupCommonAlertDimiss,\"\");\n  //frmAuthorizationAlternatives.flxTransactionPreview.isVisible = true;\n\n}else{\n  frmAuthorizationAlternatives.flxSwitchOff.isVisible  = true;\n  frmAuthorizationAlternatives.flxSwitchOn.isVisible = false;\n  //frmAuthorizationAlternatives.flxTransactionPreview.isVisible = false;\n}"
        }]
    }
}