{
    "AS_FlexContainer_b53ce2a33a57478eaf3af5c5a8ffbcfd": {
        "id": "AS_FlexContainer_b53ce2a33a57478eaf3af5c5a8ffbcfd",
        "type": "ACTION_SEQUENCE",
        "params": [{
            "datatype": "collection",
            "name": "eventobject"
        }],
        "contextObj": {
            "name": "frmAddNewPrePayeeKA",
            "type": "forms",
            "platform": null,
            "KUID": "a843292d9c674ff7ba10a9b594b7e7e5"
        },
        "language": "js",
        "actions": [{
            "id": "ADD_SNIPPET_ide_onClick_c6a21e1126f7422db495e7cefc7601f9",
            "type": "ADD_SNIPPET",
            "codeSnippet": "if(JSON.stringify(kony.boj.Biller[kony.boj.selectedBillerType].selectedBillerCategory) == '{}'){\n  frmAddNewPrePayeeKA.flxUnderlineBillerCategory.skin = \"sknFlxOrangeLine\";\n  frmAddNewPrePayeeKA.flxUnderlineBillerName.skin = \"sknFlxOrangeLine\";\n}\nelse\n  kony.boj.callService(\"GetEfwBillerList\");",
            "callbackType": null
        }]
    }
}