{
    "AS_FlexContainer_fcde0d5315994e1a8d0a0cccc8bea1b0": {
        "id": "AS_FlexContainer_fcde0d5315994e1a8d0a0cccc8bea1b0",
        "type": "ACTION_SEQUENCE",
        "params": [{
            "datatype": "collection",
            "name": "eventobject"
        }],
        "contextObj": {
            "name": "frmEPS",
            "type": "forms",
            "platform": "",
            "KUID": "c49bbb3175be499d86d933cee301b3c4"
        },
        "language": "js",
        "actions": []
    }
}