{
    "AS_FlexContainer_c031418485a1484e9eb5bf9b1c1e6ab7": {
        "id": "AS_FlexContainer_c031418485a1484e9eb5bf9b1c1e6ab7",
        "type": "ACTION_SEQUENCE",
        "params": [{
            "datatype": "collection",
            "name": "eventobject"
        }],
        "contextObj": {
            "name": "frmCardsAddNickname",
            "type": "forms",
            "platform": null,
            "KUID": "d382c627ba0b45cfb446cc6dd8d8759e"
        },
        "language": "js",
        "actions": [{
            "id": "ADD_SNIPPET_ide_onClick_e4fb4278be234b7b864af1596e15632a",
            "type": "ADD_SNIPPET",
            "codeSnippet": "frmEditAccountSettings.flxAccountTransferSwitchOn.isVisible = true;\nfrmEditAccountSettings.flxAccountTransferSwitchOff.isVisible = false;\n"
        }]
    }
}