{
    "AS_Form_e5b00d71e5f040f883b75f4dfe934ce0": {
        "id": "AS_Form_e5b00d71e5f040f883b75f4dfe934ce0",
        "type": "ACTION_SEQUENCE",
        "name": "AS_Form_loginInitCall",
        "params": [{
            "datatype": "collection",
            "name": "eventobject"
        }],
        "contextObj": {
            "name": "frmLoginKA",
            "type": "forms",
            "platform": "",
            "KUID": "7b1aa8fceb6b4070833e9eab879b0e5e"
        },
        "language": "js",
        "actions": [{
            "id": "ADD_SNIPPET__cb49e7e9b9eb41b19d066c96c714654c",
            "type": "ADD_SNIPPET",
            "codeSnippet": "setGestureQuickPreview();",
            "parentId": null,
            "callbackType": null
        }]
    }
}