{
    "AS_Button_hac60c00e8d14eecb5e8a6e5f0c36b36": {
        "id": "AS_Button_hac60c00e8d14eecb5e8a6e5f0c36b36",
        "type": "ACTION_SEQUENCE",
        "name": "AS_gotoResgisterUserFromForgotPassword",
        "params": [{
            "datatype": "collection",
            "name": "eventobject"
        }],
        "language": "js",
        "actions": [{
            "id": "ADD_SNIPPET__cf9c28bdf10d46959d24209ea85380f2",
            "type": "ADD_SNIPPET",
            "codeSnippet": "gblFromModule = \"ForgotPassword\";\ngblReqField = \"Username\";\ninitialiseAndCallEnroll();\nfrmLoginKA.passwordTextField.text=\"\";",
            "parentId": null,
            "callbackType": null
        }]
    }
}