{
    "AS_FlexContainer_ef3d6e8f16734ee9832b58103b1c3d3a": {
        "id": "AS_FlexContainer_ef3d6e8f16734ee9832b58103b1c3d3a",
        "type": "ACTION_SEQUENCE",
        "name": "AS_gblsubacclistAccNumberStatement",
        "params": [{
            "datatype": "collection",
            "name": "eventobject"
        }],
        "language": "js",
        "actions": [{
            "id": "ADD_SNIPPET_ide_onClick_d020d8b690774eb380b2a76b3a812be6",
            "type": "ADD_SNIPPET",
            "codeSnippet": "gblsubacclist=\"AccNumberStatement\";\nfrmAccountType.show();",
            "callbackType": null,
            "disabled": true
        }]
    }
}