{
    "AS_Image_f8ab57d86b3f4af4aa92d413190063db": {
        "id": "AS_Image_f8ab57d86b3f4af4aa92d413190063db",
        "type": "ACTION_SEQUENCE",
        "params": [{
            "datatype": "collection",
            "name": "eventobject"
        }, {
            "datatype": "string",
            "name": "x"
        }, {
            "datatype": "string",
            "name": "y"
        }],
        "contextObj": {
            "type": "forms",
            "platform": "",
            "KUID": "dab7a50c55b94a12b3d961ae5bd49247"
        },
        "language": "js",
        "actions": [{
            "id": "ADD_SNIPPET__f8b31b102bae43ae9a0de67d70129131",
            "type": "ADD_SNIPPET",
            "codeSnippet": "kony.print(\"Removed\");",
            "parentId": null,
            "callbackType": null
        }]
    }
}