{
    "AS_Image_eb78e5b0eff448b9be22fff0d5cd46ad": {
        "id": "AS_Image_eb78e5b0eff448b9be22fff0d5cd46ad",
        "type": "ACTION_SEQUENCE",
        "params": [{
            "datatype": "collection",
            "name": "eventobject"
        }, {
            "datatype": "string",
            "name": "x"
        }, {
            "datatype": "string",
            "name": "y"
        }],
        "contextObj": {
            "name": "frmRecentTransactionDetailsKA",
            "type": "forms",
            "platform": "",
            "KUID": "3e75bf63a2d4443486447188bb14c36b"
        },
        "language": "js",
        "actions": [{
            "id": "ADD_SNIPPET__af078573e618482a9cf648670c3cca76",
            "type": "ADD_SNIPPET",
            "codeSnippet": "var vc=new kony.rb.frmRecentTransactionDetailsKAViewController();\nvc.onClickMessage();",
            "parentId": null,
            "callbackType": null
        }]
    }
}