{
    "AS_Image_003c8194cdaf4e5f92b6581d6a0a226d": {
        "id": "AS_Image_003c8194cdaf4e5f92b6581d6a0a226d",
        "type": "ACTION_SEQUENCE",
        "params": [{
            "datatype": "collection",
            "name": "eventobject"
        }, {
            "datatype": "string",
            "name": "x"
        }, {
            "datatype": "string",
            "name": "y"
        }],
        "language": "js",
        "actions": [{
            "id": "ADD_SNIPPET_ide_onTouchStart_453a17d258da4288aa88cbdc0c55da22",
            "type": "ADD_SNIPPET",
            "codeSnippet": "frmDepositPayLandingKA.flxCheckDepositNavOptKA.isVisible=true;\n",
            "callbackType": null
        }]
    }
}