{
    "AS_Image_72e25b55cf8941d7ace07f851fcbaf2b": {
        "id": "AS_Image_72e25b55cf8941d7ace07f851fcbaf2b",
        "type": "ACTION_SEQUENCE",
        "params": [{
            "datatype": "collection",
            "name": "eventobject"
        }, {
            "datatype": "string",
            "name": "x"
        }, {
            "datatype": "string",
            "name": "y"
        }],
        "contextObj": {
            "name": "frmAccountDetailKA",
            "type": "forms",
            "platform": "",
            "KUID": "5ed703cad63c441882fc4a36f5ea0c28"
        },
        "language": "js",
        "actions": [{
            "id": "ADD_SNIPPET__c52170bb3741496f93893ae0e1b9565b",
            "type": "ADD_SNIPPET",
            "codeSnippet": "//frmAccountDetailKA.flxAccountDetailNavOptKA.isVisible=true;\n//navOptForAccountDetails();\nfrmAccountDetailKA.flxAccountDetailNavOptKA.isVisible=true;",
            "parentId": null,
            "callbackType": null
        }]
    }
}