{
    "AS_Form_df2a3bdb176746cf9f7ce1925e4695fe": {
        "id": "AS_Form_df2a3bdb176746cf9f7ce1925e4695fe",
        "type": "ACTION_SEQUENCE",
        "name": "AS_initAddNewPayee",
        "params": [{
            "datatype": "collection",
            "name": "eventobject"
        }],
        "contextObj": {
            "name": "frmAddNewPayeeKA",
            "type": "forms",
            "platform": "",
            "KUID": "22b994296d374ff48427012b2b05feb7"
        },
        "language": "js",
        "actions": [{
            "id": "ADD_SNIPPET__915593f93b7b405f838c4175c7fb9950",
            "type": "ADD_SNIPPET",
            "codeSnippet": "",
            "parentId": null,
            "callbackType": null
        }]
    }
}