{
    "AS_Image_f2d515bd577d448a95ab317f8ac1a977": {
        "id": "AS_Image_f2d515bd577d448a95ab317f8ac1a977",
        "type": "ACTION_SEQUENCE",
        "params": [{
            "datatype": "collection",
            "name": "eventobject"
        }, {
            "datatype": "string",
            "name": "x"
        }, {
            "datatype": "string",
            "name": "y"
        }],
        "contextObj": {
            "type": "forms",
            "platform": "",
            "KUID": "f644133a06fe4ebb8fed2a0bbbe06db2"
        },
        "language": "js",
        "actions": [{
            "id": "ADD_SNIPPET__fe5a6bd3d6284560a3f55e1d18948d97",
            "type": "ADD_SNIPPET",
            "codeSnippet": "var vc=new kony.rb.frmSearchTransactionDetailsKAViewController();\nvc.onClickMessage();",
            "parentId": null,
            "callbackType": null
        }]
    }
}