{
    "AS_Label_ebe608dae7fc458fb6520a3b6df97a62": {
        "id": "AS_Label_ebe608dae7fc458fb6520a3b6df97a62",
        "type": "ACTION_SEQUENCE",
        "name": "AS_Label_OnTouchEndShowPassCreateUser",
        "params": [{
            "datatype": "collection",
            "name": "eventobject"
        }, {
            "datatype": "string",
            "name": "x"
        }, {
            "datatype": "string",
            "name": "y"
        }],
        "contextObj": {
            "name": "frmEnrolluserLandingKA",
            "type": "forms",
            "platform": "",
            "KUID": "de724966138b4e7c9bfdd35033a0bdb3"
        },
        "language": "js",
        "actions": [{
            "id": "ADD_SNIPPET__a72c9949eeab4519a8c92a4ca75798e0",
            "type": "ADD_SNIPPET",
            "codeSnippet": "var currentForm = kony.application.getCurrentForm();\nif((currentForm.id === \"frmEnrolluserLandingKA\") && currentForm.tbxPasswordKA.text !== \"\")\n  if (frmEnrolluserLandingKA.lblShowPass.text===\"A\")\n    {\n      frmEnrolluserLandingKA.tbxPasswordKA.secureTextEntry=false;\n      frmEnrolluserLandingKA.lblShowPass.text=\"B\";\n    }\n  else\n    {\n      frmEnrolluserLandingKA.tbxPasswordKA.secureTextEntry=true;\n      frmEnrolluserLandingKA.lblShowPass.text=\"A\";\n    }\n",
            "parentId": null,
            "callbackType": null
        }]
    }
}