{
    "AS_Label_id16a7d1cdf642f6a74222ac6c6a277c": {
        "id": "AS_Label_id16a7d1cdf642f6a74222ac6c6a277c",
        "type": "ACTION_SEQUENCE",
        "params": [{
            "datatype": "collection",
            "name": "eventobject"
        }, {
            "datatype": "string",
            "name": "x"
        }, {
            "datatype": "string",
            "name": "y"
        }],
        "contextObj": {
            "name": "frmAccountDetailKA",
            "type": "forms",
            "platform": "",
            "KUID": "5ed703cad63c441882fc4a36f5ea0c28"
        },
        "language": "js",
        "actions": [{
            "id": "ADD_SNIPPET__c2f68f2612c84f5581e9ca9e003cfc1f",
            "type": "ADD_SNIPPET",
            "codeSnippet": "frmAccountDetailKA.accountDetailsScrollContainer.setVisibility(false);\nfrmAccountDetailKA.flxLoansScreen.setVisibility(false);\nfrmAccountDetailKA.flxDealsScreen.setVisibility(true);\nfrmAccountDetailKA.flxDealsScreen.left=\"0%\";",
            "parentId": null,
            "callbackType": null
        }]
    }
}