{
    "AS_Label_f6ff722df7534bfcbb3b52e54fa2ffb1": {
        "id": "AS_Label_f6ff722df7534bfcbb3b52e54fa2ffb1",
        "type": "ACTION_SEQUENCE",
        "params": [{
            "datatype": "collection",
            "name": "eventobject"
        }, {
            "datatype": "string",
            "name": "x"
        }, {
            "datatype": "string",
            "name": "y"
        }],
        "language": "js",
        "actions": [{
            "id": "ADD_SNIPPET_ide_onTouchEnd_c52766ed5df6481da3fad0b926c48b04",
            "type": "ADD_SNIPPET",
            "codeSnippet": "try\n{\n  kony.phone.dial(bojcontactnumber);\n} \ncatch(err)\n{\n  kony.print(\"error in dial:: \"+err);\n}\n",
            "callbackType": null
        }]
    }
}