{
    "AS_Label_bc5da0260e7d48eeb402a9cb5811f3d4": {
        "id": "AS_Label_bc5da0260e7d48eeb402a9cb5811f3d4",
        "type": "ACTION_SEQUENCE",
        "params": [{
            "datatype": "collection",
            "name": "eventobject"
        }, {
            "datatype": "string",
            "name": "x"
        }, {
            "datatype": "string",
            "name": "y"
        }],
        "contextObj": {
            "name": "frmEnrolluserLandingKA",
            "type": "forms",
            "platform": "",
            "KUID": "de724966138b4e7c9bfdd35033a0bdb3"
        },
        "language": "js",
        "actions": [{
            "id": "ADD_SNIPPET__a3df9033521a409f90a92225b3359ac6",
            "type": "ADD_SNIPPET",
            "codeSnippet": "gblFromModule = \"RetriveUsername\";\nfrmRegisterUser.show();",
            "parentId": null,
            "callbackType": null
        }]
    }
}