{
    "AS_ListBox_hbf3fb50bc6b44b49bd6149c7de6dbfa": {
        "id": "AS_ListBox_hbf3fb50bc6b44b49bd6149c7de6dbfa",
        "type": "ACTION_SEQUENCE",
        "params": [{
            "datatype": "collection",
            "name": "eventobject"
        }],
        "contextObj": {
            "name": "frmAddExternalAccountKA",
            "type": "forms",
            "platform": "",
            "KUID": "4943cca5d62d4f0ca6f2e9ab47274db5"
        },
        "language": "js",
        "actions": [{
            "id": "ADD_SNIPPET_ide_onSelection_f32957feb63b484db963eb9e6077b09c",
            "type": "ADD_SNIPPET",
            "codeSnippet": "frmAddExternalAccountKA.tbxBankName.text = frmAddExternalAccountKA.ListBankName.selectedKeyValue[1];\nkony.boj.addBeneNextStatus();",
            "callbackType": null
        }]
    }
}