{
    "AS_TextField_c429df1fbad64580a9d467b7cf017182": {
        "id": "AS_TextField_c429df1fbad64580a9d467b7cf017182",
        "type": "ACTION_SEQUENCE",
        "name": "AS_onEndEditingAccNoAddBeneAndroid",
        "params": [{
            "datatype": "collection",
            "name": "eventobject"
        }, {
            "datatype": "string",
            "name": "changedtext"
        }],
        "language": "js",
        "actions": [{
            "id": "ADD_SNIPPET_ide_onEndEditing_a17bb2497683469fa1190191faf87bef",
            "type": "ADD_SNIPPET",
            "codeSnippet": "if(frmAddExternalAccountKA.externalAccountNumberTextField.text !== \"\"){\n  frmAddExternalAccountKA.flxUnderlineAccountNumber.skin = \"sknFlxGreenLine\";\n}else{\n  frmAddExternalAccountKA.flxUnderlineAccountNumber.skin = \"sknFlxOrangeLine\";\n}\n\nanimateLabel(\"DOWN\", \"lblAccountNumber\", frmAddExternalAccountKA.externalAccountNumberTextField.text);",
            "callbackType": null
        }]
    }
}