{
    "AS_TextField_c7724e7da56a49b6a847c57e95708963": {
        "id": "AS_TextField_c7724e7da56a49b6a847c57e95708963",
        "type": "ACTION_SEQUENCE",
        "name": "AS_onEndEditingAddr1AddBeneAndroid",
        "params": [{
            "datatype": "collection",
            "name": "eventobject"
        }, {
            "datatype": "string",
            "name": "changedtext"
        }],
        "language": "js",
        "actions": [{
            "id": "ADD_SNIPPET_ide_onEndEditing_bc96412c7dd64a3295c80c3ad66a2523",
            "type": "ADD_SNIPPET",
            "codeSnippet": "if(frmAddExternalAccountKA.tbxAddress1.text !== \"\"){\n  frmAddExternalAccountKA.flxUnderlineAddress1.skin = \"sknFlxGreenLine\";\n}else{\n  frmAddExternalAccountKA.flxUnderlineAddress1.skin = \"sknFlxOrangeLine\";\n}\n\nanimateLabel(\"DOWN\", \"lblAddress1\", frmAddExternalAccountKA.tbxAddress1.text);",
            "callbackType": null
        }]
    }
}