{
    "AS_TextField_df3218145a6c426f87c9a330100d1b79": {
        "id": "AS_TextField_df3218145a6c426f87c9a330100d1b79",
        "type": "ACTION_SEQUENCE",
        "name": "AS_onEndEditingAccountNumberAndroid",
        "params": [{
            "datatype": "collection",
            "name": "eventobject"
        }, {
            "datatype": "string",
            "name": "changedtext"
        }],
        "language": "js",
        "actions": [{
            "id": "ADD_SNIPPET_ide_onEndEditing_dd4f6f4671d04d498f4b5fded44cc52c",
            "type": "ADD_SNIPPET",
            "codeSnippet": "if(frmAddExternalAccountKA.externalAccountNumberTextField.text !== \"\"){\n  frmAddExternalAccountKA.flxUnderlineAccountNumber.skin = \"sknFlxGreenLine\";\n}else{\n  frmAddExternalAccountKA.flxUnderlineAccountNumber.skin = \"sknFlxOrangeLine\";\n}\n\nanimateLabel(\"DOWN\", \"lblAccountNumber\", frmAddExternalAccountKA.externalAccountNumberTextField.text);",
            "callbackType": null
        }]
    }
}