{
    "AS_Button_i5fea5cae22042bc8d50a546431cbf03": {
        "id": "AS_Button_i5fea5cae22042bc8d50a546431cbf03",
        "type": "ACTION_SEQUENCE",
        "name": "AS_onClickPostPaidManagePayee",
        "params": [{
            "datatype": "collection",
            "name": "eventobject"
        }],
        "contextObj": {
            "name": "frmManagePayeeKA",
            "type": "forms",
            "platform": "",
            "KUID": "794f84071c7c4320866cf3978ca5357e"
        },
        "language": "js",
        "actions": [{
            "id": "ADD_SNIPPET__fcc40835a65a46f4929df71ebeaea989",
            "type": "ADD_SNIPPET",
            "codeSnippet": "frmManagePayeeKA.btnAll.skin = \"slButtonWhiteTabDisabled\";\nfrmManagePayeeKA.btnPrePaid.skin = \"slButtonWhiteTabDisabled\";\nfrmManagePayeeKA.btnPostPaid.skin = \"slButtonWhiteTab\";\nselectedIndex_BULK_PAYMENT = [];\nvalidate_BULK_BILL_SELECTION();\nshow_BILLER_LIST(\"postpaid\");",
            "parentId": null,
            "callbackType": null
        }]
    }
}