{
    "AS_TextField_icbf023675ec4a2b94a0e89cba4c3073": {
        "id": "AS_TextField_icbf023675ec4a2b94a0e89cba4c3073",
        "type": "ACTION_SEQUENCE",
        "name": "AS_onTouchEndCityName",
        "params": [{
            "datatype": "collection",
            "name": "eventobject"
        }, {
            "datatype": "string",
            "name": "x"
        }, {
            "datatype": "string",
            "name": "y"
        }],
        "contextObj": {
            "name": "frmAddExternalAccountKA",
            "type": "forms",
            "platform": "",
            "KUID": "4943cca5d62d4f0ca6f2e9ab47274db5"
        },
        "language": "js",
        "actions": [{
            "id": "ADD_SNIPPET__g7b6cf49e3c5499cb86852b0bab4f107",
            "type": "ADD_SNIPPET",
            "codeSnippet": "kony.boj.addBeneficiaryAnimation(\"lblCityName\");\nfrmAddExternalAccountKA.flxUnderlineCityName.skin = \"sknFlxBlueLine\";",
            "parentId": null,
            "callbackType": null
        }]
    }
}