{
    "AS_Button_f8e4740106f5460a933d4f839a7c13e7": {
        "id": "AS_Button_f8e4740106f5460a933d4f839a7c13e7",
        "type": "ACTION_SEQUENCE",
        "name": "AS_onclickbtnMailRequestStaement",
        "params": [{
            "datatype": "collection",
            "name": "eventobject"
        }],
        "language": "js",
        "actions": [{
            "id": "ADD_SNIPPET_ide_onClick_h2b7dd65f3d84a149c388f9b9e0e4d09",
            "type": "ADD_SNIPPET",
            "codeSnippet": "if(frmRequestStatementAccounts.btnMail.text == \"s\"){\n  frmRequestStatementAccounts.btnMail.text = \"t\";\n  frmRequestStatementAccounts.btnBranch.text = \"s\";\n  frmRequestStatementAccounts.lblBranchValue.text = geti18Value(\"i18n.Map.Branchname\")\n  frmRequestStatementAccounts.flxBranch.setVisibility(false);\n  frmRequestStatementAccounts.flxAddressMail.setVisibility(true);\n  frmRequestStatementAccounts.lbllinee1.skin = \"sknFlxGreyLine\";\n}\nnextSkinCheckForRequestStaement();",
            "callbackType": null
        }]
    }
}