{
    "AS_TextField_j95852d9a84c49d3a769c1d1d8ae06d2": {
        "id": "AS_TextField_j95852d9a84c49d3a769c1d1d8ae06d2",
        "type": "ACTION_SEQUENCE",
        "name": "AS_onTouchEndNickName",
        "params": [{
            "datatype": "collection",
            "name": "eventobject"
        }, {
            "datatype": "string",
            "name": "x"
        }, {
            "datatype": "string",
            "name": "y"
        }],
        "contextObj": {
            "name": "frmAddExternalAccountKA",
            "type": "forms",
            "platform": "",
            "KUID": "4943cca5d62d4f0ca6f2e9ab47274db5"
        },
        "language": "js",
        "actions": [{
            "id": "ADD_SNIPPET__a73562eca43947ada1f78118a6dc6609",
            "type": "ADD_SNIPPET",
            "codeSnippet": "kony.boj.addBeneficiaryAnimation(\"lblBenficiryNickName\");\nfrmAddExternalAccountKA.flxUnderlineBenficiryNickName.skin = \"sknFlxBlueLine\";",
            "parentId": null,
            "callbackType": null
        }]
    }
}