{
    "AS_TextField_b87316127ce746d2b963172eb694dc2a": {
        "id": "AS_TextField_b87316127ce746d2b963172eb694dc2a",
        "type": "ACTION_SEQUENCE",
        "name": "AS_onEndEditingBeneRelationAddBeneAndroid",
        "params": [{
            "datatype": "collection",
            "name": "eventobject"
        }, {
            "datatype": "string",
            "name": "changedtext"
        }],
        "language": "js",
        "actions": [{
            "id": "ADD_SNIPPET_ide_onEndEditing_c9690186597c431ebdf29c40c6fe53ae",
            "type": "ADD_SNIPPET",
            "codeSnippet": "if(frmAddExternalAccountKA.tbxBeneRelation.text !== \"\"){\n  frmAddExternalAccountKA.flxUnderlineBeneRelation.skin = \"sknFlxGreenLine\";\n}else{\n  frmAddExternalAccountKA.flxUnderlineBeneRelation.skin = \"sknFlxOrangeLine\";\n}\n\nanimateLabel(\"DOWN\", \"lblBeneRelation\", frmAddExternalAccountKA.tbxBeneRelation.text);",
            "callbackType": null
        }]
    }
}