{
    "AS_TextField_f9b387b3d23f4bbca5341230ef029008": {
        "id": "AS_TextField_f9b387b3d23f4bbca5341230ef029008",
        "type": "ACTION_SEQUENCE",
        "name": "AS_onEndEditingAndroidFullNameAddBene",
        "params": [{
            "datatype": "collection",
            "name": "eventobject"
        }, {
            "datatype": "string",
            "name": "changedtext"
        }],
        "language": "js",
        "actions": [{
            "id": "ADD_SNIPPET_ide_onEndEditing_fe5437cb0baa40ef8a027f6cfb4549b9",
            "type": "ADD_SNIPPET",
            "codeSnippet": "// if(frmAddExternalAccountKA.txtBenficiryNameKA.text !== \"\"){\n//   frmAddExternalAccountKA.flxUnderlineBenficiryNameKA.skin = \"sknFlxGreenLine\";\n// }else{\n//   frmAddExternalAccountKA.flxUnderlineBenficiryNameKA.skin = \"sknFlxOrangeLine\";\n// }\nkony.boj.addBeneNextStatus();\nanimateLabel(\"DOWN\", \"lblBenficiryNameKA\", frmAddExternalAccountKA.txtBenficiryNameKA.text);\nkony.boj.addBeneficiaryAnimation(\"lblBenficiryNickName\");",
            "callbackType": null
        }]
    }
}