{
    "AS_Button_ef1d7687c2dc40818c312c5769ff0ea5": {
        "id": "AS_Button_ef1d7687c2dc40818c312c5769ff0ea5",
        "type": "ACTION_SEQUENCE",
        "name": "AS_onclickofCallConfirmOrderCheckBook",
        "params": [{
            "datatype": "collection",
            "name": "eventobject"
        }],
        "language": "js",
        "actions": [{
            "id": "ADD_SNIPPET_ide_onClick_i1ffd029fd244495aa7aec682af06eab",
            "type": "ADD_SNIPPET",
            "codeSnippet": " callConfirmOrderCheckBook();\n",
            "callbackType": null
        }]
    }
}