{
    "AS_TextField_j1ef35a01059446f980eaa83fe2973d8": {
        "id": "AS_TextField_j1ef35a01059446f980eaa83fe2973d8",
        "type": "ACTION_SEQUENCE",
        "name": "AS_onTouchEndAddress",
        "params": [{
            "datatype": "collection",
            "name": "eventobject"
        }, {
            "datatype": "string",
            "name": "x"
        }, {
            "datatype": "string",
            "name": "y"
        }],
        "contextObj": {
            "name": "frmAddExternalAccountKA",
            "type": "forms",
            "platform": "",
            "KUID": "4943cca5d62d4f0ca6f2e9ab47274db5"
        },
        "language": "js",
        "actions": [{
            "id": "ADD_SNIPPET__h912a522b6894762ad91ac21d5618b94",
            "type": "ADD_SNIPPET",
            "codeSnippet": "kony.boj.addBeneficiaryAnimation(\"lblAddressBene\");\nfrmAddExternalAccountKA.flxUnderlineAddressBene.skin = \"sknFlxBlueLine\";",
            "parentId": null,
            "callbackType": null
        }]
    }
}