{
    "AS_TextField_ed09446bab5f4124865def3096aafbbf": {
        "id": "AS_TextField_ed09446bab5f4124865def3096aafbbf",
        "type": "ACTION_SEQUENCE",
        "name": "AS_ontouchEndTXTAddressMailRequestStatement",
        "params": [{
            "datatype": "collection",
            "name": "eventobject"
        }, {
            "datatype": "string",
            "name": "x"
        }, {
            "datatype": "string",
            "name": "y"
        }],
        "contextObj": {
            "name": "frmRequestStatementAccounts",
            "type": "forms",
            "platform": "",
            "KUID": "gfecebeb3e284d22b50f99352c826586"
        },
        "language": "js",
        "actions": [{
            "id": "ADD_SNIPPET__a7d458a4676b441e81bf31998a007e53",
            "type": "ADD_SNIPPET",
            "codeSnippet": "animateLabel(\"UP\",\"lblAddressMail\",frmRequestStatementAccounts.txtAddressMail.text);",
            "parentId": null,
            "callbackType": null
        }]
    }
}