{
    "AS_Button_af1e16a18e254a7eb3bccc7c7134e02b": {
        "id": "AS_Button_af1e16a18e254a7eb3bccc7c7134e02b",
        "type": "ACTION_SEQUENCE",
        "name": "AS_onClickConfirmfrmConfirmPayBill",
        "params": [{
            "datatype": "collection",
            "name": "eventobject"
        }],
        "contextObj": {
            "name": "frmConfirmPayBill",
            "type": "forms",
            "platform": "",
            "KUID": "9244958e3f364c6b9e342b6d7ea74555"
        },
        "language": "js",
        "actions": [{
            "id": "ADD_SNIPPET__af5930a83eb14d29a93facb2a69d37b6",
            "type": "ADD_SNIPPET",
            "codeSnippet": "gblToOTPFrom = \"ConfirmPayBill\";\n//callRequestOTP();\nif(frmConfirmPayBill.flxTotalAmount.isVisible === true){\n  var amnt = frmConfirmPayBill.lblTotalAmount.text;\n  amnt = amnt.substring(0, amnt.length-4);\n  if(parseFloat(kony.store.getItem(\"BillPayfromAcc\").availableBalance) >= parseFloat(amnt) && kony.store.getItem(\"BillPayfromAcc\").ccydesc === \"JOD\"){\n      ShowLoadingScreen();\n      performBillPayPostpaid();\n  }else if(kony.store.getItem(\"BillPayfromAcc\").ccydesc !== \"JOD\"){\n  \t  ShowLoadingScreen();\n  \t  performBillPayPostpaid();\n  }else{\n      customAlertPopup(geti18Value(\"i18n.maps.Info\"), geti18Value(\"i18n.error.InsufficientFundInAccount\"), popupCommonAlertDimiss, \"\");\n  }\n}else{\n\tShowLoadingScreen();\n\tperformBillPayPostpaid();\n}",
            "parentId": null,
            "callbackType": null
        }]
    }
}