{
    "AS_TextField_e0a02c20e7804c4a950331627f1eac74": {
        "id": "AS_TextField_e0a02c20e7804c4a950331627f1eac74",
        "type": "ACTION_SEQUENCE",
        "name": "AS_onTextChangeAddressAddBiller",
        "params": [{
            "datatype": "collection",
            "name": "eventobject"
        }, {
            "datatype": "string",
            "name": "changedtext"
        }],
        "contextObj": {
            "name": "frmAddNewPayeeKA",
            "type": "forms",
            "platform": "",
            "KUID": "22b994296d374ff48427012b2b05feb7"
        },
        "language": "js",
        "actions": [{
            "id": "ADD_SNIPPET__b79be6bc986e413cbb6759cda1cfa371",
            "type": "ADD_SNIPPET",
            "codeSnippet": "kony.boj.storeDetailsAddBiller(\"Address\", frmAddNewPayeeKA.tbxAddress.text);\nif(kony.boj.isNextEnabledBiller())\n  frmAddNewPayeeKA.lblNext.skin = \"sknLblNextEnabled\";\nelse\n  frmAddNewPayeeKA.lblNext.skin = \"sknLblNextDisabled\";",
            "parentId": null,
            "callbackType": null
        }]
    }
}