{
    "AS_Button_de20b6a805694075a86822d8f3e2702a": {
        "id": "AS_Button_de20b6a805694075a86822d8f3e2702a",
        "type": "ACTION_SEQUENCE",
        "name": "AS_onClickPostPaidAddPayee",
        "params": [{
            "datatype": "collection",
            "name": "eventobject"
        }],
        "contextObj": {
            "name": "frmAddNewPayeeKA",
            "type": "forms",
            "platform": "",
            "KUID": "22b994296d374ff48427012b2b05feb7"
        },
        "language": "js",
        "actions": [{
            "id": "ADD_SNIPPET__hc2aabb80fc04bad8fedacf8fa9794c6",
            "type": "ADD_SNIPPET",
            "codeSnippet": "frmAddNewPayeeKA.btnPostPaid.skin = \"slButtonWhiteTab\";\nfrmAddNewPayeeKA.btnPrePaid.skin = \"slButtonWhiteTabDisabled\";\n\nkony.boj.selectedBillerType = \"PostPaid\";\n//kony.boj.restoreBillerTabDetails();\n//kony.boj.restoreTextboxAddBiller();",
            "parentId": null,
            "callbackType": null
        }]
    }
}