{
    "AS_FlexContainer_c17c8946ef2845008ba1bfaa51afc536": {
        "id": "AS_FlexContainer_c17c8946ef2845008ba1bfaa51afc536",
        "type": "ACTION_SEQUENCE",
        "name": "AS_onClickChangePass",
        "params": [{
            "datatype": "collection",
            "name": "eventobject"
        }],
        "contextObj": {
            "name": "frmSettingsKA",
            "type": "forms",
            "platform": "",
            "KUID": "hb0fb66c0c224ed284a1334d78669bfa"
        },
        "language": "js",
        "actions": [{
            "id": "ADD_SNIPPET__hb58de98b02d4ab8bcd22b809966a942",
            "type": "ADD_SNIPPET",
            "codeSnippet": "gblFromModule = \"ChangePassword\";\ngblToOTPFrom = \"ChangePassword\";\nShowLoadingScreen();\ninitialiseAndCallEnroll();",
            "parentId": null,
            "callbackType": null
        }]
    }
}