{
    "AS_TextField_b973966884fd4a23836cd027677e8543": {
        "id": "AS_TextField_b973966884fd4a23836cd027677e8543",
        "type": "ACTION_SEQUENCE",
        "name": "AS_onEndEditingAddress2iOS",
        "params": [{
            "datatype": "collection",
            "name": "eventobject"
        }, {
            "datatype": "string",
            "name": "changedtext"
        }],
        "contextObj": {
            "name": "frmAddExternalAccountKA",
            "type": "forms",
            "platform": "",
            "KUID": "4943cca5d62d4f0ca6f2e9ab47274db5"
        },
        "language": "js",
        "actions": [{
            "id": "ADD_SNIPPET_ide_onEndEditing_f3a1d3ae8dac4801ba524d2619c07e83",
            "type": "ADD_SNIPPET",
            "codeSnippet": "if(frmAddExternalAccountKA.tbxAddress2.text !== \"\"){\n  frmAddExternalAccountKA.flxUnderlineAddress2.skin = \"sknFlxGreenLine\";\n}else{\n  frmAddExternalAccountKA.flxUnderlineAddress2.skin = \"sknFlxOrangeLine\";\n}\n\nanimateLabel(\"DOWN\", \"lblAddress2\", frmAddExternalAccountKA.lblAddress2.text);",
            "callbackType": null
        }]
    }
}