{
    "AS_FlexContainer_fac03e0d581146919bd54a60614ce2b8": {
        "id": "AS_FlexContainer_fac03e0d581146919bd54a60614ce2b8",
        "type": "ACTION_SEQUENCE",
        "name": "AS_onClickFlxPIN",
        "params": [{
            "datatype": "collection",
            "name": "eventobject"
        }],
        "contextObj": {
            "name": "frmRegisterUser",
            "type": "forms",
            "platform": "",
            "KUID": "cd7432ec5087404590338186c94e35d2"
        },
        "language": "js",
        "actions": [{
            "id": "ADD_SNIPPET__a9adfb7be76f4fe9ae02e8e8c171e428",
            "type": "ADD_SNIPPET",
            "codeSnippet": "frmRegisterUser.txtPIN.setFocus(true);",
            "parentId": null,
            "callbackType": null
        }]
    }
}