{
    "AS_Button_icfdb0e4c4424163885f5e73c75f7d06": {
        "id": "AS_Button_icfdb0e4c4424163885f5e73c75f7d06",
        "type": "ACTION_SEQUENCE",
        "name": "AS_onClickAllShowBene",
        "params": [{
            "datatype": "collection",
            "name": "eventobject"
        }],
        "contextObj": {
            "name": "frmShowAllBeneficiary",
            "type": "forms",
            "platform": "",
            "KUID": "da135140bfd946caa325afeee19e7e04"
        },
        "language": "js",
        "actions": [{
            "id": "ADD_SNIPPET__d6ea7373ad99461194919655ed158874",
            "type": "ADD_SNIPPET",
            "codeSnippet": "kony.boj.addBeneVar.selectedType = \"BOJ\";\nkony.boj.setBeneData(\"ALL\");\nfrmShowAllBeneficiary.btnAll.skin = \"slButtonWhiteTab\";\nfrmShowAllBeneficiary.btnBOJ.skin = \"slButtonWhiteTabDisabled\";\nfrmShowAllBeneficiary.btnDomestic.skin = \"slButtonWhiteTabDisabled\";\nfrmShowAllBeneficiary.btnInternational.skin = \"slButtonWhiteTabDisabled\";",
            "parentId": null,
            "callbackType": null
        }]
    }
}