{
    "AS_TextField_be9aaea0f7ed4846b70d621bf4969c15": {
        "id": "AS_TextField_be9aaea0f7ed4846b70d621bf4969c15",
        "type": "ACTION_SEQUENCE",
        "name": "AS_onDoneEmailAddBene",
        "params": [{
            "datatype": "collection",
            "name": "eventobject"
        }, {
            "datatype": "string",
            "name": "changedtext"
        }],
        "language": "js",
        "actions": [{
            "id": "ADD_SNIPPET_ide_onDone_i318aa271fa64dc8b2a016efed50bc13",
            "type": "ADD_SNIPPET",
            "codeSnippet": "kony.boj.addBeneficiaryAnimation(\"lblBeneRelation\");",
            "callbackType": null
        }]
    }
}