{
    "AS_FlexContainer_bdb2e415284948929ceb83c73d370a9c": {
        "id": "AS_FlexContainer_bdb2e415284948929ceb83c73d370a9c",
        "type": "ACTION_SEQUENCE",
        "name": "AS_onCountryChangeBankAddBene",
        "params": [{
            "datatype": "collection",
            "name": "eventobject"
        }],
        "language": "js",
        "actions": [{
            "id": "ADD_SNIPPET_ide_onClick_g3190636192446538043f43504ae2a82",
            "type": "ADD_SNIPPET",
            "codeSnippet": "kony.boj.showSelectedDetailsFromBene(\"Country\", \"lblCountryNameKA\");",
            "callbackType": null
        }]
    }
}