{
    "AS_TextField_g73174f11e1845008bdeed5e297af2e1": {
        "id": "AS_TextField_g73174f11e1845008bdeed5e297af2e1",
        "type": "ACTION_SEQUENCE",
        "name": "AS_onEndEditingEmailAddBeneAndroid",
        "params": [{
            "datatype": "collection",
            "name": "eventobject"
        }, {
            "datatype": "string",
            "name": "changedtext"
        }],
        "language": "js",
        "actions": [{
            "id": "ADD_SNIPPET_ide_onEndEditing_fbc1aa06d04443619c98667c325dde3f",
            "type": "ADD_SNIPPET",
            "codeSnippet": "if(frmAddExternalAccountKA.tbxEmail.text !== \"\"){\n  frmAddExternalAccountKA.flxUnderlineEmail.skin = \"sknFlxGreenLine\";\n}else{\n  frmAddExternalAccountKA.flxUnderlineEmail.skin = \"sknFlxOrangeLine\";\n}\n\nanimateLabel(\"DOWN\", \"lblEmail\", frmAddExternalAccountKA.tbxEmail.text);",
            "callbackType": null
        }]
    }
}