{
    "AS_TextField_g9fb3b3833144211b28dd2c6447f38c4": {
        "id": "AS_TextField_g9fb3b3833144211b28dd2c6447f38c4",
        "type": "ACTION_SEQUENCE",
        "name": "AS_onTextChangeEmailAddBene",
        "params": [{
            "datatype": "collection",
            "name": "eventobject"
        }, {
            "datatype": "string",
            "name": "changedtext"
        }],
        "language": "js",
        "actions": [{
            "id": "ADD_SNIPPET_ide_onTextChange_fc430e424c8d4a29aa193713f8b911f4",
            "type": "ADD_SNIPPET",
            "codeSnippet": "if(frmAddExternalAccountKA.tbxEmail.text !== \"\"){\n  frmAddExternalAccountKA.flxUnderlineEmail.skin = \"sknFlxGreenLine\";\n}else{\n  frmAddExternalAccountKA.flxUnderlineEmail.skin = \"sknFlxOrangeLine\";\n}\nkony.boj.addBeneNextStatus();\nif(true){\n  //frmEnrolluserLandingKA.lblNext.skin = \"sknLblNextEnabled\";\n}\nelse{\n // frmEnrolluserLandingKA.lblNext.skin = \"sknLblNextDisabled\";\n}\n",
            "callbackType": null
        }]
    }
}