{
    "AS_Segment_h7206b918d694d1a9eca61b86efd1a18": {
        "id": "AS_Segment_h7206b918d694d1a9eca61b86efd1a18",
        "type": "ACTION_SEQUENCE",
        "name": "AS_onClickServiceTypeSeg",
        "params": [{
            "datatype": "collection",
            "name": "eventobject"
        }, {
            "datatype": "number",
            "name": "sectionNumber"
        }, {
            "datatype": "number",
            "name": "rowNumber"
        }],
        "language": "js",
        "actions": [{
            "id": "ADD_SNIPPET_ide_onRowClick_fa597184ab50411ab8a2f7612771e03e",
            "type": "ADD_SNIPPET",
            "codeSnippet": "// onClickPopUpSegmentQuickPay();\nkony.boj.onSegmentClickBiller(frmBillerListForm.segDetails.selectedRowItems[0]);",
            "callbackType": null
        }]
    }
}