{
    "AS_TextField_if2730e9888e4ae8b449b211f4c46bc1": {
        "id": "AS_TextField_if2730e9888e4ae8b449b211f4c46bc1",
        "type": "ACTION_SEQUENCE",
        "name": "AS_onEndEditingAddress1iOS",
        "params": [{
            "datatype": "collection",
            "name": "eventobject"
        }, {
            "datatype": "string",
            "name": "changedtext"
        }],
        "contextObj": {
            "name": "frmAddExternalAccountKA",
            "type": "forms",
            "platform": "",
            "KUID": "4943cca5d62d4f0ca6f2e9ab47274db5"
        },
        "language": "js",
        "actions": [{
            "id": "ADD_SNIPPET_ide_onEndEditing_a8973bc46fec4533900a97b51ebfcd9b",
            "type": "ADD_SNIPPET",
            "codeSnippet": "if(frmAddExternalAccountKA.tbxAddress1.text !== \"\"){\n  frmAddExternalAccountKA.flxUnderlineAddress1.skin = \"sknFlxGreenLine\";\n}else{\n  frmAddExternalAccountKA.flxUnderlineAddress1.skin = \"sknFlxOrangeLine\";\n}\n\nanimateLabel(\"DOWN\", \"lblAddress1\", frmAddExternalAccountKA.tbxAddress1.text);",
            "callbackType": null
        }]
    }
}