{
    "AS_Button_cd85e9f2430a46a69f35f3755ccec06a": {
        "id": "AS_Button_cd85e9f2430a46a69f35f3755ccec06a",
        "type": "ACTION_SEQUENCE",
        "name": "AS_onClickINTShowBene",
        "params": [{
            "datatype": "collection",
            "name": "eventobject"
        }],
        "contextObj": {
            "name": "frmShowAllBeneficiary",
            "type": "forms",
            "platform": "",
            "KUID": "da135140bfd946caa325afeee19e7e04"
        },
        "language": "js",
        "actions": [{
            "id": "ADD_SNIPPET__d04b5e3953934551bd844ec6b8394b1d",
            "type": "ADD_SNIPPET",
            "codeSnippet": "kony.boj.addBeneVar.selectedType = \"INT\";\nkony.boj.setBeneData(\"ITB\");\nfrmShowAllBeneficiary.btnAll.skin = \"slButtonWhiteTabDisabled\";\nfrmShowAllBeneficiary.btnBOJ.skin = \"slButtonWhiteTabDisabled\";\nfrmShowAllBeneficiary.btnDomestic.skin = \"slButtonWhiteTabDisabled\";\nfrmShowAllBeneficiary.btnInternational.skin = \"slButtonWhiteTab\";",
            "parentId": null,
            "callbackType": null
        }]
    }
}