{
    "AS_TextField_e6e63e9788784f9893cd20e740072065": {
        "id": "AS_TextField_e6e63e9788784f9893cd20e740072065",
        "type": "ACTION_SEQUENCE",
        "name": "AS_onEndEditingBankNameIntAndroidAddBene",
        "params": [{
            "datatype": "collection",
            "name": "eventobject"
        }, {
            "datatype": "string",
            "name": "changedtext"
        }],
        "contextObj": {
            "name": "frmAddExternalAccountKA",
            "type": "forms",
            "platform": "",
            "KUID": "4943cca5d62d4f0ca6f2e9ab47274db5"
        },
        "language": "js",
        "actions": [{
            "id": "ADD_SNIPPET__ib9abd724c6047dd952c3233807b421f",
            "type": "ADD_SNIPPET",
            "codeSnippet": "kony.boj.addBeneNextStatus();\nanimateLabel(\"DOWN\", \"lblBankNameInt\", frmAddExternalAccountKA.tbxBankNameInt.text);\nkony.boj.addBeneficiaryAnimation(\"lblCityBank\");",
            "parentId": null,
            "callbackType": null
        }]
    }
}