{
    "AS_Button_b9d3e0cdc22640f29acff519484908b6": {
        "id": "AS_Button_b9d3e0cdc22640f29acff519484908b6",
        "type": "ACTION_SEQUENCE",
        "name": "AS_onINTClickAddBene",
        "params": [{
            "datatype": "collection",
            "name": "eventobject"
        }],
        "contextObj": {
            "name": "frmAddExternalAccountKA",
            "type": "forms",
            "platform": "",
            "KUID": "4943cca5d62d4f0ca6f2e9ab47274db5"
        },
        "language": "js",
        "actions": [{
            "id": "ADD_SNIPPET__ec78010031934e259b09bb2f1698fdce",
            "type": "ADD_SNIPPET",
            "codeSnippet": "kony.boj.displayParameter(\"INT\");",
            "parentId": null,
            "callbackType": null
        }]
    }
}