{
    "AS_ListBox_d1b297d04e1f4e6492dd03809a3f85cb": {
        "id": "AS_ListBox_d1b297d04e1f4e6492dd03809a3f85cb",
        "type": "ACTION_SEQUENCE",
        "name": "AS_onCountrySelect",
        "params": [{
            "datatype": "collection",
            "name": "eventobject"
        }],
        "contextObj": {
            "name": "frmAddExternalAccountKA",
            "type": "forms",
            "platform": "",
            "KUID": "4943cca5d62d4f0ca6f2e9ab47274db5"
        },
        "language": "js",
        "actions": [{
            "id": "ADD_SNIPPET__i59bb2d6b4044ab4929f3c2a71889224",
            "type": "ADD_SNIPPET",
            "codeSnippet": "frmAddExternalAccountKA.lblCountryNameKA.text = frmAddExternalAccountKA.ListCountryKA.selectedKeyValue[1];\nkony.boj.addBeneNextStatus();",
            "parentId": null,
            "callbackType": null
        }]
    }
}