{
    "AS_Button_bfe435d2d5a1426188620610f29e4cb8": {
        "id": "AS_Button_bfe435d2d5a1426188620610f29e4cb8",
        "type": "ACTION_SEQUENCE",
        "name": "AS_onSendMoneyClick",
        "params": [{
            "datatype": "collection",
            "name": "eventobject"
        }],
        "contextObj": {
            "name": "frmPaymentDashboard",
            "type": "forms",
            "platform": "",
            "KUID": "j5584f57cd764e66adb4087c6fc15f67"
        },
        "language": "js",
        "actions": [{
            "id": "ADD_SNIPPET__b35b465d6abf4c8a8f27e8bdfce35b99",
            "type": "ADD_SNIPPET",
            "codeSnippet": "removeDatafrmTransfersform();\nmakeInlineErrorsTransfersInvisible();\ngblTModule=\"send\";\ngetAllAccounts();",
            "parentId": null,
            "callbackType": null
        }]
    }
}