{
    "AS_TextField_b3023ff282ae4812ab64dd3b1a69f124": {
        "id": "AS_TextField_b3023ff282ae4812ab64dd3b1a69f124",
        "type": "ACTION_SEQUENCE",
        "name": "AS_onEndEditingNickNameAddBillerAndroid",
        "params": [{
            "datatype": "collection",
            "name": "eventobject"
        }, {
            "datatype": "string",
            "name": "changedtext"
        }],
        "contextObj": {
            "name": "frmAddNewPayeeKA",
            "type": "forms",
            "platform": "",
            "KUID": "22b994296d374ff48427012b2b05feb7"
        },
        "language": "js",
        "actions": [{
            "id": "ADD_SNIPPET__da6fb659f852491890cabb8056c57bc4",
            "type": "ADD_SNIPPET",
            "codeSnippet": "animateLabel(\"DOWN\", \"lblNickName\",frmAddNewPayeeKA.tbxNickName.text);",
            "parentId": null,
            "callbackType": null
        }]
    }
}