{
    "AS_TextField_ea7f25c0ddeb4a0cb14ec205d66c8e0f": {
        "id": "AS_TextField_ea7f25c0ddeb4a0cb14ec205d66c8e0f",
        "type": "ACTION_SEQUENCE",
        "name": "AS_onDoneTbxBiller",
        "params": [{
            "datatype": "collection",
            "name": "eventobject"
        }, {
            "datatype": "string",
            "name": "changedtext"
        }],
        "contextObj": {
            "name": "frmNewBillKA",
            "type": "forms",
            "platform": "",
            "KUID": "94b57de480514c9f98e1f6979b71a37b"
        },
        "language": "js",
        "actions": [{
            "id": "ADD_SNIPPET__b797c7f6bbdf4950b02cb81b91dd9658",
            "type": "ADD_SNIPPET",
            "codeSnippet": "animateLabel(\"DOWN\",\"lblBillerNumber\", frmNewBillKA.tbxBillerNumber.text);\nanimateLabel(\"UP\",\"lblAmount\",frmNewBillKA.tbxAmount.text);\nnextFromNewBillScreen();",
            "parentId": null,
            "callbackType": null
        }]
    }
}