{
    "AS_TextField_gd3503316be34331a77cb94def2709d2": {
        "id": "AS_TextField_gd3503316be34331a77cb94def2709d2",
        "type": "ACTION_SEQUENCE",
        "name": "AS_onEndEditingDescA",
        "params": [{
            "datatype": "collection",
            "name": "eventobject"
        }, {
            "datatype": "string",
            "name": "changedtext"
        }],
        "contextObj": {
            "name": "frmNewTransferKA",
            "type": "forms",
            "platform": "",
            "KUID": "2ac343500306428da0ceef91a3b44d18"
        },
        "language": "js",
        "actions": [{
            "id": "ADD_SNIPPET__d3a4251ba78d4bb3afddfac35f7c9266",
            "type": "ADD_SNIPPET",
            "codeSnippet": "animateLabel(\"DOWN\",\"lblDescription\",frmNewTransferKA.txtDesc.text);",
            "parentId": null,
            "callbackType": null
        }]
    }
}