{
    "AS_TextField_c0ff511909ad44f1ae600c8e9b5a5380": {
        "id": "AS_TextField_c0ff511909ad44f1ae600c8e9b5a5380",
        "type": "ACTION_SEQUENCE",
        "name": "AS_onEndEditingAddressiOS",
        "params": [{
            "datatype": "collection",
            "name": "eventobject"
        }, {
            "datatype": "string",
            "name": "changedtext"
        }],
        "language": "js",
        "actions": [{
            "id": "ADD_SNIPPET_ide_onEndEditing_eff8fe839c744c8db511562febb49b48",
            "type": "ADD_SNIPPET",
            "codeSnippet": "kony.boj.addBeneNextStatus();\nanimateLabel(\"DOWN\", \"lblAddressBene\", frmAddExternalAccountKA.tbxAddressBene.text);\nif(kony.boj.addBeneVar.selectedType === \"DOM\")\n  kony.boj.addBeneficiaryAnimation(\"lblAccountNumber\");\nelse\n  kony.boj.addBeneficiaryAnimation(\"lblCityName\");",
            "callbackType": null
        }]
    }
}