{
    "AS_Form_e1be7a4a05554298be877b4310e9fced": {
        "id": "AS_Form_e1be7a4a05554298be877b4310e9fced",
        "type": "ACTION_SEQUENCE",
        "name": "AS_preShowAddNewPayee",
        "params": [{
            "datatype": "collection",
            "name": "eventobject"
        }],
        "contextObj": {
            "name": "frmAddNewPayeeKA",
            "type": "forms",
            "platform": "",
            "KUID": "22b994296d374ff48427012b2b05feb7"
        },
        "language": "js",
        "actions": [{
            "id": "ADD_SNIPPET__544ce18d056b4f48990147bc77063f8e",
            "type": "ADD_SNIPPET",
            "codeSnippet": "// frmAddNewPayeeKA.flxScrollCompanyListKA.isVisible = false;\n// frmAddNewPayeeKA.tboxReenterAccountNumberKA.text = \"\";\n// populateCompanyList();\nif(kony.boj.BillerResetFlag){\n  frmAddNewPayeeKA.lblTitle.text = geti18Value(\"i18n.billsPay.AddNewBill\");\n  frmAddNewPayeeKA.lblNickName.skin = \"sknLblNextDisabled\";\n  frmAddNewPayeeKA.lblBillerNumber.skin = \"sknLblNextDisabled\";\n  frmAddNewPayeeKA.lblNickName.top = \"40%\";\n  frmAddNewPayeeKA.lblBillerNumber.top = \"35%\";\n  frmAddNewPayeeKA.lblArrowServiceType.isVisible = true;\n  frmAddNewPayeeKA.flxConfirmPopUp.isVisible = false;\n  frmAddNewPayeeKA.lblEditBillerNameTitile.isVisible = false;\n  frmAddNewPayeeKA.lblEditBillerServiceTypeTitle.isVisible = false;\n  frmAddNewPayeeKA.flxFormMain.isVisible  =true;\n  frmAddNewPayeeKA.lblArrowBillerName.isVisible = true;\n  frmAddNewPayeeKA.flxServiceType.setEnabled(true);\n  frmAddNewPayeeKA.flxBillerNumber.setEnabled(true);\n  frmAddNewPayeeKA.btnPostPaid.setEnabled(true);\n  kony.boj.selectedBillerType = \"PostPaid\";\n  kony.boj.resetSelectedItemsBiller(\"PostPaid\");\n  kony.boj.resetSelectedItemsBiller(\"PrePaid\");\n  kony.boj.resetBiller();\n}\n\nif(kony.boj.addBillerFromQuickPay){\n  frmAddNewPayeeKA.lblTitle.text = geti18Value(\"i18n.billsPay.AddNewBill\");\n  frmAddNewPayeeKA.flxConfirmPopUp.isVisible = false;\n  frmAddNewPayeeKA.flxFormMain.isVisible  =true;\n  frmAddNewPayeeKA.flxServiceType.setEnabled(true);\n  frmAddNewPayeeKA.flxBillerNumber.setEnabled(true);\n  kony.boj.partialResetBiller();\n}\n\n",
            "parentId": null,
            "callbackType": null
        }]
    }
}