{
    "AS_RadioButtonGroup_j2cf187be0a842a29e5ce8ba9f90c12f": {
        "id": "AS_RadioButtonGroup_j2cf187be0a842a29e5ce8ba9f90c12f",
        "type": "ACTION_SEQUENCE",
        "name": "AS_RadioButtonGroup_ReasonSelection",
        "params": [{
            "datatype": "collection",
            "name": "eventobject"
        }],
        "contextObj": {
            "name": "PopupCancelAndReplaceCard",
            "type": "popups",
            "platform": "",
            "KUID": "a0af01d7473c46eba7ba3fb94bfdcfce"
        },
        "language": "js",
        "actions": [{
            "id": "ADD_SNIPPET__fa34fff3cf834e3aa2f3e00a331f8376",
            "type": "ADD_SNIPPET",
            "codeSnippet": "//selectCancelOrReplaceCard();\n\nshowDeliveryCardReason();",
            "parentId": null,
            "callbackType": null
        }]
    }
}