{
    "AS_RadioButtonGroup_e83e44009225427490df4b2f4ce3290d": {
        "id": "AS_RadioButtonGroup_e83e44009225427490df4b2f4ce3290d",
        "type": "ACTION_SEQUENCE",
        "params": [{
            "datatype": "collection",
            "name": "eventobject"
        }],
        "language": "js",
        "actions": [{
            "id": "ADD_SNIPPET_ide_onSelection_c61c84344ed940cc8a6a8a82c73ce124",
            "type": "ADD_SNIPPET",
            "codeSnippet": "onClickRadioBtnIphone();",
            "callbackType": null
        }]
    }
}