{
    "AS_RadioButtonGroup_c91ab81470d9441abea557e0b4c9b9e2": {
        "id": "AS_RadioButtonGroup_c91ab81470d9441abea557e0b4c9b9e2",
        "type": "ACTION_SEQUENCE",
        "params": [{
            "datatype": "collection",
            "name": "eventobject"
        }],
        "language": "js",
        "actions": [{
            "id": "ADD_SNIPPET__889b3cefee8849e58e0925e33378a7ca",
            "type": "ADD_SNIPPET",
            "codeSnippet": "onClickRadioBtnIphone();",
            "parentId": null,
            "callbackType": null
        }]
    }
}