{
    "AS_Label_e85e01824c7e4fb383689d2d25e8f5ea": {
        "id": "AS_Label_e85e01824c7e4fb383689d2d25e8f5ea",
        "type": "ACTION_SEQUENCE",
        "name": "AS_registerOnNextClick",
        "params": [{
            "datatype": "collection",
            "name": "eventobject"
        }, {
            "datatype": "string",
            "name": "x"
        }, {
            "datatype": "string",
            "name": "y"
        }],
        "contextObj": {
            "name": "frmEnrolluserLandingKA",
            "type": "forms",
            "platform": "",
            "KUID": "de724966138b4e7c9bfdd35033a0bdb3"
        },
        "language": "js",
        "actions": [{
            "id": "ADD_SNIPPET__h75aaca0cc1844559af3632eeabe0f43",
            "type": "ADD_SNIPPET",
            "codeSnippet": "OnclicknextOnuserSCreen();",
            "parentId": null,
            "callbackType": null
        }]
    }
}