{
    "AS_Segment_jd5e2be810884ca6a3cccb6777153212": {
        "id": "AS_Segment_jd5e2be810884ca6a3cccb6777153212",
        "type": "ACTION_SEQUENCE",
        "name": "AS_Segment_dealsRowClickNew",
        "params": [{
            "datatype": "collection",
            "name": "eventobject"
        }, {
            "datatype": "number",
            "name": "sectionNumber"
        }, {
            "datatype": "number",
            "name": "rowNumber"
        }],
        "contextObj": {
            "name": "frmAccountsLandingKA",
            "type": "forms",
            "platform": "",
            "KUID": "d62a2a0906c64d2281addc95893a6544"
        },
        "language": "js",
        "actions": [{
            "id": "ADD_SNIPPET__b94585fc94fb4c939040ee1486880c64",
            "type": "ADD_SNIPPET",
            "codeSnippet": "var rowIndex = frmAccountsLandingKA.segAccountsKADeals.selectedRowIndex[1];\nkony.print(\"Selected rowIndex::\"+rowIndex)\nvar context = { \"sectionIndex\" : 0,\n               \"rowIndex\" : rowIndex,\n               \"widgetInfo\" : { \"id\" : \"segAccountsKADeals\"}};\n\nonheaderDashboard(frmAccountsLandingKA.segAccountsKADeals.data, context);\n",
            "parentId": null,
            "callbackType": null
        }]
    }
}