{
    "AS_Segment_j53c5668c7d3470faeb19f0e4e903b74": {
        "id": "AS_Segment_j53c5668c7d3470faeb19f0e4e903b74",
        "type": "ACTION_SEQUENCE",
        "params": [{
            "datatype": "collection",
            "name": "eventobject"
        }, {
            "datatype": "number",
            "name": "sectionNumber"
        }, {
            "datatype": "number",
            "name": "rowNumber"
        }],
        "contextObj": {
            "name": "frmNewBillKA",
            "type": "forms",
            "platform": "",
            "KUID": "94b57de480514c9f98e1f6979b71a37b"
        },
        "language": "js",
        "actions": [{
            "id": "ADD_SNIPPET__cf754417f0484116b42db50f7d25cfa6",
            "type": "ADD_SNIPPET",
            "codeSnippet": "kony.print(\"Segment on click\");\nonClickPopUpSegmentQuickPay();",
            "parentId": null,
            "callbackType": null
        }]
    }
}