{
    "AS_Switch_c4f88272967d4918a8317f7dfc6216a1": {
        "id": "AS_Switch_c4f88272967d4918a8317f7dfc6216a1",
        "type": "ACTION_SEQUENCE",
        "params": [{
            "datatype": "collection",
            "name": "eventobject"
        }, {
            "datatype": "string",
            "name": "x"
        }, {
            "datatype": "string",
            "name": "y"
        }],
        "contextObj": {
            "name": "frmUserSettingsPinLoginKA",
            "type": "forms",
            "platform": null,
            "KUID": "d6efcea46d734da8bf7a8f21578e100d"
        },
        "language": "js",
        "actions": [{
            "id": "ADD_SNIPPET_ide_onTouchEnd_g423952e31df433ea9a78f35f92f6a7c",
            "type": "ADD_SNIPPET",
            "codeSnippet": "touchIdSwitchOnTouchEnd();",
            "callbackType": null
        }]
    }
}