{
    "AS_Switch_319bbb9fadcc483baea4498ac77d8e38": {
        "id": "AS_Switch_319bbb9fadcc483baea4498ac77d8e38",
        "type": "ACTION_SEQUENCE",
        "params": [{
            "datatype": "collection",
            "name": "eventobject"
        }],
        "contextObj": {
            "name": "frmLoginKA",
            "type": "forms",
            "platform": "",
            "KUID": "7b1aa8fceb6b4070833e9eab879b0e5e"
        },
        "language": "js",
        "actions": [{
            "id": "ADD_SNIPPET__3c3147d02e7b4fd28f818bb663dcad30",
            "type": "ADD_SNIPPET",
            "codeSnippet": "//remembeMeOption();\nkony.print(\"Removed\");",
            "parentId": null,
            "callbackType": null
        }]
    }
}