{
    "AS_Switch_j9c578f503304ba3952f4fce6e46b1eb": {
        "id": "AS_Switch_j9c578f503304ba3952f4fce6e46b1eb",
        "type": "ACTION_SEQUENCE",
        "params": [{
            "datatype": "collection",
            "name": "eventobject"
        }],
        "language": "js",
        "actions": [{
            "id": "ADD_SNIPPET_ide_onSlide_c846fed97b494e82bd1a0513769b3b8e",
            "type": "ADD_SNIPPET",
            "codeSnippet": "if(frmAuthorizationAlternatives.flxQuickBalance.height === \"8%\"){\n  frmAuthorizationAlternatives.flxQuickBalance.height = \"40%\";\n  addDatatoSegQuickBalance(1);\n}\nelse{\n  frmAuthorizationAlternatives.flxQuickBalance.height = \"8%\";\n  addDatatoSegQuickBalance(0);\n} \n",
            "callbackType": null
        }]
    }
}