{
    "AS_Switch_d9a9b3cc0c9d48278126fbfd89624f35": {
        "id": "AS_Switch_d9a9b3cc0c9d48278126fbfd89624f35",
        "type": "ACTION_SEQUENCE",
        "params": [{
            "datatype": "collection",
            "name": "eventobject"
        }, {
            "datatype": "string",
            "name": "x"
        }, {
            "datatype": "string",
            "name": "y"
        }],
        "contextObj": {
            "name": "frmDeviceregistrarionSuccessKA",
            "type": "forms",
            "platform": "",
            "KUID": "71f8ab34e5b2429c81c09a27704cb4a1"
        },
        "language": "js",
        "actions": [{
            "id": "ADD_SNIPPET__b41f62aa5d834c1fb91946f2f16cc3df",
            "type": "ADD_SNIPPET",
            "codeSnippet": "updateStatusforPin(\"isFacialAuthEnabledFlag\",\"enableFaceIdSwitch\");",
            "parentId": null,
            "callbackType": null
        }]
    }
}