{
    "AS_Segment_f1a7c10249b142ee9ce044584990aece": {
        "id": "AS_Segment_f1a7c10249b142ee9ce044584990aece",
        "type": "ACTION_SEQUENCE",
        "params": [{
            "datatype": "collection",
            "name": "eventobject"
        }, {
            "datatype": "number",
            "name": "sectionNumber"
        }, {
            "datatype": "number",
            "name": "rowNumber"
        }],
        "language": "js",
        "actions": [{
            "id": "ADD_SNIPPET_ide_onRowClick_cbcb40b701a741cebb8dcf60a0cdcff0",
            "type": "ADD_SNIPPET",
            "codeSnippet": "kony.print(\"Perf Log: Details page form - start\");\n    var INSTANCE = kony.sdk.mvvm.KonyApplicationContext.getAppInstance();\n    var listController = INSTANCE.getFormController(\"frmAccountsLandingKA\");\n    listController.performAction(\"navigateToAccountsDetails\");",
            "callbackType": null
        }]
    }
}