{
    "AS_Segment_g5c3e9c040db458a9cca2aa7687c3a8e": {
        "id": "AS_Segment_g5c3e9c040db458a9cca2aa7687c3a8e",
        "type": "ACTION_SEQUENCE",
        "params": [{
            "datatype": "collection",
            "name": "eventobject"
        }, {
            "datatype": "number",
            "name": "sectionNumber"
        }, {
            "datatype": "number",
            "name": "rowNumber"
        }],
        "contextObj": {
            "type": "forms",
            "platform": "",
            "KUID": "c61ad12e0ab14a518f43b91ce1670e1d"
        },
        "language": "js",
        "actions": [{
            "id": "ADD_SNIPPET__g04f45c5c8e14b23b5fc4107f17bf955",
            "type": "ADD_SNIPPET",
            "codeSnippet": "var vc = new kony.rb.frmNewCashWithdrawViewController();\n vc.onClickOfFromSegment(); ",
            "parentId": null,
            "callbackType": null
        }]
    }
}