{
    "AS_Segment_c56cc93caecd4cb09ce15547538c6f84": {
        "id": "AS_Segment_c56cc93caecd4cb09ce15547538c6f84",
        "type": "ACTION_SEQUENCE",
        "params": [{
            "datatype": "collection",
            "name": "eventobject"
        }, {
            "datatype": "number",
            "name": "sectionNumber"
        }, {
            "datatype": "number",
            "name": "rowNumber"
        }],
        "language": "js",
        "actions": [{
            "id": "INVOKE_FUNCTION__ide_onRowClick_074ec04d6fc149309f20bc986b0ae175",
            "type": "INVOKE_FUNCTION",
            "display": "onMyMessagesRowClick",
            "inputparams": [],
            "callbackType": null,
            "source": "module"
        }]
    }
}