{
    "AS_Segment_1153b1419cbf405cbd8956ac91363cb0": {
        "id": "AS_Segment_1153b1419cbf405cbd8956ac91363cb0",
        "type": "ACTION_SEQUENCE",
        "params": [{
            "datatype": "collection",
            "name": "eventobject"
        }, {
            "datatype": "number",
            "name": "sectionNumber"
        }, {
            "datatype": "number",
            "name": "rowNumber"
        }],
        "contextObj": {
            "name": "frmAccountInfoKA",
            "type": "forms",
            "platform": "",
            "KUID": "b2f984d11c5244e6ae5f81fe393d837e"
        },
        "language": "js",
        "actions": [{
            "id": "ADD_SNIPPET__c1c77ca243b4455fb826f9d6c7dc7a7e",
            "type": "ADD_SNIPPET",
            "codeSnippet": "accountInfoPopup();",
            "parentId": null,
            "callbackType": null
        }]
    }
}