{
    "AS_Segment_61e6eb9ecf694c8e8cf4b43cc2aa9a23": {
        "id": "AS_Segment_61e6eb9ecf694c8e8cf4b43cc2aa9a23",
        "type": "ACTION_SEQUENCE",
        "params": [{
            "datatype": "collection",
            "name": "eventobject"
        }, {
            "datatype": "number",
            "name": "sectionNumber"
        }, {
            "datatype": "number",
            "name": "rowNumber"
        }],
        "contextObj": {
            "name": "frmAccountsLandingKA",
            "type": "forms",
            "platform": "",
            "KUID": "d62a2a0906c64d2281addc95893a6544"
        },
        "language": "js",
        "actions": [{
            "id": "ADD_SNIPPET__8819b13d716c40a7ab9712473cbf1535",
            "type": "ADD_SNIPPET",
            "codeSnippet": "accountLandingPopup();",
            "parentId": null,
            "callbackType": null
        }]
    }
}