{
    "AS_Switch_ceb0971d73e247b08022d130f285f5d7": {
        "id": "AS_Switch_ceb0971d73e247b08022d130f285f5d7",
        "type": "ACTION_SEQUENCE",
        "params": [{
            "datatype": "collection",
            "name": "eventobject"
        }],
        "language": "js",
        "actions": [{
            "id": "ADD_SNIPPET_ide_onSlide_fef5a65ff53e47638b0ce8b7bf60ecaf",
            "type": "ADD_SNIPPET",
            "codeSnippet": "if(frmAuthorizationAlternatives.flxQuickBalance.height === \"8%\"){\n  frmAuthorizationAlternatives.flxQuickBalance.height = \"40%\";\n  addDatatoSegQuickBalance(1);\n}\nelse{\n  frmAuthorizationAlternatives.flxQuickBalance.height = \"8%\";\n  addDatatoSegQuickBalance(0);\n} \n",
            "callbackType": null
        }]
    }
}