{
    "AS_TextField_f5b3a1550c914b859c05d4a756ae3a96": {
        "id": "AS_TextField_f5b3a1550c914b859c05d4a756ae3a96",
        "type": "ACTION_SEQUENCE",
        "params": [{
            "datatype": "collection",
            "name": "eventobject"
        }, {
            "datatype": "string",
            "name": "changedtext"
        }],
        "language": "js",
        "actions": [{
            "id": "ADD_SNIPPET_ide_onBeginEditing_b7f7f82abc3e4fc3944c95b1d429315e",
            "type": "ADD_SNIPPET",
            "codeSnippet": "animate_NEWCARDSOPTIOS(\"UP\", \"lblBeneficiaryMobileTitle\", frmJOMOPayAddBiller.txtBeneficiaryMobile.text);"
        }]
    }
}