{
    "AS_TextField_ada3321807a4426388fef976421e1c4e": {
        "id": "AS_TextField_ada3321807a4426388fef976421e1c4e",
        "type": "ACTION_SEQUENCE",
        "name": "AS_TextField_NationalIDRegistration_NationalID_onEndEditingAnd",
        "params": [{
            "datatype": "collection",
            "name": "eventobject"
        }, {
            "datatype": "string",
            "name": "changedtext"
        }],
        "contextObj": {
            "name": "frmRegisterUser",
            "type": "forms",
            "platform": "",
            "KUID": "cd7432ec5087404590338186c94e35d2"
        },
        "language": "js",
        "actions": [{
            "id": "ADD_SNIPPET__hd7dee35ab554f868be9883e4a178e93",
            "type": "ADD_SNIPPET",
            "codeSnippet": "animateLabel(\"DOWN\", \"lblNationalIDTitle\", frmRegisterUser.txtNationalID.text);",
            "parentId": null,
            "callbackType": null
        }]
    }
}