{
    "AS_TextField_d8652438f1204c04b822337970246b97": {
        "id": "AS_TextField_d8652438f1204c04b822337970246b97",
        "type": "ACTION_SEQUENCE",
        "params": [{
            "datatype": "collection",
            "name": "eventobject"
        }, {
            "datatype": "string",
            "name": "changedtext"
        }],
        "language": "js",
        "actions": [{
            "id": "ADD_SNIPPET_ide_onTextChange_h0435d2ac59e4521a4b1c39aecec30c7",
            "type": "ADD_SNIPPET",
            "codeSnippet": "// if(frmAddExternalAccountKA.tbxAddress1.text !== \"\"){\n//   frmAddExternalAccountKA.flxUnderlineAddress1.skin = \"sknFlxGreenLine\";\n// }else{\n//   frmAddExternalAccountKA.flxUnderlineAddress1.skin = \"sknFlxOrangeLine\";\n// }\nkony.boj.addBeneNextStatus();",
            "callbackType": null
        }]
    }
}