{
    "AS_TextField_f9a4f13593d74daa8f90f1856c3a0708": {
        "id": "AS_TextField_f9a4f13593d74daa8f90f1856c3a0708",
        "type": "ACTION_SEQUENCE",
        "name": "AS_TextField_OnTouchEndIBANBeneName",
        "params": [{
            "datatype": "collection",
            "name": "eventobject"
        }, {
            "datatype": "string",
            "name": "x"
        }, {
            "datatype": "string",
            "name": "y"
        }],
        "contextObj": {
            "name": "frmEPS",
            "type": "forms",
            "platform": "",
            "KUID": "c49bbb3175be499d86d933cee301b3c4"
        },
        "language": "js",
        "actions": [{
            "id": "ADD_SNIPPET__jc0697aa37fc4b268cb2fafdafff2f67",
            "type": "ADD_SNIPPET",
            "codeSnippet": "animateLabel(\"UP\",\"lblIBANBeneName\",frmEPS.txtIBANBeneName.text);",
            "parentId": null,
            "callbackType": null
        }]
    }
}