{
    "AS_TextField_c1403db7d267490d866fff0d95ad8c7d": {
        "id": "AS_TextField_c1403db7d267490d866fff0d95ad8c7d",
        "type": "ACTION_SEQUENCE",
        "name": "AS_TextField_Up_animate_BillingNo",
        "params": [{
            "datatype": "collection",
            "name": "eventobject"
        }, {
            "datatype": "string",
            "name": "x"
        }, {
            "datatype": "string",
            "name": "y"
        }],
        "contextObj": {
            "name": "frmAddNewPrePayeeKA",
            "type": "forms",
            "platform": "",
            "KUID": "a843292d9c674ff7ba10a9b594b7e7e5"
        },
        "language": "js",
        "actions": [{
            "id": "ADD_SNIPPET__e58c81fe73ca4725b85cf6592bacb417",
            "type": "ADD_SNIPPET",
            "codeSnippet": "animateLabel(\"UP\", \"lblBillerNumber\",frmAddNewPrePayeeKA.tbxBillerNumber.text);",
            "parentId": null,
            "callbackType": null
        }]
    }
}