{
    "AS_TextField_807da52d68f44c38a7dd33062c73e1fc": {
        "id": "AS_TextField_807da52d68f44c38a7dd33062c73e1fc",
        "type": "ACTION_SEQUENCE",
        "params": [{
            "datatype": "collection",
            "name": "eventobject"
        }, {
            "datatype": "string",
            "name": "changedtext"
        }],
        "contextObj": {
            "type": "forms",
            "platform": null,
            "KUID": "3895ad9cb72242cabc92623efd7598f4"
        },
        "language": "js",
        "actions": [{
            "id": "ADD_SNIPPET_ide_onTextChange_a86dfdf38a534045bf37921a04ec9a11",
            "type": "ADD_SNIPPET",
            "codeSnippet": "searchTextChangeEdit();",
            "callbackType": null
        }]
    }
}