{
    "AS_TextField_bc64e81e809a432b87e2f25e59232ea0": {
        "id": "AS_TextField_bc64e81e809a432b87e2f25e59232ea0",
        "type": "ACTION_SEQUENCE",
        "params": [{
            "datatype": "collection",
            "name": "eventobject"
        }, {
            "datatype": "string",
            "name": "changedtext"
        }],
        "language": "js",
        "actions": [{
            "id": "ADD_SNIPPET_ide_onTextChange_f60e1f05a4014766ae26fc5742198a4d",
            "type": "ADD_SNIPPET",
            "codeSnippet": "checkNextCardless();",
            "callbackType": null
        }]
    }
}