{
    "AS_TextField_4ae9925872114af6861f94c9f1f77a80": {
        "id": "AS_TextField_4ae9925872114af6861f94c9f1f77a80",
        "type": "ACTION_SEQUENCE",
        "params": [{
            "datatype": "collection",
            "name": "eventobject"
        }, {
            "datatype": "string",
            "name": "changedtext"
        }],
        "contextObj": {
            "type": "forms",
            "platform": "",
            "KUID": "28dd657fd46d44f99b4f344da39c5ea9"
        },
        "language": "js",
        "actions": [{
            "id": "ADD_SNIPPET__9c211ab4030449598c94af767aa2c048",
            "type": "ADD_SNIPPET",
            "codeSnippet": "searchContacts();",
            "parentId": null,
            "callbackType": null
        }]
    }
}