{
    "AS_TextField_d095d984e3af434fae4224de0d5e0d43": {
        "id": "AS_TextField_d095d984e3af434fae4224de0d5e0d43",
        "type": "ACTION_SEQUENCE",
        "params": [{
            "datatype": "collection",
            "name": "eventobject"
        }, {
            "datatype": "string",
            "name": "changedtext"
        }],
        "contextObj": {
            "name": "frmEstatementLandingKA",
            "type": "forms",
            "platform": "",
            "KUID": "d1dcb94f4a054dda97d66cbdc216d96a"
        },
        "language": "js",
        "actions": [{
            "id": "ADD_SNIPPET__i04a18c733df4beda5d0f6c8f275deb6",
            "type": "ADD_SNIPPET",
            "codeSnippet": "try{\n  frmEstatementLandingKA.borderBottom1.skin=\"skntextFieldDividerBlue\";\n}catch(err){\n  kony.print( \"err in pwd::\"+err);\n}",
            "parentId": null,
            "callbackType": null
        }]
    }
}