{
    "AS_TextField_b11878d34d214afdadd2f8445d34b219": {
        "id": "AS_TextField_b11878d34d214afdadd2f8445d34b219",
        "type": "ACTION_SEQUENCE",
        "params": [{
            "datatype": "collection",
            "name": "eventobject"
        }, {
            "datatype": "string",
            "name": "changedtext"
        }],
        "contextObj": {
            "type": "forms",
            "platform": "",
            "KUID": "1df7248b622b405fb1a73c4deef77bd8"
        },
        "language": "js",
        "actions": [{
            "id": "ADD_SNIPPET__b6ca403b8e854ef8993c4404190374de",
            "type": "ADD_SNIPPET",
            "codeSnippet": "kony.print(\"Deleted\");",
            "parentId": null,
            "callbackType": null
        }]
    }
}