{
    "AS_TextField_ab59167205da471ea7cfe5b3fe8a8f71": {
        "id": "AS_TextField_ab59167205da471ea7cfe5b3fe8a8f71",
        "type": "ACTION_SEQUENCE",
        "name": "AS_TextField_OnEndEditingAndroidTxtAliasIPSREG",
        "params": [{
            "datatype": "collection",
            "name": "eventobject"
        }, {
            "datatype": "string",
            "name": "changedtext"
        }],
        "contextObj": {
            "name": "frmIPSRegistration",
            "type": "forms",
            "platform": "",
            "KUID": "d9019aaca9814c4fb7b2e6f1a98cc411"
        },
        "language": "js",
        "actions": [{
            "id": "ADD_SNIPPET__f487f14d94bf4d3f93a3539b441813b3",
            "type": "ADD_SNIPPET",
            "codeSnippet": "animateLabel(\"DOWN\",\"lblAliasTitle\",frmIPSRegistration.txtAlias.text);",
            "parentId": null,
            "callbackType": null
        }]
    }
}