{
    "AS_TextField_1b76b090f27947e1a04ed51841cf2d8f": {
        "id": "AS_TextField_1b76b090f27947e1a04ed51841cf2d8f",
        "type": "ACTION_SEQUENCE",
        "params": [{
            "datatype": "collection",
            "name": "eventobject"
        }, {
            "datatype": "string",
            "name": "changedtext"
        }],
        "contextObj": {
            "name": "frmNewBillKA",
            "type": "forms",
            "platform": "",
            "KUID": "94b57de480514c9f98e1f6979b71a37b"
        },
        "language": "js",
        "actions": [{
            "id": "ADD_SNIPPET__7b6a89b7f770491d8fa03052a5e889b8",
            "type": "ADD_SNIPPET",
            "codeSnippet": "validateDecimals(frmNewBillKA.amountTextField.text);",
            "parentId": null,
            "callbackType": null
        }]
    }
}