{
    "AS_TextField_e7906e2af9cb49049c24e80e5d344c8e": {
        "id": "AS_TextField_e7906e2af9cb49049c24e80e5d344c8e",
        "type": "ACTION_SEQUENCE",
        "params": [{
            "datatype": "collection",
            "name": "eventobject"
        }, {
            "datatype": "string",
            "name": "x"
        }, {
            "datatype": "string",
            "name": "y"
        }],
        "contextObj": {
            "name": "frmCardlessTransaction",
            "type": "forms",
            "platform": "",
            "KUID": "b7e7974060664c0093c575d8bba1e829"
        },
        "language": "js",
        "actions": []
    }
}