{
    "AS_TextField_jaca0e4a754f4ce08f9c64514872749e": {
        "id": "AS_TextField_jaca0e4a754f4ce08f9c64514872749e",
        "type": "ACTION_SEQUENCE",
        "name": "AS_TextField_AmountFldCardLessOnBeginEditing",
        "params": [{
            "datatype": "collection",
            "name": "eventobject"
        }, {
            "datatype": "string",
            "name": "changedtext"
        }],
        "language": "js",
        "actions": [{
            "id": "ADD_SNIPPET_ide_onBeginEditing_a7b36d3098f34273abe3eb9f15efcdde",
            "type": "ADD_SNIPPET",
            "codeSnippet": "frmCardlessTransaction.flxBorderAmount.skin=\"skntextFieldDividerBlue\";",
            "callbackType": null
        }]
    }
}