{
    "AS_TextField_b5b57d87d5f644cd9ab52d808ee74515": {
        "id": "AS_TextField_b5b57d87d5f644cd9ab52d808ee74515",
        "type": "ACTION_SEQUENCE",
        "name": "AS_TextField_OnEndEditngIBANBeneNameEPS",
        "params": [{
            "datatype": "collection",
            "name": "eventobject"
        }, {
            "datatype": "string",
            "name": "changedtext"
        }],
        "contextObj": {
            "name": "frmEPS",
            "type": "forms",
            "platform": "",
            "KUID": "c49bbb3175be499d86d933cee301b3c4"
        },
        "language": "js",
        "actions": [{
            "id": "ADD_SNIPPET__d254b7b73c2e47e4bbfe05f0007cab42",
            "type": "ADD_SNIPPET",
            "codeSnippet": "animateLabel(\"DOWN\",\"lblIBANBeneName\",frmEPS.txtIBANBeneName.text);",
            "parentId": null,
            "callbackType": null
        }]
    }
}