{
    "AS_TextField_h56fcccb056144b4b1d494add2b2cf3b": {
        "id": "AS_TextField_h56fcccb056144b4b1d494add2b2cf3b",
        "type": "ACTION_SEQUENCE",
        "params": [{
            "datatype": "collection",
            "name": "eventobject"
        }, {
            "datatype": "string",
            "name": "changedtext"
        }],
        "contextObj": {
            "name": "frmEstatementLandingKA",
            "type": "forms",
            "platform": "",
            "KUID": "d1dcb94f4a054dda97d66cbdc216d96a"
        },
        "language": "js",
        "actions": [{
            "id": "ADD_SNIPPET__e7bb6fc37f364a2f9528883bd6991a85",
            "type": "ADD_SNIPPET",
            "codeSnippet": "try{\n  if(frmEstatementLandingKA.lblEmail2.top !== \"15%\"){\n    animateLabel(\"UP\",\"lblEmail2\",frmEstatementLandingKA.txtEmail2.text); \n\t}\n\t\n  if(frmEstatementLandingKA.txtEmail1.text!==null && frmEstatementLandingKA.txtEmail1.text!==\"\" && isValidEmaill(frmEstatementLandingKA.txtEmail1.text) && isValidEmaill(frmEstatementLandingKA.txtEmail2.text))\n  {\n    if(frmEstatementLandingKA.flxSwitchOnTouchLogin.isVisible && frmEstatementLandingKA.lblTermsandConditionsCheckBox.text === \"p\")\n    {\n      frmEstatementLandingKA.lblNext.skin = \"sknLblNextEnabled\";\n    }else{\n      frmEstatementLandingKA.lblNext.skin =\"sknLblNextDisabled\";\n    }\n  }else{\n    frmEstatementLandingKA.lblNext.skin = \"sknLblNextDisabled\";\n  }\n  frmEstatementLandingKA.lblInvalidEmail2.setVisibility(false);\n}catch(err){\n  kony.print( \"err:\"+err);\n}\n",
            "parentId": null,
            "callbackType": null
        }]
    }
}