{
    "AS_TextField_de8bc879e8644ba1a1496738a1e92083": {
        "id": "AS_TextField_de8bc879e8644ba1a1496738a1e92083",
        "type": "ACTION_SEQUENCE",
        "params": [{
            "datatype": "collection",
            "name": "eventobject"
        }, {
            "datatype": "string",
            "name": "changedtext"
        }],
        "language": "js",
        "actions": [{
            "id": "ADD_SNIPPET_ide_onBeginEditing_ebf156fdcf354a83a1c64a6b3b59da2e",
            "type": "ADD_SNIPPET",
            "codeSnippet": "try{\n  frmEstatementLandingKA.borderBottom1.skin=\"skntextFieldDividerBlue\";\n}catch(err){\n  kony.print( \"err in pwd::\"+err);\n}",
            "callbackType": null
        }]
    }
}