{
    "AS_TextField_ifcf89b38c924068960c2bcac378ce95": {
        "id": "AS_TextField_ifcf89b38c924068960c2bcac378ce95",
        "type": "ACTION_SEQUENCE",
        "params": [{
            "datatype": "collection",
            "name": "eventobject"
        }, {
            "datatype": "string",
            "name": "changedtext"
        }],
        "contextObj": {
            "name": "frmEstatementLandingKA",
            "type": "forms",
            "platform": null,
            "KUID": "d1dcb94f4a054dda97d66cbdc216d96a"
        },
        "language": "js",
        "actions": [{
            "id": "ADD_SNIPPET_ide_onDone_jb6f42bcb0454600ba97c8bfec7ae127",
            "type": "ADD_SNIPPET",
            "codeSnippet": "try{\n  //animateLabel(\"DOWN\",\"lblUserName\",frmLoginKA.tbxusernameTextField.text);\n  //animateLabel(\"UP\",\"lblPassword\",frmLoginKA.passwordTextField.text);\n\n  frmLoginKA.tbxusernameTextField.text=frmLoginKA.tbxusernameTextField.text.trim();\n  if(frmLoginKA.tbxusernameTextField.text!==null&&frmLoginKA.tbxusernameTextField.text!==\"\")\n  {\n    frmLoginKA.borderBottom.skin=\"skntextFieldDividerGreen\";\n  }\n  else\n  {\n    frmLoginKA.borderBottom.skin=\"skntextFieldDivider\";\n  }\n  loginKeyboardInactive();\n}catch(err){\n  kony.print( \"err in pwd::\"+err);\n}",
            "callbackType": null
        }]
    }
}