{
    "AS_TextField_d3e1f5fc7e814cfe9d1873476b769383": {
        "id": "AS_TextField_d3e1f5fc7e814cfe9d1873476b769383",
        "type": "ACTION_SEQUENCE",
        "params": [{
            "datatype": "collection",
            "name": "eventobject"
        }, {
            "datatype": "string",
            "name": "changedtext"
        }],
        "contextObj": {
            "name": "frmAddNewPrePayeeKA",
            "type": "forms",
            "platform": null,
            "KUID": "a843292d9c674ff7ba10a9b594b7e7e5"
        },
        "language": "js",
        "actions": [{
            "id": "ADD_SNIPPET_ide_onDone_dbd805911ce84a65b6ab52d1be414ef2",
            "type": "ADD_SNIPPET",
            "codeSnippet": "animateLabel(\"DOWN\", \"lblBillerID\",frmAddNewPayeeKA.tbxBillerID.text);\nanimateLabel(\"UP\", \"lblAddress\",frmAddNewPayeeKA.tbxAddress.text);",
            "callbackType": null
        }]
    }
}