{
    "AS_TextField_g3345678d58247899db56ce093064d38": {
        "id": "AS_TextField_g3345678d58247899db56ce093064d38",
        "type": "ACTION_SEQUENCE",
        "params": [{
            "datatype": "collection",
            "name": "eventobject"
        }, {
            "datatype": "string",
            "name": "x"
        }, {
            "datatype": "string",
            "name": "y"
        }],
        "contextObj": {
            "name": "frmEstatementLandingKA",
            "type": "forms",
            "platform": "",
            "KUID": "d1dcb94f4a054dda97d66cbdc216d96a"
        },
        "language": "js",
        "actions": [{
            "id": "ADD_SNIPPET__bb7a71b59484435899ee5aa528751bf7",
            "type": "ADD_SNIPPET",
            "codeSnippet": "try{\nanimateLabel(\"UP\",\"lblEmail2\",frmEstatementLandingKA.txtEmail2.text);\n}catch(err){\n  kony.print( \"err in pwd::\"+err);\n}",
            "parentId": null,
            "callbackType": null
        }]
    }
}