{
    "AS_TextField_j56e8833ff3945c3becd884ad98c40b2": {
        "id": "AS_TextField_j56e8833ff3945c3becd884ad98c40b2",
        "type": "ACTION_SEQUENCE",
        "name": "AS_TextField_NationalIDRegistration_CardNumber_onEndEditingAnd",
        "params": [{
            "datatype": "collection",
            "name": "eventobject"
        }, {
            "datatype": "string",
            "name": "changedtext"
        }],
        "contextObj": {
            "name": "frmRegisterUser",
            "type": "forms",
            "platform": "",
            "KUID": "cd7432ec5087404590338186c94e35d2"
        },
        "language": "js",
        "actions": [{
            "id": "ADD_SNIPPET__a8acdf9166204387b985881c38fb5ecb",
            "type": "ADD_SNIPPET",
            "codeSnippet": "animateLabel(\"DOWN\", \"lblIDCardNumberTitle\", frmRegisterUser.txtIDCardNumber.text);",
            "parentId": null,
            "callbackType": null
        }]
    }
}