{
    "AS_TextArea_5709964a3e674587aeeb0bc91e581e4f": {
        "id": "AS_TextArea_5709964a3e674587aeeb0bc91e581e4f",
        "type": "ACTION_SEQUENCE",
        "params": [{
            "datatype": "collection",
            "name": "eventobject"
        }, {
            "datatype": "string",
            "name": "x"
        }, {
            "datatype": "string",
            "name": "y"
        }],
        "contextObj": {
            "type": "forms",
            "platform": "",
            "KUID": "595170e0ad324e3699d120dae6f9e312"
        },
        "language": "js",
        "actions": [{
            "id": "ADD_SNIPPET__95a178fa4ca14c10bec1a35931394138",
            "type": "ADD_SNIPPET",
            "codeSnippet": "kony.print(\"Deleted\");",
            "parentId": null,
            "callbackType": null
        }]
    }
}