{
    "AS_TextField_b2492f65ca644af69de91444fc412c3d": {
        "id": "AS_TextField_b2492f65ca644af69de91444fc412c3d",
        "type": "ACTION_SEQUENCE",
        "name": "AS_TextField_NationalIDRegistration_NationalID_onBeginEditingAnd",
        "params": [{
            "datatype": "collection",
            "name": "eventobject"
        }, {
            "datatype": "string",
            "name": "changedtext"
        }],
        "contextObj": {
            "name": "frmRegisterUser",
            "type": "forms",
            "platform": "",
            "KUID": "cd7432ec5087404590338186c94e35d2"
        },
        "language": "js",
        "actions": [{
            "id": "ADD_SNIPPET__d17a6dd9980d410081981583982bb673",
            "type": "ADD_SNIPPET",
            "codeSnippet": "animateLabel(\"UP\", \"lblNationalIDTitle\", frmRegisterUser.txtNationalID.text);",
            "parentId": null,
            "callbackType": null
        }]
    }
}