{
    "AS_TextField_be51211c2b6146469735d857fee977b7": {
        "id": "AS_TextField_be51211c2b6146469735d857fee977b7",
        "type": "ACTION_SEQUENCE",
        "params": [{
            "datatype": "collection",
            "name": "eventobject"
        }, {
            "datatype": "string",
            "name": "changedtext"
        }],
        "contextObj": {
            "name": "frmUserSettingsSiri",
            "type": "forms",
            "platform": "",
            "KUID": "f6a73333c5b04d9f97a80b02ff57e6ae"
        },
        "language": "js",
        "actions": [{
            "id": "ADD_SNIPPET__jff591149842491da9e2cd6edd73426d",
            "type": "ADD_SNIPPET",
            "codeSnippet": "onDonetxtSiriLimit();",
            "parentId": null,
            "callbackType": null
        }]
    }
}