{
    "AS_TextField_e10fab45dd734a7fbb3530c814671a9a": {
        "id": "AS_TextField_e10fab45dd734a7fbb3530c814671a9a",
        "type": "ACTION_SEQUENCE",
        "name": "AS_TextField_NationalIDRegistration_NationalID_onBeginEditingIOS",
        "params": [{
            "datatype": "collection",
            "name": "eventobject"
        }, {
            "datatype": "string",
            "name": "changedtext"
        }],
        "contextObj": {
            "name": "frmRegisterUser",
            "type": "forms",
            "platform": "",
            "KUID": "cd7432ec5087404590338186c94e35d2"
        },
        "language": "js",
        "actions": [{
            "id": "ADD_SNIPPET__hc6dffcfe6204978a2406606ea77e631",
            "type": "ADD_SNIPPET",
            "codeSnippet": "animateLabel(\"UP\", \"lblNationalIDTitle\", frmRegisterUser.txtNationalID.text);",
            "parentId": null,
            "callbackType": null
        }]
    }
}