{
    "AS_TextField_e34d184f6cc149198507b7b25364dc17": {
        "id": "AS_TextField_e34d184f6cc149198507b7b25364dc17",
        "type": "ACTION_SEQUENCE",
        "name": "AS_TextField_OnBeginEditingCliqAddressIOS",
        "params": [{
            "datatype": "collection",
            "name": "eventobject"
        }, {
            "datatype": "string",
            "name": "changedtext"
        }],
        "contextObj": {
            "name": "frmEPS",
            "type": "forms",
            "platform": "",
            "KUID": "c49bbb3175be499d86d933cee301b3c4"
        },
        "language": "js",
        "actions": [{
            "id": "ADD_SNIPPET__b6feae7a082448e39183ff36058764a0",
            "type": "ADD_SNIPPET",
            "codeSnippet": "animateLabel(\"UP\",\"lblAddress\",frmEPS.txtAddressAlias.text);",
            "parentId": null,
            "callbackType": null
        }]
    }
}