{
    "AS_TextField_dd3b46dbc10f4f0a9d1ba61588b464fb": {
        "id": "AS_TextField_dd3b46dbc10f4f0a9d1ba61588b464fb",
        "type": "ACTION_SEQUENCE",
        "params": [{
            "datatype": "collection",
            "name": "eventobject"
        }, {
            "datatype": "string",
            "name": "changedtext"
        }],
        "language": "js",
        "actions": [{
            "id": "ADD_SNIPPET_ide_onEndEditing_a0f55f8e949e4d6dbb27604e5411f2f4",
            "type": "ADD_SNIPPET",
            "codeSnippet": "animateLabel(\"DOWN\", \"lblBillerNumber\",frmAddNewPrePayeeKA.tbxBillerNumber.text);",
            "callbackType": null
        }]
    }
}