{
    "AS_TextField_de8fe5e4b5c342ffb3711d57b765d501": {
        "id": "AS_TextField_de8fe5e4b5c342ffb3711d57b765d501",
        "type": "ACTION_SEQUENCE",
        "params": [{
            "datatype": "collection",
            "name": "eventobject"
        }, {
            "datatype": "string",
            "name": "changedtext"
        }],
        "contextObj": {
            "name": "frmAddNewPrePayeeKA",
            "type": "forms",
            "platform": null,
            "KUID": "a843292d9c674ff7ba10a9b594b7e7e5"
        },
        "language": "js",
        "actions": [{
            "id": "ADD_SNIPPET_ide_onTextChange_f7f8680d3921459aa5ea3f32b08be429",
            "type": "ADD_SNIPPET",
            "codeSnippet": "kony.boj.storeDetailsAddBiller(\"BillerID\", frmAddNewPayeeKA.tbxBillerID.text);\nif(kony.boj.isNextEnabledBiller())\n  frmAddNewPayeeKA.lblNext.skin = \"sknLblNextEnabled\";\nelse\n  frmAddNewPayeeKA.lblNext.skin = \"sknLblNextDisabled\";",
            "callbackType": null
        }]
    }
}