{
    "AS_TextField_2f0dc7e7a56743e9b248a812144a0677": {
        "id": "AS_TextField_2f0dc7e7a56743e9b248a812144a0677",
        "type": "ACTION_SEQUENCE",
        "params": [{
            "datatype": "collection",
            "name": "eventobject"
        }, {
            "datatype": "string",
            "name": "changedtext"
        }],
        "contextObj": {
            "type": "forms",
            "platform": "",
            "KUID": "28dd657fd46d44f99b4f344da39c5ea9"
        },
        "language": "js",
        "actions": [{
            "id": "ADD_SNIPPET__5bd042fb8d464eb193293e4763f4cd97",
            "type": "ADD_SNIPPET",
            "codeSnippet": "searchContacts();",
            "parentId": null,
            "callbackType": null
        }]
    }
}