{
    "AS_TextField_da323bb23cc74e2fbf3908dc8187d085": {
        "id": "AS_TextField_da323bb23cc74e2fbf3908dc8187d085",
        "type": "ACTION_SEQUENCE",
        "name": "AS_TextField_nickNameOnDaone",
        "params": [{
            "datatype": "collection",
            "name": "eventobject"
        }, {
            "datatype": "string",
            "name": "changedtext"
        }],
        "language": "js",
        "actions": [{
            "id": "ADD_SNIPPET_ide_onDone_fd0fb669e45e46a28946d93d039b31a0",
            "type": "ADD_SNIPPET",
            "codeSnippet": "animateLabel(\"DOWN\",\"lblAddNickName\",frmEditAccountSettings.txtAddNickName.text);",
            "callbackType": null
        }]
    }
}