{
    "AS_TextField_f3d3890a736346abade68994746c8249": {
        "id": "AS_TextField_f3d3890a736346abade68994746c8249",
        "type": "ACTION_SEQUENCE",
        "params": [{
            "datatype": "collection",
            "name": "eventobject"
        }, {
            "datatype": "string",
            "name": "changedtext"
        }],
        "contextObj": {
            "name": "frmNewTransferKA",
            "type": "forms",
            "platform": "",
            "KUID": "2ac343500306428da0ceef91a3b44d18"
        },
        "language": "js",
        "actions": [{
            "id": "ADD_SNIPPET__ff0c4926bbe243169ede1838d9df6025",
            "type": "ADD_SNIPPET",
            "codeSnippet": "validateDecimals(frmNewTransferKA.amountTextField.text);\nfrmNewTransferKA.lblInvalidAmount.isVisible=false;",
            "parentId": null,
            "callbackType": null
        }]
    }
}