{
    "AS_TextField_d2f30648a977481bb558e0b593b89a2b": {
        "id": "AS_TextField_d2f30648a977481bb558e0b593b89a2b",
        "type": "ACTION_SEQUENCE",
        "name": "AS_TextField_OnEditingIphoneAliasNameMobEPS",
        "params": [{
            "datatype": "collection",
            "name": "eventobject"
        }, {
            "datatype": "string",
            "name": "changedtext"
        }],
        "contextObj": {
            "name": "frmEPS",
            "type": "forms",
            "platform": "",
            "KUID": "c49bbb3175be499d86d933cee301b3c4"
        },
        "language": "js",
        "actions": [{
            "id": "ADD_SNIPPET__b36f156c84544e15a5030d09acb1b781",
            "type": "ADD_SNIPPET",
            "codeSnippet": "animateLabel(\"DOWN\",\"lblAliasNameMob\",frmEPS.txtAliasNameMob.text);",
            "parentId": null,
            "callbackType": null
        }]
    }
}