{
    "AS_TextField_cb09963727574343b43a5f71f9f45ddf": {
        "id": "AS_TextField_cb09963727574343b43a5f71f9f45ddf",
        "type": "ACTION_SEQUENCE",
        "params": [{
            "datatype": "collection",
            "name": "eventobject"
        }, {
            "datatype": "string",
            "name": "changedtext"
        }],
        "contextObj": {
            "name": "frmNewUserOnboardVerificationKA",
            "type": "forms",
            "platform": "",
            "KUID": "ie7b921fac134bd8a8afb16afc085409"
        },
        "language": "js",
        "actions": [{
            "id": "ADD_SNIPPET_ide_onTextChange_ee1d302807744a37ba809c5c76353737",
            "type": "ADD_SNIPPET",
            "codeSnippet": "onTextChangeOTP(false);",
            "callbackType": null
        }]
    }
}