{
    "AS_TextField_d95f6ac7bcad4cb4986a6cbbea503257": {
        "id": "AS_TextField_d95f6ac7bcad4cb4986a6cbbea503257",
        "type": "ACTION_SEQUENCE",
        "name": "AS_TextField_onDoneCCAmt",
        "params": [{
            "datatype": "collection",
            "name": "eventobject"
        }, {
            "datatype": "string",
            "name": "changedtext"
        }],
        "contextObj": {
            "name": "frmCreditCardPayment",
            "type": "forms",
            "platform": "",
            "KUID": "ifc6e17e00ef473bb51f2718c349cfba"
        },
        "language": "js",
        "actions": [{
            "id": "ADD_SNIPPET__i85b0ea7780947069cc5bfa0e5f9eee6",
            "type": "ADD_SNIPPET",
            "codeSnippet": "frmCreditCardPayment.lblHiddenAmount.text=frmCreditCardPayment.txtFieldAmount.text;\nfrmCreditCardPayment.txtFieldAmount.maxTextLength = 20;\n if(frmCreditCardPayment.lblCurrency.text === \"JOD\")\n      {\n        kony.print(\"JOD currency \"+frmCreditCardPayment.lblCurrency.text);\n        frmCreditCardPayment.txtFieldAmount.text = fixDecimal(frmCreditCardPayment.txtFieldAmount.text,3);\n      }\n      else\n      {\n        kony.print(\"Other currency \"+frmCreditCardPayment.lblCurrency.text);\n        frmCreditCardPayment.txtFieldAmount.text = fixDecimal(frmCreditCardPayment.txtFieldAmount.text,2);\n      }\n//frmCreditCardPayment.txtFieldAmount.text = formatAmountwithcomma(frmCreditCardPayment.lblHiddenAmount.text,3);",
            "parentId": null,
            "callbackType": null
        }]
    }
}