{
    "AS_TextField_b19efdcf634b442fa6bf5568337a879c": {
        "id": "AS_TextField_b19efdcf634b442fa6bf5568337a879c",
        "type": "ACTION_SEQUENCE",
        "name": "AS_TextField_NationalIDRegistration_NationalID_onDone",
        "params": [{
            "datatype": "collection",
            "name": "eventobject"
        }, {
            "datatype": "string",
            "name": "changedtext"
        }],
        "contextObj": {
            "name": "frmRegisterUser",
            "type": "forms",
            "platform": "",
            "KUID": "cd7432ec5087404590338186c94e35d2"
        },
        "language": "js",
        "actions": [{
            "id": "ADD_SNIPPET__a6c428da5458417487b555b5bfef8fda",
            "type": "ADD_SNIPPET",
            "codeSnippet": "isNextEnabledNat();",
            "parentId": null,
            "callbackType": null
        }]
    }
}