{
    "AS_Video_b586f2c6c3ab43d8b4d2721e05b51edc": {
        "id": "AS_Video_b586f2c6c3ab43d8b4d2721e05b51edc",
        "type": "ACTION_SEQUENCE",
        "name": "AS_Video_onCompletionAn",
        "params": [{
            "datatype": "collection",
            "name": "eventobject"
        }],
        "contextObj": {
            "name": "frmSplash",
            "type": "forms",
            "platform": "",
            "KUID": "db67a9fe92674e5e9f19aa5b50fa0e6f"
        },
        "language": "js",
        "actions": [{
            "id": "ADD_SNIPPET__accf25009c56470191f1dd7856904bdd",
            "type": "ADD_SNIPPET",
            "codeSnippet": "// frmSplash.vdoSplash.seekTo(0);\n// frmSplash.vdoSplash.play();\n// kony.timer.schedule(\"mytimer12\", timerFunc, 4, false);\n\n// function timerFunc() //nested function\n// {\n//   var INSTANCE =kony.sdk.mvvm.KonyApplicationContext.getAppInstance();\n//   kony.sdk.mvvm.initApplicationForms(INSTANCE);\n//   initialisePreLoginForms();\n  var langFlag = kony.store.getItem(\"langFlagSettingObj\");\n  if(langFlag){\n    var langSelected = kony.store.getItem(\"langPrefObj\");\n    if(langSelected === \"en\"){\n      onClickEnglish();\n    }\n    else{\n      onClickArabic();\n    }\n    frmLoginKA.show();\n  }\n  else{\n    frmLanguageChange.show();\n  }\n  kony.timer.cancel(\"mytimer12\");\n//}",
            "parentId": null,
            "callbackType": null
        }]
    }
}