{
    "AS_FlexContainer_b050356d362049569a7c75eb91b90098": {
        "id": "AS_FlexContainer_b050356d362049569a7c75eb91b90098",
        "type": "ACTION_SEQUENCE",
        "name": "asFlxOnClickChangeMobNuber",
        "params": [{
            "datatype": "collection",
            "name": "eventobject"
        }],
        "language": "js",
        "actions": [{
            "id": "ADD_SNIPPET_ide_onClick_bf74c344c1ad450a98570ed27caca513",
            "type": "ADD_SNIPPET",
            "codeSnippet": "frmRegisterUser.flxLine2.skin = \"sknFlxGreyLine\";\nfrmRegisterUser.CopyflxLine0a4214bb8a7c146.skin = \"sknFlxGreyLine\";\nif(kony.retailBanking.globalData.prCardLandinList[customerAccountDetails.currentIndex].cardTypeFlag == \"C\")\n\tgblFromModule = \"UpdateMobileNumber\";\nelse{\n\tprevious_FORM = kony.application.getCurrentForm();\n\tgblFromModule = \"UpdateSMSNumber\";\n}\nfrmRegisterUser.show();\n",
            "callbackType": null
        }]
    }
}