{
    "AS_TextField_e1f51df4168c47acb1420746e8be8c28": {
        "id": "AS_TextField_e1f51df4168c47acb1420746e8be8c28",
        "type": "ACTION_SEQUENCE",
        "name": "astxtCountryCodeTextChange",
        "params": [{
            "datatype": "collection",
            "name": "eventobject"
        }, {
            "datatype": "string",
            "name": "changedtext"
        }],
        "contextObj": {
            "name": "frmRegisterUser",
            "type": "forms",
            "platform": "",
            "KUID": "cd7432ec5087404590338186c94e35d2"
        },
        "language": "js",
        "actions": [{
            "id": "ADD_SNIPPET__g84ab333732841a7a08cd84733e2b094",
            "type": "ADD_SNIPPET",
            "codeSnippet": "if (frmRegisterUser.txtCardNum.text !== null && frmRegisterUser.txtPIN.text !== null && frmRegisterUser.txtMobileNumber.text !== null && frmRegisterUser.txtCountryCode.text !==null) {\n var cardNo = getCardNum(frmRegisterUser.txtCardNum.text);\n  if (cardNo.length == 16 && frmRegisterUser.txtPIN.text.length == 4) {\n  frmRegisterUser.btnMobileNumberConfirm.skin = \"slButtonWhite\";\n }\n}else{\n  frmRegisterUser.btnMobileNumberConfirm.skin = \"slButtonWhite\";\n}\n\nif(!isEmpty(frmRegisterUser.txtCountryCode.text)){\n  frmRegisterUser.lblCountryCodeTitle.setVisibility(true);\n  if(frmRegisterUser.txtCountryCode.text.length == 3 ){\n    frmRegisterUser.txtMobileNumber.setFocus(true);\n  }\n}else{\n\tfrmRegisterUser.lblCountryCodeTitle.setVisibility(false);\n} \n",
            "parentId": null,
            "callbackType": null
        }]
    }
}