{
    "AS_FlexContainer_icd29fef4bfd4583a062acacf9df0c14": {
        "id": "AS_FlexContainer_icd29fef4bfd4583a062acacf9df0c14",
        "type": "ACTION_SEQUENCE",
        "name": "backfromAlertsKA",
        "params": [{
            "datatype": "collection",
            "name": "eventobject"
        }],
        "contextObj": {
            "name": "frmAlertsKA",
            "type": "forms",
            "platform": "",
            "KUID": "8f4fb6ef80f34f5f861f12908e1a5309"
        },
        "language": "js",
        "actions": [{
            "id": "ADD_SNIPPET__b9c71842f3af4b11a7480922c5f3a902",
            "type": "ADD_SNIPPET",
            "codeSnippet": "// frmSMSNotification.show();\nonselection_ALERTANDNOTIFICATIONTOGGLE(\"ALERT\");",
            "parentId": null,
            "callbackType": null
        }]
    }
}