{
    "AS_FlexContainer_e94e370703c841bc94b26a94b2422be3": {
        "id": "AS_FlexContainer_e94e370703c841bc94b26a94b2422be3",
        "type": "ACTION_SEQUENCE",
        "name": "backfromEstmtConfirm",
        "params": [{
            "datatype": "collection",
            "name": "eventobject"
        }],
        "language": "js",
        "actions": [{
            "id": "ADD_SNIPPET_ide_onClick_bce2541d08424825b298dabc60ac9aac",
            "type": "ADD_SNIPPET",
            "codeSnippet": "frmEstatementLandingKA.show();",
            "callbackType": null
        }]
    }
}