{
    "AS_Button_22217b3760214733b960c4365e49f74b": {
        "id": "AS_Button_22217b3760214733b960c4365e49f74b",
        "type": "ACTION_SEQUENCE",
        "name": "btn2_frmLoginKA",
        "params": [{
            "datatype": "collection",
            "name": "eventobject"
        }],
        "contextObj": {
            "name": "frmLoginKA",
            "type": "forms",
            "platform": "",
            "KUID": "7b1aa8fceb6b4070833e9eab879b0e5e"
        },
        "language": "js",
        "actions": [{
            "id": "ADD_SNIPPET__90751fa228ea4ea0ab6f9782672d5349",
            "type": "ADD_SNIPPET",
            "codeSnippet": "check_Login_Pin(2);",
            "parentId": null,
            "callbackType": null
        }]
    }
}