{
    "AS_Button_a4639a31d035446a9e66e7e2423ed89a": {
        "id": "AS_Button_a4639a31d035446a9e66e7e2423ed89a",
        "type": "ACTION_SEQUENCE",
        "name": "btn6_frmLoginKA",
        "params": [{
            "datatype": "collection",
            "name": "eventobject"
        }],
        "contextObj": {
            "name": "frmLoginKA",
            "type": "forms",
            "platform": "",
            "KUID": "7b1aa8fceb6b4070833e9eab879b0e5e"
        },
        "language": "js",
        "actions": [{
            "id": "ADD_SNIPPET__c5ba0902e19b4dde94ae92e7f445bd02",
            "type": "ADD_SNIPPET",
            "codeSnippet": "check_Login_Pin(6);",
            "parentId": null,
            "callbackType": null
        }]
    }
}