{
    "AS_Button_13469d8209c84ca6b7f8647821063d72": {
        "id": "AS_Button_13469d8209c84ca6b7f8647821063d72",
        "type": "ACTION_SEQUENCE",
        "name": "btnCancel_pinLogin",
        "params": [{
            "datatype": "collection",
            "name": "eventobject"
        }],
        "contextObj": {
            "name": "frmLoginKA",
            "type": "forms",
            "platform": "",
            "KUID": "7b1aa8fceb6b4070833e9eab879b0e5e"
        },
        "language": "js",
        "actions": [{
            "id": "ADD_SNIPPET__a2b6fd6a9f974514b2bf2cac4f76a764",
            "type": "ADD_SNIPPET",
            "codeSnippet": "frmLoginKA.loginMainScreen.setEnabled(true);\nfrmLoginKA.loginMainScreen.opacity=1;\nfrmLoginKA.skin=\"sknLoginMainPage\";\nfrmLoginKA.loginMainScreen.setVisibility(true);\nforgotPinNavigation();",
            "parentId": null,
            "callbackType": null
        }]
    }
}