{
    "AS_Button_cb8f52a6baa742f0bf21db8cf6b224e9": {
        "id": "AS_Button_cb8f52a6baa742f0bf21db8cf6b224e9",
        "type": "ACTION_SEQUENCE",
        "name": "cancel_labiba_login_process",
        "params": [{
            "datatype": "collection",
            "name": "eventobject"
        }],
        "contextObj": {
            "name": "frmLoginKA",
            "type": "forms",
            "platform": "",
            "KUID": "7b1aa8fceb6b4070833e9eab879b0e5e"
        },
        "language": "js",
        "actions": [{
            "id": "ADD_SNIPPET__eebaff1dc8cb415e8d567d3519835f06",
            "type": "ADD_SNIPPET",
            "codeSnippet": "cancelLabibaLoginProcess();",
            "parentId": null,
            "callbackType": null
        }]
    }
}