{
    "AS_Button_d3aa7357d4a044a39303ddfc911b264f": {
        "id": "AS_Button_d3aa7357d4a044a39303ddfc911b264f",
        "type": "ACTION_SEQUENCE",
        "name": "ClickofBackofJomopayConfirmation",
        "params": [{
            "datatype": "collection",
            "name": "eventobject"
        }],
        "contextObj": {
            "name": "frmJoMoPayConfirmation",
            "type": "forms",
            "platform": "",
            "KUID": "d9e9a2bc27fc446d95ef70dfedcdf330"
        },
        "language": "js",
        "actions": [{
            "id": "ADD_SNIPPET__a0ae0fa4f0674bbe9f61678b37cc7a85",
            "type": "ADD_SNIPPET",
            "codeSnippet": "frmJoMoPay.show();",
            "parentId": null,
            "callbackType": null
        }]
    }
}