{
    "AS_Form_ecbafd1996e04628ac9023de7d1223a8": {
        "id": "AS_Form_ecbafd1996e04628ac9023de7d1223a8",
        "type": "ACTION_SEQUENCE",
        "name": "devBacKAddExtAcc",
        "params": [{
            "datatype": "collection",
            "name": "eventobject"
        }],
        "contextObj": {
            "name": "frmAddExternalAccountHome",
            "type": "forms",
            "platform": "",
            "KUID": "e0318a85d7bb45bd847986f507b88f55"
        },
        "language": "js",
        "actions": [{
            "id": "ADD_SNIPPET__cd62f56bce3c4eb6bd28f9f23afb741c",
            "type": "ADD_SNIPPET",
            "codeSnippet": "frmPaymentDashboard.show();;",
            "parentId": null,
            "callbackType": null
        }]
    }
}