{
    "AS_Form_gc8ccf78b3ad40ef88bf60cb1368e7a4": {
        "id": "AS_Form_gc8ccf78b3ad40ef88bf60cb1368e7a4",
        "type": "ACTION_SEQUENCE",
        "name": "devicebackdisabledjomopay1",
        "params": [{
            "datatype": "collection",
            "name": "eventobject"
        }],
        "contextObj": {
            "name": "frmJomopayContacts",
            "type": "forms",
            "platform": "",
            "KUID": "e87eb38e1ea54c6586c26f1aee3e02d4"
        },
        "language": "js",
        "actions": [{
            "id": "ADD_SNIPPET__jc405d6c9f534997a48a8990ac132ab6",
            "type": "ADD_SNIPPET",
            "codeSnippet": "kony.print(\"Device BACK DISABLED\");",
            "parentId": null,
            "callbackType": null
        }]
    }
}