{
    "AS_TextField_g90e239868f046658b662648076b22ea": {
        "id": "AS_TextField_g90e239868f046658b662648076b22ea",
        "type": "ACTION_SEQUENCE",
        "name": "doneofPwd",
        "params": [{
            "datatype": "collection",
            "name": "eventobject"
        }, {
            "datatype": "string",
            "name": "changedtext"
        }],
        "contextObj": {
            "name": "frmLoginKA",
            "type": "forms",
            "platform": "",
            "KUID": "7b1aa8fceb6b4070833e9eab879b0e5e"
        },
        "language": "js",
        "actions": [{
            "id": "ADD_SNIPPET__f2b0db91d83142859f47546ad03b24fe",
            "type": "ADD_SNIPPET",
            "codeSnippet": "//ondonePassword();\nkony.application.showLoadingScreen(null,\"\", constants.LOADING_SCREEN_POSITION_ONLY_CENTER, true, true, null);\nonClickLogin();",
            "parentId": null
        }]
    }
}