{
    "AS_Segment_04b2f7deeec2415d9d660434608bd03b": {
        "id": "AS_Segment_04b2f7deeec2415d9d660434608bd03b",
        "type": "ACTION_SEQUENCE",
        "name": "forDepositAndroidOnRowClick",
        "params": [{
            "datatype": "collection",
            "name": "eventobject"
        }, {
            "datatype": "number",
            "name": "sectionNumber"
        }, {
            "datatype": "number",
            "name": "rowNumber"
        }],
        "contextObj": {
            "name": "frmPreferredAccountsKA",
            "type": "forms",
            "platform": "",
            "KUID": "7a9e568cea85447086c10e8f96c76840"
        },
        "language": "js",
        "actions": [{
            "id": "INVOKE_FUNCTION___49d3774189e14b1eb8e2e580368b1578",
            "type": "INVOKE_FUNCTION",
            "display": "onClickDepositsAccounts",
            "inputparams": [],
            "parentId": null,
            "callbackType": null,
            "source": "module"
        }]
    }
}