{
    "AS_Form_84aa558d9aa04c73ac391702670c5ab6": {
        "id": "AS_Form_84aa558d9aa04c73ac391702670c5ab6",
        "type": "ACTION_SEQUENCE",
        "name": "frmDealsAlertKADeviceBack",
        "params": [{
            "datatype": "collection",
            "name": "eventobject"
        }],
        "contextObj": {
            "type": "forms",
            "platform": null,
            "KUID": "2faae4f42a084d0194092153c0bb7a75"
        },
        "language": "js",
        "actions": [{
            "id": "ADD_SNIPPET_ide_onDeviceBack_c0fa96c909344c7a8db3c8d42839c82b",
            "type": "ADD_SNIPPET",
            "codeSnippet": "kony.print(\"Device Back\");",
            "callbackType": null
        }]
    }
}