{
    "AS_FlexContainer_87bad1c856c34015b9ddd554e8640655": {
        "id": "AS_FlexContainer_87bad1c856c34015b9ddd554e8640655",
        "type": "ACTION_SEQUENCE",
        "name": "frmPinEntryStep2_NoThanks",
        "params": [{
            "datatype": "collection",
            "name": "eventobject"
        }, {
            "datatype": "string",
            "name": "x"
        }, {
            "datatype": "string",
            "name": "y"
        }],
        "contextObj": {
            "type": "forms",
            "platform": null,
            "KUID": "78ac9be9e6894bc09709d37253728ec4"
        },
        "language": "js",
        "actions": [{
            "id": "ADD_SNIPPET_ide_onTouchEnd_00b60b4e847a4a599ca96b9997687bea",
            "type": "ADD_SNIPPET",
            "codeSnippet": "clickNoThanks();",
            "callbackType": null
        }]
    }
}