{
    "AS_Form_9d7935fe18d04a47a2dd99753c015ca4": {
        "id": "AS_Form_9d7935fe18d04a47a2dd99753c015ca4",
        "type": "ACTION_SEQUENCE",
        "name": "frmTandCdeviceback",
        "params": [{
            "datatype": "collection",
            "name": "eventobject"
        }],
        "contextObj": {
            "type": "forms",
            "platform": "",
            "KUID": "4b4204e832a54ea3abf1cbb0a2c48717"
        },
        "language": "js",
        "actions": [{
            "id": "ADD_SNIPPET__78db2967f1d645b99e0b5a66acda5e4c",
            "type": "ADD_SNIPPET",
            "codeSnippet": "kony.print(\"Device Back\");",
            "parentId": null,
            "callbackType": null
        }]
    }
}