{
    "AS_TextField_e529c8d4c0a9419491861170617350c6": {
        "id": "AS_TextField_e529c8d4c0a9419491861170617350c6",
        "type": "ACTION_SEQUENCE",
        "name": "getNumericdatanewTransfers",
        "params": [{
            "datatype": "collection",
            "name": "eventobject"
        }, {
            "datatype": "string",
            "name": "x"
        }, {
            "datatype": "string",
            "name": "y"
        }],
        "contextObj": {
            "name": "frmNewTransferKA",
            "type": "forms",
            "platform": "",
            "KUID": "2ac343500306428da0ceef91a3b44d18"
        },
        "language": "js",
        "actions": [{
            "id": "ADD_SNIPPET__c479b4f761e042c6807d9fe42fe10973",
            "type": "ADD_SNIPPET",
            "codeSnippet": "//frmNewTransferKA.txtBox.text=formatAmountwithcomma(frmNewTransferKA.txtBox.text,3);\n//var x = getNumberfromcommma(frmNewTransferKA.txtBox.text);\n//frmNewTransferKA.txtBox.text = x;\nfrmNewTransferKA.flxInvalidAmountField.setVisibility(false);\nfrmNewTransferKA.lblLine3.skin = \"lblLine0h8b99d8a85f649\";\nfrmNewTransferKA.txtBox.maxTextLength = 9;\nfrmNewTransferKA.txtBox.text=frmNewTransferKA.lblHiddenAmount.text;",
            "parentId": null,
            "callbackType": null
        }]
    }
}