{
    "AS_NamedActions_9d0527c068364c3fac9c44307313cdd1": {
        "id": "AS_NamedActions_9d0527c068364c3fac9c44307313cdd1",
        "type": "ACTION_SEQUENCE",
        "name": "goBackFromPayBillForm",
        "params": [],
        "language": "js",
        "actions": [{
            "id": "ADD_SNIPPET__040f7c73596f41199cea49e1103908a5",
            "type": "ADD_SNIPPET",
            "codeSnippet": "goBackInBetweenBillPay(); \n",
            "parentId": null,
            "callbackType": null
        }]
    }
}