{
    "AS_FlexContainer_f2c5a21c03204373884529a92fde3c0e": {
        "id": "AS_FlexContainer_f2c5a21c03204373884529a92fde3c0e",
        "type": "ACTION_SEQUENCE",
        "name": "gotoRegisterUser",
        "params": [{
            "datatype": "collection",
            "name": "eventobject"
        }],
        "contextObj": {
            "name": "frmLoginKA",
            "type": "forms",
            "platform": "",
            "KUID": "7b1aa8fceb6b4070833e9eab879b0e5e"
        },
        "language": "js",
        "actions": [{
            "id": "ADD_SNIPPET__bbd8c50f02344f8ba1cd0d007835af85",
            "type": "ADD_SNIPPET",
            "codeSnippet": "gblFromModule = \"RegisterUser\";\nfrmRegisterUser.show();\nfrmLoginKA.passwordTextField.text=\"\";",
            "parentId": null,
            "callbackType": null,
            "disabled": false
        }]
    }
}