{
    "AS_TextField_h298586a8f1a4d9a9ccdf90616a9329c": {
        "id": "AS_TextField_h298586a8f1a4d9a9ccdf90616a9329c",
        "type": "ACTION_SEQUENCE",
        "name": "jomopayonbeginTFPhoneiphone",
        "params": [{
            "datatype": "collection",
            "name": "eventobject"
        }, {
            "datatype": "string",
            "name": "changedtext"
        }],
        "contextObj": {
            "name": "frmJoMoPay",
            "type": "forms",
            "platform": "",
            "KUID": "d41a38dfc97d4e0a8f3b1db96d6a1ca0"
        },
        "language": "js",
        "actions": [{
            "id": "ADD_SNIPPET__c606b8d7a0a64904b45f81e56a8b0a3d",
            "type": "ADD_SNIPPET",
            "codeSnippet": "frmJoMoPay.flxBorderBenificiary.skin=\"skntextFieldDividerBlue\";",
            "parentId": null,
            "callbackType": null
        }]
    }
}