{
    "AS_Button_e43739d43aa742e8ba91d3a243c5383e": {
        "id": "AS_Button_e43739d43aa742e8ba91d3a243c5383e",
        "type": "ACTION_SEQUENCE",
        "name": "jomopaynavigatetocongratulations",
        "params": [{
            "datatype": "collection",
            "name": "eventobject"
        }],
        "contextObj": {
            "name": "frmJoMoPayConfirmation",
            "type": "forms",
            "platform": "",
            "KUID": "d9e9a2bc27fc446d95ef70dfedcdf330"
        },
        "language": "js",
        "actions": [{
            "id": "ADD_SNIPPET__b0d44077ef1b42268ae2e9a62a21ff74",
            "type": "ADD_SNIPPET",
            "codeSnippet": null,
            "parentId": null,
            "callbackType": null
        }]
    }
}