{
    "AS_Button_7555369e80e14c399577b5fc7b4298e3": {
        "id": "AS_Button_7555369e80e14c399577b5fc7b4298e3",
        "type": "ACTION_SEQUENCE",
        "name": "noThnksDevRegSuccess",
        "params": [{
            "datatype": "collection",
            "name": "eventobject"
        }],
        "language": "js",
        "actions": [{
            "id": "ADD_SNIPPET_ide_onClick_d10c3dba3c1d410f9ed48d5717781822",
            "type": "ADD_SNIPPET",
            "codeSnippet": "if(defaultPage == \"frmAccountsLandingKA\")\n{\n  var adsPC = applicationManager.getAdsPresentationController();\n  adsPC.ShowPostLoginAdvertisementform(); \n}\nelse\n{\n  showFormOrderList();\n}",
            "callbackType": null
        }]
    }
}