{
    "AS_TextField_f356a9d46ac14d62a9ac4ba065d45c63": {
        "id": "AS_TextField_f356a9d46ac14d62a9ac4ba065d45c63",
        "type": "ACTION_SEQUENCE",
        "name": "onBeginEditingProfessioniPhone",
        "params": [{
            "datatype": "collection",
            "name": "eventobject"
        }, {
            "datatype": "string",
            "name": "changedtext"
        }],
        "contextObj": {
            "name": "frmApplyNewCardsKA",
            "type": "forms",
            "platform": "",
            "KUID": "a05ce8d2e4404e40bfbc8dad585d28dc"
        },
        "language": "js",
        "actions": [{
            "id": "ADD_SNIPPET__j9d8c37b9a0d4b26a28d18664c12a5be",
            "type": "ADD_SNIPPET",
            "codeSnippet": "animate_NEWCARDSOPTIOS(\"UP\", \"lblProfessionTitle\", frmApplyNewCardsKA.txtProfession.text);",
            "parentId": null
        }]
    }
}