{
    "AS_TextField_d1e87e13d5484728973ce493b734c3e9": {
        "id": "AS_TextField_d1e87e13d5484728973ce493b734c3e9",
        "type": "ACTION_SEQUENCE",
        "name": "onBeginEditingPasswordLang",
        "params": [{
            "datatype": "collection",
            "name": "eventobject"
        }, {
            "datatype": "string",
            "name": "changedtext"
        }],
        "language": "js",
        "actions": [{
            "id": "ADD_SNIPPET_ide_onBeginEditing_a6710454fc2945ba8b1360fe65363ac9",
            "type": "ADD_SNIPPET",
            "codeSnippet": "try{\n\tfrmLanguageChange.flxbdrpwd.skin=\"skntextFieldDividerBlue\";\n}catch(e){\n\tkony.print(\"Exception_Password ::\"+e);\n}"
        }]
    }
}