{
    "AS_TextField_j7cc0c561c6a40c9a68406a077d90648": {
        "id": "AS_TextField_j7cc0c561c6a40c9a68406a077d90648",
        "type": "ACTION_SEQUENCE",
        "name": "onBeginEditingUsernameLang",
        "params": [{
            "datatype": "collection",
            "name": "eventobject"
        }, {
            "datatype": "string",
            "name": "changedtext"
        }],
        "language": "js",
        "actions": [{
            "id": "ADD_SNIPPET_ide_onBeginEditing_b8b9f5277cd74332b46ce07b374c9fd9",
            "type": "ADD_SNIPPET",
            "codeSnippet": "frmLanguageChange.borderBottom.skin=\"skntextFieldDividerBlue\";\n//animateLabel(\"UP\",\"lblUserName\",frmLoginKA.tbxusernameTextField.text);",
            "callbackType": null
        }]
    }
}