{
    "AS_TextField_jd8085af0fcd405fa7eaff76fb310921": {
        "id": "AS_TextField_jd8085af0fcd405fa7eaff76fb310921",
        "type": "ACTION_SEQUENCE",
        "name": "onBEiphoneJIDRegJP",
        "params": [{
            "datatype": "collection",
            "name": "eventobject"
        }, {
            "datatype": "string",
            "name": "changedtext"
        }],
        "language": "js",
        "actions": [{
            "id": "ADD_SNIPPET_ide_onBeginEditing_e66e724d099a4bbca8586568cd13ddca",
            "type": "ADD_SNIPPET",
            "codeSnippet": "frmJoMoPayRegistration.flxBorderjomopayID.skin=\"skntextFieldDividerBlue\";",
            "callbackType": null
        }]
    }
}