{
    "AS_TextField_ebf1974025f2449d82743219c5bcdfeb": {
        "id": "AS_TextField_ebf1974025f2449d82743219c5bcdfeb",
        "type": "ACTION_SEQUENCE",
        "name": "onBeginEditingiphoneRegJP",
        "params": [{
            "datatype": "collection",
            "name": "eventobject"
        }, {
            "datatype": "string",
            "name": "changedtext"
        }],
        "language": "js",
        "actions": [{
            "id": "ADD_SNIPPET_ide_onBeginEditing_c17bdd7412c242f0baa1f8332aa791fb",
            "type": "ADD_SNIPPET",
            "codeSnippet": "frmJoMoPayRegistration.flxBorderBenificiary.skin=\"skntextFieldDividerBlue\";",
            "callbackType": null
        }]
    }
}