{
    "AS_Button_1678b00677844bbe8b7de53086dba31d": {
        "id": "AS_Button_1678b00677844bbe8b7de53086dba31d",
        "type": "ACTION_SEQUENCE",
        "name": "onclickforgotpwd",
        "params": [{
            "datatype": "collection",
            "name": "eventobject"
        }],
        "language": "js",
        "actions": [{
            "id": "ADD_SNIPPET__hf24e33aec344acbb88d13dad23f40d7",
            "type": "ADD_SNIPPET",
            "codeSnippet": "kony.print(\"Removed\");",
            "parentId": null,
            "callbackType": null
        }]
    }
}