{
    "AS_Button_h469116c554740b485052ead96391b7d": {
        "id": "AS_Button_h469116c554740b485052ead96391b7d",
        "type": "ACTION_SEQUENCE",
        "name": "onClickAccountNumberApplyCards",
        "params": [{
            "datatype": "collection",
            "name": "eventobject"
        }],
        "contextObj": {
            "name": "frmApplyNewCardsKA",
            "type": "forms",
            "platform": "",
            "KUID": "a05ce8d2e4404e40bfbc8dad585d28dc"
        },
        "language": "js",
        "actions": [{
            "id": "ADD_SNIPPET__a8c5297066e245958b2c9c481eb8b36c",
            "type": "ADD_SNIPPET",
            "codeSnippet": "onChoose_OPTIONS_APPLYNEWCARDS(\"AccountNumber\");",
            "parentId": null
        }]
    }
}