{
    "AS_FlexContainer_f73c2bbf39bb4af68638e1f198787c59": {
        "id": "AS_FlexContainer_f73c2bbf39bb4af68638e1f198787c59",
        "type": "ACTION_SEQUENCE",
        "name": "onClickAmntDescSI",
        "params": [{
            "datatype": "collection",
            "name": "eventobject"
        }],
        "language": "js",
        "actions": [{
            "id": "ADD_SNIPPET__f2672973256640beb7fcf3fd1df38390",
            "type": "ADD_SNIPPET",
            "codeSnippet": "amountSortSI(frmStandingInstructions.segSIList,\"Amount\",\"descending\");",
            "parentId": null,
            "callbackType": null
        }]
    }
}