{
    "AS_Button_ec163423670d46408b62777c1c108944": {
        "id": "AS_Button_ec163423670d46408b62777c1c108944",
        "type": "ACTION_SEQUENCE",
        "name": "onClcikDeleteBiller",
        "params": [{
            "name": "eventobject",
            "datatype": "collection"
        }, {
            "name": "context",
            "datatype": "collection"
        }],
        "language": "js",
        "actions": [{
            "id": "ADD_SNIPPET_ide_onClick_h3aca4df702a43ee9e0b41ca4e68fec0",
            "type": "ADD_SNIPPET",
            "codeSnippet": "kony.boj.deleteBillerFromSegment(eventobject,context);",
            "callbackType": null
        }]
    }
}