{
    "AS_FlexContainer_jb7a4cf3da704ce3a08694cac170d323": {
        "id": "AS_FlexContainer_jb7a4cf3da704ce3a08694cac170d323",
        "type": "ACTION_SEQUENCE",
        "name": "onClickLinkAccounts",
        "params": [{
            "name": "eventobject",
            "datatype": "collection"
        }, {
            "name": "context",
            "datatype": "collection"
        }],
        "contextObj": {
            "name": "tmpLinkedAccounts",
            "type": "templates",
            "platform": "",
            "KUID": "ga54dd6d57f945839065f3f22ca7c667"
        },
        "language": "js",
        "actions": [{
            "id": "ADD_SNIPPET__c1749b8e017d47acbebaef57adb0f90d",
            "type": "ADD_SNIPPET",
            "codeSnippet": "onSelection_LINKED_ACCOUNTS(eventobject,context);",
            "parentId": null,
            "callbackType": null
        }]
    }
}