{
    "AS_Button_fb3fd93f738d41238621624d47672227": {
        "id": "AS_Button_fb3fd93f738d41238621624d47672227",
        "type": "ACTION_SEQUENCE",
        "name": "onclickbtncard",
        "params": [{
            "datatype": "collection",
            "name": "eventobject"
        }],
        "language": "js",
        "actions": [{
            "id": "ADD_SNIPPET_ide_onClick_gbd1a1e52d0a466aa0ac63c556cb545b",
            "type": "ADD_SNIPPET",
            "codeSnippet": "onclickcardbtn();",
            "callbackType": null
        }]
    }
}