{
    "AS_Button_d13641c68e3e4d19802cd96f1a37ccda": {
        "id": "AS_Button_d13641c68e3e4d19802cd96f1a37ccda",
        "type": "ACTION_SEQUENCE",
        "name": "onClickApplyPrimaryCreditCard",
        "params": [{
            "datatype": "collection",
            "name": "eventobject"
        }],
        "contextObj": {
            "name": "frmApplyNewCardsKA",
            "type": "forms",
            "platform": "",
            "KUID": "a05ce8d2e4404e40bfbc8dad585d28dc"
        },
        "language": "js",
        "actions": [{
            "id": "ADD_SNIPPET__fa3a18d402b64fa785cc1879abc300e3",
            "type": "ADD_SNIPPET",
            "codeSnippet": "onClick_RADIOBUTTON_APPLYNEWCARDSTYPE(frmApplyNewCardsKA.btnPrimaryCreditCard,frmApplyNewCardsKA.lblPrimaryCreditCardTitle,\"PrimaryCreditCard\");",
            "parentId": null,
            "callbackType": null
        }]
    }
}