{
    "AS_FlexContainer_c1e2519b1a634819b42ceb4b727c0215": {
        "id": "AS_FlexContainer_c1e2519b1a634819b42ceb4b727c0215",
        "type": "ACTION_SEQUENCE",
        "name": "onClickEnableDailyBalanceAlert",
        "params": [{
            "datatype": "collection",
            "name": "eventobject"
        }],
        "contextObj": {
            "name": "frmAlertsKA",
            "type": "forms",
            "platform": "",
            "KUID": "8f4fb6ef80f34f5f861f12908e1a5309"
        },
        "language": "js",
        "actions": [{
            "id": "ADD_SNIPPET__dc066c8411134520b54b730ff9f0faa8",
            "type": "ADD_SNIPPET",
            "codeSnippet": "show_optalert(\"dailybalance\",frmAlertsKA.lblDailyBalanceFlag);",
            "parentId": null
        }]
    }
}