{
    "AS_FlexContainer_c9556d7feaf7477a82431021398a81f1": {
        "id": "AS_FlexContainer_c9556d7feaf7477a82431021398a81f1",
        "type": "ACTION_SEQUENCE",
        "name": "onClickManageCardsSortAmountAscending",
        "params": [{
            "datatype": "collection",
            "name": "eventobject"
        }],
        "language": "js",
        "actions": [{
            "id": "INVOKE_FUNCTION__ide_onClick_jaab55d63313444b9064dd3f51299086",
            "type": "INVOKE_FUNCTION",
            "sequenceKUID": "accountInfoSorting",
            "display": "accountInfoSorting",
            "inputparams": [{
                "name": "widget",
                "value": "frmManageCardsKA.imgSortAmountAsc"
            }, {
                "name": "sortby",
                "value": "\"Amount\""
            }, {
                "name": "type",
                "value": "\"ascending\""
            }],
            "callbackType": null,
            "disabled": false,
            "source": "module"
        }]
    }
}