{
    "AS_Button_c1b983d863754d019ac8a4b4569e790d": {
        "id": "AS_Button_c1b983d863754d019ac8a4b4569e790d",
        "type": "ACTION_SEQUENCE",
        "name": "onclickDealsLoans",
        "params": [{
            "datatype": "collection",
            "name": "eventobject"
        }],
        "contextObj": {
            "name": "frmAccountsLandingKA",
            "type": "forms",
            "platform": "",
            "KUID": "d62a2a0906c64d2281addc95893a6544"
        },
        "language": "js",
        "actions": [{
            "id": "ADD_SNIPPET__a206eba106e641808d7b311d09a71a62",
            "type": "ADD_SNIPPET",
            "codeSnippet": "frmAccountsLandingKA.flxAccountsMain.setVisibility(false);\nif(frmAccountsLandingKA.segAccountsKADeals.data !==null && frmAccountsLandingKA.segAccountsKADeals.data.length === 1){\n        depositOnetimeCall();\n      }else{ \ndealsAnimation();\n      }",
            "parentId": null,
            "callbackType": null
        }]
    }
}