{
    "AS_Button_h0dd2977da3d4620b2ac91c08e15d938": {
        "id": "AS_Button_h0dd2977da3d4620b2ac91c08e15d938",
        "type": "ACTION_SEQUENCE",
        "name": "onClickApplyCardsCardsLanding",
        "params": [{
            "datatype": "collection",
            "name": "eventobject"
        }],
        "contextObj": {
            "name": "frmCardsLandingKA",
            "type": "forms",
            "platform": "",
            "KUID": "d077415ce83a4f0096a87719325e288d"
        },
        "language": "js",
        "actions": [{
            "id": "ADD_SNIPPET__abe0ea4dc9544668bbe8cfc2f59cef72",
            "type": "ADD_SNIPPET",
            "codeSnippet": "switch_CARDSLANDING_APPLYCARDS(\"flxApplyNewCards\");",
            "parentId": null,
            "callbackType": null
        }]
    }
}