{
    "AS_Button_a44e81171c1d4f15b20b16206e5c6943": {
        "id": "AS_Button_a44e81171c1d4f15b20b16206e5c6943",
        "type": "ACTION_SEQUENCE",
        "name": "onClickLoginInLanguage",
        "params": [{
            "datatype": "collection",
            "name": "eventobject"
        }],
        "language": "js",
        "actions": [{
            "id": "ADD_SNIPPET_ide_onClick_b08177a876b54009a6ad6ea81c0af31e",
            "type": "ADD_SNIPPET",
            "codeSnippet": "kony.application.showLoadingScreen(null,\"\", constants.LOADING_SCREEN_POSITION_ONLY_CENTER, true, true, null);\nlogin_FROMLANGUAGE();",
            "callbackType": null
        }]
    }
}