{
    "AS_Button_8e2852949ad244ef8a88aba9ec6a9408": {
        "id": "AS_Button_8e2852949ad244ef8a88aba9ec6a9408",
        "type": "ACTION_SEQUENCE",
        "name": "onClickForgotPin",
        "params": [{
            "datatype": "collection",
            "name": "eventobject"
        }],
        "contextObj": {
            "name": "frmLoginKA",
            "type": "forms",
            "platform": "",
            "KUID": "7b1aa8fceb6b4070833e9eab879b0e5e"
        },
        "language": "js",
        "actions": [{
            "id": "ADD_SNIPPET__f489698650284e3399758894533df5a4",
            "type": "ADD_SNIPPET",
            "codeSnippet": "frmLoginKA.loginMainScreen.setEnabled(true);\nfrmLoginKA.skin=\"sknLoginMainPage\";\nfrmLoginKA.loginMainScreen.opacity=1;\nforgotPinNavigation();",
            "parentId": null,
            "callbackType": null
        }]
    }
}