{
    "AS_FlexContainer_e26e3a8dbcdb4c7e92220d55e21b6c76": {
        "id": "AS_FlexContainer_e26e3a8dbcdb4c7e92220d55e21b6c76",
        "type": "ACTION_SEQUENCE",
        "name": "onClickCardStatementYear",
        "params": [{
            "datatype": "collection",
            "name": "eventobject"
        }],
        "language": "js",
        "actions": [{
            "id": "ADD_SNIPPET_ide_onClick_bb448ba9786d4593932b14c41c2a4d87",
            "type": "ADD_SNIPPET",
            "codeSnippet": "// create_dynamicFilterPopup();\nif(frmCardStatementKA.flxCardsSegmentOption.top != \"100%\"){\n\tanimate_cardsFilterOption();\n}\nvar dat = new Date().getFullYear();\nvar temp = [];\nfor(var i=dat,j =0;i>dat-10;i--,j++)\n  temp[j] = {\"lblValue\":i.toFixed(),\"lblTitle\":\"Year\"};\nfrmCardStatementKA.segCardsOptions.setData(temp);\nanimate_cardsFilterOption();"
        }]
    }
}