{
    "AS_FlexContainer_dafa2cff9f634e3e8b9ec6ae7853df72": {
        "id": "AS_FlexContainer_dafa2cff9f634e3e8b9ec6ae7853df72",
        "type": "ACTION_SEQUENCE",
        "name": "onClickPaymentTransactionSortAmountDescending",
        "params": [{
            "datatype": "collection",
            "name": "eventobject"
        }],
        "language": "js",
        "actions": [{
            "id": "INVOKE_FUNCTION__ide_onClick_d83fa56c4ff342aa91349747424e7bd8",
            "type": "INVOKE_FUNCTION",
            "sequenceKUID": "accountInfoSorting",
            "display": "accountInfoSorting",
            "inputparams": [{
                "name": "widget",
                "value": "frmJoMoPayLanding.imgSortAmountDesc"
            }, {
                "name": "sortby",
                "value": "\"Amount\""
            }, {
                "name": "type",
                "value": "\"descending\""
            }],
            "callbackType": null,
            "disabled": false,
            "source": "module"
        }]
    }
}