{
    "AS_FlexContainer_c7eee294b7574d42b5ace1009b3949c1": {
        "id": "AS_FlexContainer_c7eee294b7574d42b5ace1009b3949c1",
        "type": "ACTION_SEQUENCE",
        "name": "onClickMonthListStatistics",
        "params": [{
            "datatype": "collection",
            "name": "eventobject"
        }],
        "language": "js",
        "actions": [{
            "id": "ADD_SNIPPET_ide_onClick_a91b9205038f4c0fbb0621ff681fadb1",
            "type": "ADD_SNIPPET",
            "codeSnippet": "kony.boj.manualService(\"Denomination\");\n// gblBiller = \"Denom\";\n// frmBillerListForm.show();",
            "callbackType": null
        }]
    }
}