{
    "AS_Segment_hd88153f4eb640c49dbd43ab91061e85": {
        "id": "AS_Segment_hd88153f4eb640c49dbd43ab91061e85",
        "type": "ACTION_SEQUENCE",
        "name": "onClickSegmentPopup",
        "params": [{
            "datatype": "collection",
            "name": "eventobject"
        }, {
            "datatype": "number",
            "name": "sectionNumber"
        }, {
            "datatype": "number",
            "name": "rowNumber"
        }],
        "language": "js",
        "actions": [{
            "id": "ADD_SNIPPET_ide_onRowClick_c3f4395df6804d76b36ca90ba1d312a7",
            "type": "ADD_SNIPPET",
            "codeSnippet": "kony.print(\"Segment on click\");\nonClickPopUpSegmentQuickPay();",
            "callbackType": null
        }]
    }
}