{
    "AS_FlexContainer_ddfca28b81aa4d7cb1a0e00929684612": {
        "id": "AS_FlexContainer_ddfca28b81aa4d7cb1a0e00929684612",
        "type": "ACTION_SEQUENCE",
        "name": "onClickPinIDSet",
        "params": [{
            "datatype": "collection",
            "name": "eventobject"
        }],
        "contextObj": {
            "name": "frmSettingsKA",
            "type": "forms",
            "platform": "",
            "KUID": "hb0fb66c0c224ed284a1334d78669bfa"
        },
        "language": "js",
        "actions": [{
            "id": "ADD_SNIPPET__eee894ffcc7f4c77ba1970fab5ed52e5",
            "type": "ADD_SNIPPET",
            "codeSnippet": "onClickPinIDSet();",
            "parentId": null,
            "callbackType": null
        }]
    }
}