{
    "AS_FlexContainer_c318ff4ce3844b58be8589e28fd6aeba": {
        "id": "AS_FlexContainer_c318ff4ce3844b58be8589e28fd6aeba",
        "type": "ACTION_SEQUENCE",
        "name": "onclickvisitbranch",
        "params": [{
            "datatype": "collection",
            "name": "eventobject"
        }],
        "contextObj": {
            "name": "frmInformationKA",
            "type": "forms",
            "platform": "",
            "KUID": "f18169832ba24ba09c8780278abfc207"
        },
        "language": "js",
        "actions": [{
            "id": "ADD_SNIPPET__fe3a81bb8a8447b1acd0981bc1cfb4c8",
            "type": "ADD_SNIPPET",
            "codeSnippet": " onClickLocateUS(false,\"frmLoginKA\");\n //frmAtmAdvancedFilterKA.show();\nkony.print(\"Commented for testing purpose on click of location Button login screen\");",
            "parentId": null,
            "callbackType": null
        }]
    }
}