{
    "AS_Button_9698855d98464fdcbb332d3a4f7e9b9c": {
        "id": "AS_Button_9698855d98464fdcbb332d3a4f7e9b9c",
        "type": "ACTION_SEQUENCE",
        "name": "onclickcanceluserdetails",
        "params": [{
            "datatype": "collection",
            "name": "eventobject"
        }],
        "language": "js",
        "actions": [{
            "id": "NAVIGATE_TO_FORM___f049372832b044ffbca3080e0ed93d42",
            "type": "NAVIGATE_TO_FORM",
            "formId": "frmLoginKA",
            "formKUID": "7b1aa8fceb6b4070833e9eab879b0e5e",
            "mappings": {},
            "mappingsOrder": [],
            "parentId": "",
            "callbackType": null,
            "enableMappingEditor": true,
            "package": "",
            "navigationObj": "{\n    \"_meta_\": {\n        \"eventName\": \"\",\n        \"widgetId\": \"\"\n    }\n}",
            "isCustomInput": false
        }]
    }
}