{
    "AS_FlexContainer_h2da50b872f64046abf32695b64a974d": {
        "id": "AS_FlexContainer_h2da50b872f64046abf32695b64a974d",
        "type": "ACTION_SEQUENCE",
        "name": "onClickAccountsTab",
        "params": [{
            "datatype": "collection",
            "name": "eventobject"
        }],
        "contextObj": {
            "name": "frmNewBillDetails",
            "type": "forms",
            "platform": "",
            "KUID": "c2132c3b91ec4677ab952b729de9fc0e"
        },
        "language": "js",
        "actions": [{
            "id": "ADD_SNIPPET__e1034d0fdf9a4f2cb402a630d8c0c8c7",
            "type": "ADD_SNIPPET",
            "codeSnippet": "frmAccountDetailsScreen.lblHead.text = \"Accounts\";\ngblTModule = \"BillPay\";\ngotoAccountDetailsScreen(1);",
            "parentId": null,
            "callbackType": null
        }]
    }
}