{
    "AS_Button_e25ee67a7a024673a10b095a6feb0cc3": {
        "id": "AS_Button_e25ee67a7a024673a10b095a6feb0cc3",
        "type": "ACTION_SEQUENCE",
        "name": "onclickJPtypeRegJP",
        "params": [{
            "datatype": "collection",
            "name": "eventobject"
        }],
        "contextObj": {
            "name": "frmJoMoPayRegistration",
            "type": "forms",
            "platform": null,
            "KUID": "h0b4f51069c74c7bbbbd6798301d77d6"
        },
        "language": "js",
        "actions": [{
            "id": "ADD_SNIPPET__j56d9bf2758a4273b2671cea18904ee8",
            "type": "ADD_SNIPPET",
            "codeSnippet": "var flag= \"regJP\";\nkony.boj.jomopaytype(flag);",
            "parentId": null,
            "callbackType": null,
            "disabled": true
        }]
    }
}