{
    "AS_Button_g0d2f17d9fa740eab689b862f3b4c95f": {
        "id": "AS_Button_g0d2f17d9fa740eab689b862f3b4c95f",
        "type": "ACTION_SEQUENCE",
        "name": "onClickAddBeneficiaryJomoPay",
        "params": [{
            "datatype": "collection",
            "name": "eventobject"
        }],
        "contextObj": {
            "name": "frmJoMoPayLanding",
            "type": "forms",
            "platform": "",
            "KUID": "d298f6fe5af04a4dbf76c2b5625a9f8c"
        },
        "language": "js",
        "actions": [{
            "id": "ADD_SNIPPET__h1b7463378854674a410bf36b5ec5802",
            "type": "ADD_SNIPPET",
            "codeSnippet": "navigate_JOMOPAYADDBILLER();",
            "parentId": null,
            "callbackType": null
        }]
    }
}