{
    "AS_FlexContainer_hd869cf49ea444e0ac0cf364ea170db6": {
        "id": "AS_FlexContainer_hd869cf49ea444e0ac0cf364ea170db6",
        "type": "ACTION_SEQUENCE",
        "name": "onClickBackApplyNewCards",
        "params": [{
            "datatype": "collection",
            "name": "eventobject"
        }, {
            "datatype": "string",
            "name": "x"
        }, {
            "datatype": "string",
            "name": "y"
        }],
        "contextObj": {
            "name": "frmApplyNewCardsKA",
            "type": "forms",
            "platform": "",
            "KUID": "a05ce8d2e4404e40bfbc8dad585d28dc"
        },
        "language": "js",
        "actions": [{
            "id": "ADD_SNIPPET__bf29f767f07e43ed95a48c4fe8592b4f",
            "type": "ADD_SNIPPET",
            "codeSnippet": "onClick_BACK_APPLYNEWCARDS();",
            "parentId": null,
            "callbackType": null
        }]
    }
}