{
    "AS_Button_e7ff0073b02644e784c70a563dc3ba16": {
        "id": "AS_Button_e7ff0073b02644e784c70a563dc3ba16",
        "type": "ACTION_SEQUENCE",
        "name": "onClickQRCodeReaderJomoPayLanding",
        "params": [{
            "datatype": "collection",
            "name": "eventobject"
        }],
        "contextObj": {
            "name": "frmJoMoPayLanding",
            "type": "forms",
            "platform": "",
            "KUID": "d298f6fe5af04a4dbf76c2b5625a9f8c"
        },
        "language": "js",
        "actions": [{
            "id": "ADD_SNIPPET__c6bb76742b8649118011a978b9f8f597",
            "type": "ADD_SNIPPET",
            "codeSnippet": "initiate_QRCodeScanner();",
            "parentId": null,
            "callbackType": null
        }]
    }
}