{
    "AS_FlexContainer_d73bae8950a54661890c4e6d2bca55a5": {
        "id": "AS_FlexContainer_d73bae8950a54661890c4e6d2bca55a5",
        "type": "ACTION_SEQUENCE",
        "name": "onClickDevice3DeRegistration",
        "params": [{
            "datatype": "collection",
            "name": "eventobject"
        }],
        "contextObj": {
            "name": "frmDeviceRegistration",
            "type": "forms",
            "platform": "",
            "KUID": "d3f5bb6d97f641aa9040a4a3bbbb5f11"
        },
        "language": "js",
        "actions": [{
            "id": "ADD_SNIPPET__a486437295aa405bbe15f4d61f1f78b1",
            "type": "ADD_SNIPPET",
            "codeSnippet": "// frmDeviceRegistration.flxDevice3SwitchOn.isVisible = false;\n// frmDeviceRegistration.flxDevice3SwitchOff.isVisible = true;\nonSelection_deviceDeregistration(frmDeviceRegistration.lblDevice3.text, frmDeviceRegistration.flxDevice3);",
            "parentId": null,
            "callbackType": null
        }]
    }
}