{
    "AS_FlexContainer_ac8a2dd4fa1947f290af830851f406da": {
        "id": "AS_FlexContainer_ac8a2dd4fa1947f290af830851f406da",
        "type": "ACTION_SEQUENCE",
        "name": "onClickSortAmountAsc",
        "params": [{
            "datatype": "collection",
            "name": "eventobject"
        }],
        "contextObj": {
            "name": "frmAccountDetailKA",
            "type": "forms",
            "platform": "",
            "KUID": "5ed703cad63c441882fc4a36f5ea0c28"
        },
        "language": "js",
        "actions": [{
            "id": "INVOKE_FUNCTION___he005a29fd49465da3a463a15e27878c",
            "type": "INVOKE_FUNCTION",
            "sequenceKUID": "accountInfoSorting",
            "display": "accountInfoSorting",
            "inputparams": [{
                "name": "widget",
                "value": "frmAccountDetailKA.imgSortAmountAsc"
            }, {
                "name": "sortby",
                "value": "\"Amount\""
            }, {
                "name": "type",
                "value": "\"ascending\""
            }],
            "parentId": null,
            "callbackType": null,
            "disabled": null,
            "source": "module"
        }]
    }
}