{
    "AS_Button_c22fa069c670419fb18f77bd20430848": {
        "id": "AS_Button_c22fa069c670419fb18f77bd20430848",
        "type": "ACTION_SEQUENCE",
        "name": "onClickApplyPrimaryDebitCard",
        "params": [{
            "datatype": "collection",
            "name": "eventobject"
        }],
        "contextObj": {
            "name": "frmApplyNewCardsKA",
            "type": "forms",
            "platform": "",
            "KUID": "a05ce8d2e4404e40bfbc8dad585d28dc"
        },
        "language": "js",
        "actions": [{
            "id": "ADD_SNIPPET__j5adf98e23594f25b578ae1ff692d66a",
            "type": "ADD_SNIPPET",
            "codeSnippet": "onClick_RADIOBUTTON_APPLYNEWCARDSTYPE(frmApplyNewCardsKA.btnPrimaryDebitCard,frmApplyNewCardsKA.lblPrimaryDebitCardTitle,\"PrimaryDebitCard\");",
            "parentId": null,
            "callbackType": null
        }]
    }
}