{
    "AS_FlexContainer_g8ec2b96eee34ab18a5c47f2bbbf59b4": {
        "id": "AS_FlexContainer_g8ec2b96eee34ab18a5c47f2bbbf59b4",
        "type": "ACTION_SEQUENCE",
        "name": "onClickBackATMPOSUpdateLimit",
        "params": [{
            "datatype": "collection",
            "name": "eventobject"
        }],
        "contextObj": {
            "name": "frmATMPOSLimit",
            "type": "forms",
            "platform": "",
            "KUID": "j80a8c138d2b4f1e84c03bcdca145900"
        },
        "language": "js",
        "actions": [{
            "id": "ADD_SNIPPET__gf919b3104d841c99c70ed2bc8a0e2c9",
            "type": "ADD_SNIPPET",
            "codeSnippet": "frmManageCardsKA.show();",
            "parentId": null,
            "callbackType": null
        }]
    }
}