{
    "AS_FlexContainer_b66f189e397044aaab7bd93b11b0faae": {
        "id": "AS_FlexContainer_b66f189e397044aaab7bd93b11b0faae",
        "type": "ACTION_SEQUENCE",
        "name": "onClickSwitchOFFONMailOrderLimit",
        "params": [{
            "datatype": "collection",
            "name": "eventobject"
        }],
        "contextObj": {
            "name": "frmEnableInternetTransactionKA",
            "type": "forms",
            "platform": "",
            "KUID": "fc2ebd4d755e4e999be8a252c972d865"
        },
        "language": "js",
        "actions": [{
            "id": "ADD_SNIPPET__j024160539a24751abc009319d4f2658",
            "type": "ADD_SNIPPET",
            "codeSnippet": "switch_ONOFF_ECOMMERCE(frmEnableInternetTransactionKA.flxSwitchOffMO, \"mailOrderLimit\");",
            "parentId": null,
            "callbackType": null
        }]
    }
}