{
    "AS_FlexContainer_ied69763797b4fb58f4c93991e82b572": {
        "id": "AS_FlexContainer_ied69763797b4fb58f4c93991e82b572",
        "type": "ACTION_SEQUENCE",
        "name": "onClickSortDateDesc",
        "params": [{
            "datatype": "collection",
            "name": "eventobject"
        }],
        "contextObj": {
            "name": "frmAccountDetailKA",
            "type": "forms",
            "platform": "",
            "KUID": "5ed703cad63c441882fc4a36f5ea0c28"
        },
        "language": "js",
        "actions": [{
            "id": "INVOKE_FUNCTION___cea1a9e2f68d4088beb408c74983ccc5",
            "type": "INVOKE_FUNCTION",
            "sequenceKUID": "accountInfoSorting",
            "display": "accountInfoSorting",
            "inputparams": [{
                "name": "widget"
            }, {
                "name": "sortby"
            }, {
                "name": "type"
            }],
            "parentId": null,
            "callbackType": null,
            "disabled": null,
            "source": "module"
        }]
    }
}