{
    "AS_Form_dcf426bf4eeb477e99ec28c5cc5177ec": {
        "id": "AS_Form_dcf426bf4eeb477e99ec28c5cc5177ec",
        "type": "ACTION_SEQUENCE",
        "name": "onDeviceBackOpenTermDeposit",
        "params": [{
            "datatype": "collection",
            "name": "eventobject"
        }],
        "contextObj": {
            "name": "frmOpenTermDeposit",
            "type": "forms",
            "platform": "",
            "KUID": "fec6fddbcf8543f2b30114c87e1a7e99"
        },
        "language": "js",
        "actions": [{
            "id": "ADD_SNIPPET__d98f5583f3fa48ab9b5c175d81c677ee",
            "type": "ADD_SNIPPET",
            "codeSnippet": "if (frmOpenTermDeposit.flxConfirmDeposite.isVisible ===true)\n  {\n    frmOpenTermDeposit.flxDepositSelection.setVisibility(true);\n    frmOpenTermDeposit.flxConfirmDeposite.setVisibility(false);\n    frmOpenTermDeposit.btnNextDeposite.setVisibility(true);\n  }\nelse{\n  resetForm();\n  frmAccountsLandingKA.show();\n  frmOpenTermDeposit.destroy();\n}\n",
            "parentId": null
        }]
    }
}