{
    "AS_Form_d7bc0377aa7645849d21c000a68e398d": {
        "id": "AS_Form_d7bc0377aa7645849d21c000a68e398d",
        "type": "ACTION_SEQUENCE",
        "name": "ondevicebackandroidjomopay",
        "params": [{
            "datatype": "collection",
            "name": "eventobject"
        }],
        "contextObj": {
            "name": "frmJoMoPayConfirmation",
            "type": "forms",
            "platform": "",
            "KUID": "d9e9a2bc27fc446d95ef70dfedcdf330"
        },
        "language": "js",
        "actions": [{
            "id": "ADD_SNIPPET__ab39d678dc624f32bfd979095a2526db",
            "type": "ADD_SNIPPET",
            "codeSnippet": "kony.print(\"Device BACK DISABLED\");",
            "parentId": null,
            "callbackType": null
        }]
    }
}