{
    "AS_FlexContainer_e8d74629892c4db0a9ebf6f3e0255202": {
        "id": "AS_FlexContainer_e8d74629892c4db0a9ebf6f3e0255202",
        "type": "ACTION_SEQUENCE",
        "name": "onDoneCardStatement",
        "params": [{
            "datatype": "collection",
            "name": "eventobject"
        }],
        "contextObj": {
            "name": "frmCardStatementKA",
            "type": "forms",
            "platform": "",
            "KUID": "ebef3c7798e64ac49c7cc83d9df0b4f2"
        },
        "language": "js",
        "actions": [{
            "id": "ADD_SNIPPET__f1dd9854676a43588764b9bb32e66367",
            "type": "ADD_SNIPPET",
            "codeSnippet": "// if(gblDownloadPDFFlow){\n// serv_cardStatementDownLoadPDFXL({\"Year\":frmCardStatementKA.lblCardYear.text,\"Month\":frmCardStatementKA.lblCardDate.text,\"Type\":frmCardStatementKA.lblDownloadType.text}); \n// }else{\n// serv_cardStatement({\"Year\":frmCardStatementKA.lblCardYear.text,\"Month\":frmCardStatementKA.lblCardDate.text});\n// }\n\nvalidate_cardStatementFilterDone();",
            "parentId": null,
            "callbackType": null
        }]
    }
}