{
    "AS_TextField_a6e1de9baa724aa6817912d44f746c8a": {
        "id": "AS_TextField_a6e1de9baa724aa6817912d44f746c8a",
        "type": "ACTION_SEQUENCE",
        "name": "onDoneAliasJoMoPayRegistration",
        "params": [{
            "datatype": "collection",
            "name": "eventobject"
        }, {
            "datatype": "string",
            "name": "changedtext"
        }],
        "language": "js",
        "actions": [{
            "id": "ADD_SNIPPET_ide_onDone_a507589194a3422a8caa1c2206481f4b",
            "type": "ADD_SNIPPET",
            "codeSnippet": "animate_NEWCARDSOPTIOS(\"DOWN\",\"lblAliasJMPRstatic\",frmJoMoPayRegistration.txtAlias.text);\n\nif(frmJoMoPayRegistration.txtAlias.text!==\"\"&&frmJoMoPayRegistration.txtAlias.text!==null &&\n\n   validateAliasField(frmJoMoPayRegistration.txtAlias.text, frmJoMoPayRegistration.txtAlias)\n\n  )\n\n{\n\n  frmJoMoPayRegistration.CopyflxBorderjomopayID0b6963ff7a40e46.skin=\"skntextFieldDividerGreen\";\n\n}\n\nelse\n\n{\n\n  frmJoMoPayRegistration.CopyflxBorderjomopayID0b6963ff7a40e46.skin=\"skntextFieldDividerOrange\";\n\n}\n",
            "callbackType": null
        }]
    }
}