{
    "AS_TextField_7e377cac57f84c878befa5270356f7ef": {
        "id": "AS_TextField_7e377cac57f84c878befa5270356f7ef",
        "type": "ACTION_SEQUENCE",
        "name": "ondonesearchmaps",
        "params": [{
            "datatype": "collection",
            "name": "eventobject"
        }, {
            "datatype": "string",
            "name": "changedtext"
        }],
        "contextObj": {
            "name": "frmLocatorKA",
            "type": "forms",
            "platform": "",
            "KUID": "c471585baa904bb49278190a4437d425"
        },
        "language": "js",
        "actions": [{
            "id": "ADD_SNIPPET__6b300c414640404386a7103c6367573a",
            "type": "ADD_SNIPPET",
            "codeSnippet": "gblmapSearchKeypad = false;\nsearchStringmap(frmLocatorKA.locatorSearchTextField.text);",
            "parentId": null,
            "callbackType": null
        }]
    }
}