{
    "AS_TextField_j593524d01ce4b5ea414b27130ab8852": {
        "id": "AS_TextField_j593524d01ce4b5ea414b27130ab8852",
        "type": "ACTION_SEQUENCE",
        "name": "onEndEditingAliasJoMoPayRegistrationiPhone",
        "params": [{
            "datatype": "collection",
            "name": "eventobject"
        }, {
            "datatype": "string",
            "name": "changedtext"
        }],
        "language": "js",
        "actions": [{
            "id": "ADD_SNIPPET_ide_onEndEditing_e0edb6da3fc84037bed086bbdc6fe9ec",
            "type": "ADD_SNIPPET",
            "codeSnippet": "animate_NEWCARDSOPTIOS(\"DOWN\",\"lblAliasJMPRstatic\",frmJoMoPayRegistration.txtAlias.text);\n\nif(frmJoMoPayRegistration.txtAlias.text!==\"\"&&frmJoMoPayRegistration.txtAlias.text!==null &&\n\n   validateAliasField(frmJoMoPayRegistration.txtAlias.text, frmJoMoPayRegistration.txtAlias))\n\n{\n\n  frmJoMoPayRegistration.CopyflxBorderjomopayID0b6963ff7a40e46.skin=\"skntextFieldDividerGreen\";\n\n}\n\nelse\n\n{\n\n  frmJoMoPayRegistration.CopyflxBorderjomopayID0b6963ff7a40e46.skin=\"skntextFieldDividerOrange\";\n\n}",
            "callbackType": null
        }]
    }
}