{
    "AS_TextField_c997f2cdf5604f639f39f8a9df693032": {
        "id": "AS_TextField_c997f2cdf5604f639f39f8a9df693032",
        "type": "ACTION_SEQUENCE",
        "name": "onendeditingandroidRegJP",
        "params": [{
            "datatype": "collection",
            "name": "eventobject"
        }, {
            "datatype": "string",
            "name": "changedtext"
        }],
        "language": "js",
        "actions": [{
            "id": "ADD_SNIPPET_ide_onEndEditing_h0ed513428ac4db38acade1ce2c373ef",
            "type": "ADD_SNIPPET",
            "codeSnippet": "animate_NEWCARDSOPTIOS(\"DOWN\",\"lblNationalID\",frmJoMoPayRegistration.txtNationalID.text);\nif(frmJoMoPayRegistration.txtNationalID.text!==\"\"&&frmJoMoPayRegistration.txtNationalID.text!==null)\n  {\nfrmJoMoPayRegistration.flxBorderBenificiary.skin=\"skntextFieldDividerGreen\";\n  }\nelse\n  {\n    frmJoMoPayRegistration.flxBorderBenificiary.skin=\"skntextFieldDividerJomoPay\";\n  }",
            "callbackType": null
        }]
    }
}