{
    "AS_TextField_h3b9357d5bfd46cfb7a1129d35242edb": {
        "id": "AS_TextField_h3b9357d5bfd46cfb7a1129d35242edb",
        "type": "ACTION_SEQUENCE",
        "name": "onEndEditingUsernameLang",
        "params": [{
            "datatype": "collection",
            "name": "eventobject"
        }, {
            "datatype": "string",
            "name": "changedtext"
        }],
        "language": "js",
        "actions": [{
            "id": "ADD_SNIPPET_ide_onEndEditing_f9dac5bd5f434124ac9d01bba1f281d3",
            "type": "ADD_SNIPPET",
            "codeSnippet": "if(frmLanguageChange.v.text!==null&&frmLanguageChange.tbxusernameTextField.text!==\"\")\n{\n  frmLanguageChange.borderBottom.skin=\"skntextFieldDividerGreen\";\n}\nelse\n  {\n    frmLanguageChange.borderBottom.skin=\"skntextFieldDivider\";\n  }\nanimateLabel(\"DOWN\",\"lblUserName\",frmLanguageChange.tbxusernameTextField.text);\nanimateLabel(\"UP\",\"lblPassword\",frmLanguageChange.passwordTextField.text);",
            "callbackType": null
        }]
    }
}