{
    "AS_TextField_c1cde23bc9cf42a38550b9128b8496c2": {
        "id": "AS_TextField_c1cde23bc9cf42a38550b9128b8496c2",
        "type": "ACTION_SEQUENCE",
        "name": "onendeditingandroidweb",
        "params": [{
            "datatype": "collection",
            "name": "eventobject"
        }, {
            "datatype": "string",
            "name": "changedtext"
        }],
        "language": "js",
        "actions": [{
            "id": "ADD_SNIPPET_ide_onEndEditing_aa6c6d5632394676aafa261ba6728fe1",
            "type": "ADD_SNIPPET",
            "codeSnippet": "frmWebCharge.flxBorderAmount.skin=\"skntextFieldDividerGreen\";\nif(frmWebCharge.lblCurrencyCode.text===\"JOD\")\n{\n  if (frmWebCharge.txtFieldAmount.text !== \"\" && frmWebCharge.txtFieldAmount.text !== \"0\" && frmWebCharge.txtFieldAmount.text !== 0) \n\t{\n       var amount = Number.parseFloat(frmWebCharge.txtFieldAmount.text).toFixed(3);\n       frmWebCharge.txtFieldAmount.text = amount;\n  \t}\n}\nelse\n  {\n    if (frmWebCharge.txtFieldAmount.text !== \"\" && frmWebCharge.txtFieldAmount.text !== \"0\" && frmWebCharge.txtFieldAmount.text !== 0) \n\t{\n       var amount = Number.parseFloat(frmWebCharge.txtFieldAmount.text).toFixed(2);\n       frmWebCharge.txtFieldAmount.text = amount;\n    }\n  }",
            "callbackType": null
        }]
    }
}