{
    "AS_TextField_h700c696b8c94ebd87be37c7c85f6ded": {
        "id": "AS_TextField_h700c696b8c94ebd87be37c7c85f6ded",
        "type": "ACTION_SEQUENCE",
        "name": "onendeditingandroidamountweb",
        "params": [{
            "datatype": "collection",
            "name": "eventobject"
        }, {
            "datatype": "string",
            "name": "changedtext"
        }],
        "language": "js",
        "actions": [{
            "id": "ADD_SNIPPET_ide_onEndEditing_b235bade3ace4430b5046e4a24f8dce3",
            "type": "ADD_SNIPPET",
            "codeSnippet": "onendeditingweb();\nfrmWebCharge.txtFieldAmount.maxTextLength = 20;\nfrmWebCharge.txtFieldAmount.text=formatAmountwithcomma(frmWebCharge.lblHiddenAmount.text,getDecimalNumForCurr(frmWebCharge.lblCurrencyCode.text));",
            "callbackType": null
        }]
    }
}