{
    "AS_TextField_j5a2c0f701e74a55a2e09d45df0f674b": {
        "id": "AS_TextField_j5a2c0f701e74a55a2e09d45df0f674b",
        "type": "ACTION_SEQUENCE",
        "name": "ontextchangephoneRegJP",
        "params": [{
            "datatype": "collection",
            "name": "eventobject"
        }, {
            "datatype": "string",
            "name": "changedtext"
        }],
        "language": "js",
        "actions": [{
            "id": "ADD_SNIPPET_ide_onTextChange_f6b309ce672a442c9d36744befb920e1",
            "type": "ADD_SNIPPET",
            "codeSnippet": "if(!/[0-9]/.test(frmJoMoPayRegistration.txtPhoneNo.text))\n  frmJoMoPayRegistration.txtPhoneNo.text = frmJoMoPayRegistration.txtPhoneNo.text.substring(0, frmJoMoPayRegistration.txtPhoneNo.text.length - 1);\nnextCheck();",
            "callbackType": null
        }]
    }
}