{
    "AS_TextField_b5867012065942a6aced43f465d70424": {
        "id": "AS_TextField_b5867012065942a6aced43f465d70424",
        "type": "ACTION_SEQUENCE",
        "name": "onTextChangeRedeemPointInstantCash",
        "params": [{
            "datatype": "collection",
            "name": "eventobject"
        }, {
            "datatype": "string",
            "name": "changedtext"
        }],
        "contextObj": {
            "name": "frmInstantCash",
            "type": "forms",
            "platform": "",
            "KUID": "e4cbb34fffb6463894c6ceaa9b9831c9"
        },
        "language": "js",
        "actions": [{
            "id": "ADD_SNIPPET__bbe79f3bed784b4b84eade26877f9fcb",
            "type": "ADD_SNIPPET",
            "codeSnippet": "onTextChange_REDEEMPOINTS_INSTANTCASH(\"points\");",
            "parentId": null,
            "callbackType": null
        }]
    }
}