{
    "AS_TextField_bdda154aaee74cac9b5d5a25d4c122f2": {
        "id": "AS_TextField_bdda154aaee74cac9b5d5a25d4c122f2",
        "type": "ACTION_SEQUENCE",
        "name": "onTextChangeBankDetails",
        "params": [{
            "datatype": "collection",
            "name": "eventobject"
        }, {
            "datatype": "string",
            "name": "changedtext"
        }],
        "language": "js",
        "actions": [{
            "id": "ADD_SNIPPET_ide_onTextChange_f93aebc11dfb4f6f92860907bcb36580",
            "type": "ADD_SNIPPET",
            "codeSnippet": "if(frmAddExternalAccountKA.tbxBeneBankDetails.text === \"\"){\n  frmAddExternalAccountKA.flxUnderlineBankDetails.skin = \"sknFlxGreenLine\";\n}else{\n  frmAddExternalAccountKA.flxUnderlineBankDetails.skin = \"sknFlxOrangeLine\";\n}\nkony.boj.addBeneNextStatus();\nif(true){\n  //frmEnrolluserLandingKA.lblNext.skin = \"sknLblNextEnabled\";\n}\nelse{\n // frmEnrolluserLandingKA.lblNext.skin = \"sknLblNextDisabled\";\n}\n",
            "callbackType": null
        }]
    }
}