{
    "AS_TextField_e57f99ac5bf34cc7b214eed78181c195": {
        "id": "AS_TextField_e57f99ac5bf34cc7b214eed78181c195",
        "type": "ACTION_SEQUENCE",
        "name": "onTextChangeRedeemAmount",
        "params": [{
            "datatype": "collection",
            "name": "eventobject"
        }, {
            "datatype": "string",
            "name": "changedtext"
        }],
        "language": "js",
        "actions": [{
            "id": "ADD_SNIPPET_ide_onTextChange_af17c0cdf98e44f4a7cba3e9797e1201",
            "type": "ADD_SNIPPET",
            "codeSnippet": "onTextChange_REDEEMPOINTS_INSTANTCASH(\"amount\");",
            "callbackType": null
        }]
    }
}