{
    "AS_TextField_fe716ef4343342e4a4ae8b7deb323a0d": {
        "id": "AS_TextField_fe716ef4343342e4a4ae8b7deb323a0d",
        "type": "ACTION_SEQUENCE",
        "name": "onTextChangeSwift",
        "params": [{
            "datatype": "collection",
            "name": "eventobject"
        }, {
            "datatype": "string",
            "name": "changedtext"
        }],
        "contextObj": {
            "name": "frmAddExternalAccountKA",
            "type": "forms",
            "platform": "",
            "KUID": "4943cca5d62d4f0ca6f2e9ab47274db5"
        },
        "language": "js",
        "actions": [{
            "id": "ADD_SNIPPET_ide_onTextChange_gd86ef2089874205b3d93df1abe2269e",
            "type": "ADD_SNIPPET",
            "codeSnippet": "if(frmAddExternalAccountKA.txtSwiftCodeKA.text.length >= 8){\n  frmAddExternalAccountKA.flxUnderlineSwiftCode.skin = \"sknFlxGreenLine\";\n}else{\n  frmAddExternalAccountKA.flxUnderlineSwiftCode.skin = \"sknFlxOrangeLine\";\n}\nkony.boj.addBeneNextStatus();\nif(true){\n  //frmEnrolluserLandingKA.lblNext.skin = \"sknLblNextEnabled\";\n}\nelse{\n // frmEnrolluserLandingKA.lblNext.skin = \"sknLblNextDisabled\";\n}\n",
            "callbackType": null
        }]
    }
}