{
    "AS_TextField_if60d854502945d58ffe029dab774a35": {
        "id": "AS_TextField_if60d854502945d58ffe029dab774a35",
        "type": "ACTION_SEQUENCE",
        "name": "onTENatIDRegJP",
        "params": [{
            "datatype": "collection",
            "name": "eventobject"
        }, {
            "datatype": "string",
            "name": "x"
        }, {
            "datatype": "string",
            "name": "y"
        }],
        "contextObj": {
            "name": "frmJoMoPayRegistration",
            "type": "forms",
            "platform": null,
            "KUID": "h0b4f51069c74c7bbbbd6798301d77d6"
        },
        "language": "js",
        "actions": [{
            "id": "ADD_SNIPPET__gb6f22ae3ba94b2a8be461bff70948da",
            "type": "ADD_SNIPPET",
            "codeSnippet": "animate_NEWCARDSOPTIOS(\"UP\",\"lblNationalID\",frmJoMoPayRegistration.txtNationalID.text);\n// frmJoMoPayRegistration.txtNationalID.setFocus();",
            "parentId": null,
            "callbackType": null
        }]
    }
}