{
    "AS_TextField_cdb0d8d2e8ea4563a89ea6cb97735ab4": {
        "id": "AS_TextField_cdb0d8d2e8ea4563a89ea6cb97735ab4",
        "type": "ACTION_SEQUENCE",
        "name": "onTextChangeBeneDetails",
        "params": [{
            "datatype": "collection",
            "name": "eventobject"
        }, {
            "datatype": "string",
            "name": "changedtext"
        }],
        "language": "js",
        "actions": [{
            "id": "ADD_SNIPPET_ide_onTextChange_e2666739d29446f5af1568f5edebf6d0",
            "type": "ADD_SNIPPET",
            "codeSnippet": "if(frmAddExternalAccountKA.tbxBeneRelation.text !== \"\"){\n  frmAddExternalAccountKA.flxUnderlineBeneRelation.skin = \"sknFlxGreenLine\";\n}else{\n  frmAddExternalAccountKA.flxUnderlineBeneRelation.skin = \"sknFlxOrangeLine\";\n}\nkony.boj.addBeneNextStatus();\nif(true){\n  //frmEnrolluserLandingKA.lblNext.skin = \"sknLblNextEnabled\";\n}\nelse{\n // frmEnrolluserLandingKA.lblNext.skin = \"sknLblNextDisabled\";\n}\n",
            "callbackType": null
        }]
    }
}