{
    "AS_Label_ida4b61186bc4cc1b3007b80924f7d27": {
        "id": "AS_Label_ida4b61186bc4cc1b3007b80924f7d27",
        "type": "ACTION_SEQUENCE",
        "name": "ontouchEndPassClearLogin",
        "params": [{
            "datatype": "collection",
            "name": "eventobject"
        }, {
            "datatype": "string",
            "name": "x"
        }, {
            "datatype": "string",
            "name": "y"
        }],
        "contextObj": {
            "name": "frmLoginKA",
            "type": "forms",
            "platform": "",
            "KUID": "7b1aa8fceb6b4070833e9eab879b0e5e"
        },
        "language": "js",
        "actions": [{
            "id": "ADD_SNIPPET__j7098529eeed49a5a9debbf465b79712",
            "type": "ADD_SNIPPET",
            "codeSnippet": "var currentForm = kony.application.getCurrentForm();\nif(currentForm.id === \"frmLoginKA\" || currentForm.id === \"frmLanguageChange\"){\n\tcurrentForm.passwordTextField.text=\"\";\n\tcurrentForm.flxbdrpwd.skin=\"skntextFieldDivider\";\n\tcurrentForm.lblInvalidCredentialsKA.isVisible = false;\n\tcurrentForm.lblShowPass.setVisibility(false);\n\tanimateLabel(\"DOWN\",\"lblPassword\",currentForm.tbxusernameTextField.text);\n}",
            "parentId": null,
            "callbackType": null
        }]
    }
}