{
    "AS_TextField_j831f8dd430448d49a824b01f760b46d": {
        "id": "AS_TextField_j831f8dd430448d49a824b01f760b46d",
        "type": "ACTION_SEQUENCE",
        "name": "ontouchstartjomopay",
        "params": [{
            "datatype": "collection",
            "name": "eventobject"
        }, {
            "datatype": "string",
            "name": "x"
        }, {
            "datatype": "string",
            "name": "y"
        }],
        "contextObj": {
            "name": "frmJoMoPay",
            "type": "forms",
            "platform": "",
            "KUID": "d41a38dfc97d4e0a8f3b1db96d6a1ca0"
        },
        "language": "js",
        "actions": [{
            "id": "ADD_SNIPPET__d5904d3134ea48d2a80065839a670606",
            "type": "ADD_SNIPPET",
            "codeSnippet": " frmJoMoPay.lblIncorrect.setVisibility(false);",
            "parentId": null,
            "callbackType": null
        }]
    }
}