{
    "AS_TextField_je871c74358d4235a4b0fd4360e1d04c": {
        "id": "AS_TextField_je871c74358d4235a4b0fd4360e1d04c",
        "type": "ACTION_SEQUENCE",
        "name": "onTouchEndCardHolderApplyCards",
        "params": [{
            "datatype": "collection",
            "name": "eventobject"
        }, {
            "datatype": "string",
            "name": "x"
        }, {
            "datatype": "string",
            "name": "y"
        }],
        "contextObj": {
            "name": "frmApplyNewCardsKA",
            "type": "forms",
            "platform": "",
            "KUID": "a05ce8d2e4404e40bfbc8dad585d28dc"
        },
        "language": "js",
        "actions": [{
            "id": "ADD_SNIPPET__ea9590d348f94645ad8425734004a7e0",
            "type": "ADD_SNIPPET",
            "codeSnippet": "animate_NEWCARDSOPTIOS(\"UP\",kony.newCARD.fields.CardHolder[0],frmApplyNewCardsKA[kony.newCARD.fields.CardHolder[1]].text);",
            "parentId": null,
            "callbackType": null
        }]
    }
}