{
    "AS_Label_a98dd929857f442ba8989a685259746a": {
        "id": "AS_Label_a98dd929857f442ba8989a685259746a",
        "type": "ACTION_SEQUENCE",
        "name": "onTouchEndAccountDetailsSortIcon",
        "params": [{
            "datatype": "collection",
            "name": "eventobject"
        }, {
            "datatype": "string",
            "name": "x"
        }, {
            "datatype": "string",
            "name": "y"
        }],
        "contextObj": {
            "name": "frmAccountDetailKA",
            "type": "forms",
            "platform": "",
            "KUID": "5ed703cad63c441882fc4a36f5ea0c28"
        },
        "language": "js",
        "actions": [{
            "id": "ADD_SNIPPET__a18cac7f54824e8aab9219af4a648eb6",
            "type": "ADD_SNIPPET",
            "codeSnippet": "//var context={\"widget\":frmAccountDetailKA.accountDetailsTransactions,\"anchor\":\"bottom\",\"sizetoanchorwidth\":false};\n//popupSort.setContext(context);\n// popupSort.show();\nanimatePopup_Sort();",
            "parentId": null,
            "callbackType": null
        }]
    }
}