{
    "AS_TextField_g1de9efdbeca4491af93da23ccc230d7": {
        "id": "AS_TextField_g1de9efdbeca4491af93da23ccc230d7",
        "type": "ACTION_SEQUENCE",
        "name": "onTouchEndemailRegJP",
        "params": [{
            "datatype": "collection",
            "name": "eventobject"
        }, {
            "datatype": "string",
            "name": "x"
        }, {
            "datatype": "string",
            "name": "y"
        }],
        "contextObj": {
            "name": "frmJoMoPay",
            "type": "forms",
            "platform": "",
            "KUID": "d41a38dfc97d4e0a8f3b1db96d6a1ca0"
        },
        "language": "js",
        "actions": [{
            "id": "ADD_SNIPPET__d28f303e2bc2473985bbfe3a649dd3c9",
            "type": "ADD_SNIPPET",
            "codeSnippet": "animate_NEWCARDSOPTIOS(\"UP\",\"lblEmailStatic\",frmJoMoPayRegistration.txtEmail.text);\nif(isEmpty(frmJoMoPayRegistration.txtEmail.text)){\n  frmJoMoPayRegistration.lblInvalidCredentialsKA.isVisible = false;\n}\n// frmJoMoPayRegistration.txtEmail.setFocus();",
            "parentId": null,
            "callbackType": null
        }]
    }
}