{
    "AS_Form_1ab171c44e564449ac801b7bee80eedd": {
        "id": "AS_Form_1ab171c44e564449ac801b7bee80eedd",
        "type": "ACTION_SEQUENCE",
        "name": "pinSuccesspreShow",
        "params": [{
            "datatype": "collection",
            "name": "eventobject"
        }],
        "contextObj": {
            "type": "forms",
            "platform": "",
            "KUID": "74113b30eeaf46e1b36ebf46450f2290"
        },
        "language": "js",
        "actions": [{
            "id": "ADD_SNIPPET__120b12003cec47c6be3ee3f0d8cb140d",
            "type": "ADD_SNIPPET",
            "codeSnippet": "setNavigationonPinset();",
            "parentId": null,
            "callbackType": null
        }]
    }
}