{
    "AS_Form_f042000a7fbd4d6ea21f76117fc2e17f": {
        "id": "AS_Form_f042000a7fbd4d6ea21f76117fc2e17f",
        "type": "ACTION_SEQUENCE",
        "name": "postShowFrmBills",
        "params": [{
            "datatype": "collection",
            "name": "eventobject"
        }],
        "contextObj": {
            "name": "frmBills",
            "type": "forms",
            "platform": "",
            "KUID": "ade6df6ecf3c4acba302ea54bc0a2e56"
        },
        "language": "js",
        "actions": [{
            "id": "ADD_SNIPPET__jac786e7f42c487c93b5383035a72367",
            "type": "ADD_SNIPPET",
            "codeSnippet": "if(frmBills.tbxAmount.text !== \"\"){\n\tfrmBills.lblHiddenAmnt.text = frmBills.tbxAmount.text;\n\tanimateLabel(\"UP\",\"lblAmount\",frmBills.tbxAmount.text);\n}",
            "parentId": null,
            "callbackType": null
        }]
    }
}