{
    "AS_Segment_de6903682b94416b8895ebbcb0c906e9": {
        "id": "AS_Segment_de6903682b94416b8895ebbcb0c906e9",
        "type": "ACTION_SEQUENCE",
        "name": "rowClickCardNumber",
        "params": [{
            "datatype": "collection",
            "name": "eventobject"
        }, {
            "datatype": "number",
            "name": "sectionNumber"
        }, {
            "datatype": "number",
            "name": "rowNumber"
        }],
        "contextObj": {
            "name": "frmCreditCardNumber",
            "type": "forms",
            "platform": null,
            "KUID": "a036edc0edf6449ebfdbd2bf3d6667cd"
        },
        "language": "js",
        "actions": [{
            "id": "ADD_SNIPPET__ed0a40eb9b6b4bd295354450c6d043e2",
            "type": "ADD_SNIPPET",
            "codeSnippet": "if(gblRequestStatementCrediCards){\n  setDatatoRequestStatementCreditCardNumber(frmCreditCardNumber.segCreditCardNumber.selectedItems[0]);\n}else{\nonRowClickCC(frmCreditCardNumber.segCreditCardNumber.selectedItems[0]);\n}",
            "parentId": null,
            "callbackType": null
        }]
    }
}