{
    "AS_Button_80d4d87140aa4bfda57731ef424b4c56": {
        "id": "AS_Button_80d4d87140aa4bfda57731ef424b4c56",
        "type": "ACTION_SEQUENCE",
        "name": "SecurityAlertIosBack",
        "params": [{
            "datatype": "collection",
            "name": "eventobject"
        }],
        "contextObj": {
            "type": "forms",
            "platform": null,
            "KUID": "1e79dd812c2042889f0047b15a33f342"
        },
        "language": "js",
        "actions": [{
            "id": "NAVIGATE_TO_FORM__ide_onClick_6c66a1ebcef24ad4830eed68407385e1",
            "type": "NAVIGATE_TO_FORM",
            "formId": "frmAlertsKA",
            "formKUID": "8f4fb6ef80f34f5f861f12908e1a5309",
            "mappings": {},
            "mappingsOrder": [],
            "parentId": "",
            "callbackType": null,
            "enableMappingEditor": true,
            "package": "",
            "navigationObj": "{\n    \"_meta_\": {\n        \"eventName\": \"\",\n        \"widgetId\": \"\"\n    }\n}",
            "isCustomInput": false
        }]
    }
}