{
    "AS_Button_f870a388462d48bb8b8ecce794f2cf14": {
        "id": "AS_Button_f870a388462d48bb8b8ecce794f2cf14",
        "type": "ACTION_SEQUENCE",
        "name": "setDefaultPageAndroidBack",
        "params": [{
            "datatype": "collection",
            "name": "eventobject"
        }],
        "contextObj": {
            "name": "frmSetDefaultPageKA",
            "type": "forms",
            "platform": "",
            "KUID": "0a1abaac7705448e8ce085a947508e2c"
        },
        "language": "js",
        "actions": [{
            "id": "ADD_SNIPPET__je3bf5affd344acca7ed01e28b253562",
            "type": "ADD_SNIPPET",
            "codeSnippet": "kony.print(\"removed\");",
            "parentId": null,
            "callbackType": null
        }]
    }
}