{
    "AS_FlexContainer_d856355e89594d518c952fbacaeae3e6": {
        "id": "AS_FlexContainer_d856355e89594d518c952fbacaeae3e6",
        "type": "ACTION_SEQUENCE",
        "name": "switchonOnClickTOuchSett",
        "params": [{
            "datatype": "collection",
            "name": "eventobject"
        }],
        "language": "js",
        "actions": [{
            "id": "ADD_SNIPPET_ide_onClick_ada69a90c578475b922d8bac0fee2ec9",
            "type": "ADD_SNIPPET",
            "codeSnippet": "var model = kony.os.deviceInfo().model;\nif(checkFaceIdIphone()){\n  customAlertPopup(geti18Value(\"i18n.cards.Confirmation\"), kony.i18n.getLocalizedString(\"i18n.FaceID.SureDisableText\"), EnableDisableFingerPrintLogin, popupCommonAlertDimiss, kony.i18n.getLocalizedString(\"i18n.common.YES\"), kony.i18n.getLocalizedString(\"i18n.common.NO\")); \n}else{\n  customAlertPopup(geti18Value(\"i18n.cards.Confirmation\"), kony.i18n.getLocalizedString(\"i18n.Touch.SureDisableText\"), EnableDisableFingerPrintLogin, popupCommonAlertDimiss, kony.i18n.getLocalizedString(\"i18n.common.YES\"), kony.i18n.getLocalizedString(\"i18n.common.NO\")); \n}",
            "callbackType": null
        }]
    }
}