{
    "AS_TextField_cd68fa69f76a4bd9966d8b41beea9fdb": {
        "id": "AS_TextField_cd68fa69f76a4bd9966d8b41beea9fdb",
        "type": "ACTION_SEQUENCE",
        "name": "textChangPwd",
        "params": [{
            "datatype": "collection",
            "name": "eventobject"
        }, {
            "datatype": "string",
            "name": "changedtext"
        }],
        "contextObj": {
            "name": "frmLoginKA",
            "type": "forms",
            "platform": "",
            "KUID": "7b1aa8fceb6b4070833e9eab879b0e5e"
        },
        "language": "js",
        "actions": [{
            "id": "ADD_SNIPPET__ebe9b614698046d690c49818b6ad75b8",
            "type": "ADD_SNIPPET",
            "codeSnippet": "try{\n  if(frmLoginKA.lblPassword.top !== \"15%\")\n    animateLabel(\"UP\",\"lblPassword\",frmLoginKA.passwordTextField.text);\n  if(frmLoginKA.passwordTextField.text.length > 0){\n  \tfrmLoginKA.lblShowPass.setVisibility(true);\n  }else{\n  \tfrmLoginKA.lblShowPass.setVisibility(false);\n  }\n}catch(err){\n  kony.print( \"err in pwd::\"+err);\n}",
            "parentId": null
        }]
    }
}