{
    "AS_Switch_ae3229e1d90e41b7a8da32d753062786": {
        "id": "AS_Switch_ae3229e1d90e41b7a8da32d753062786",
        "type": "ACTION_SEQUENCE",
        "name": "touchId_DevReg",
        "params": [{
            "datatype": "collection",
            "name": "eventobject"
        }],
        "contextObj": {
            "name": "frmDeviceregistrarionSuccessKA",
            "type": "forms",
            "platform": "",
            "KUID": "71f8ab34e5b2429c81c09a27704cb4a1"
        },
        "language": "js",
        "actions": [{
            "id": "ADD_SNIPPET__8264caa7369a4358bb2fd9edf467203a",
            "type": "ADD_SNIPPET",
            "codeSnippet": "updateStatusforPin(\"touchIDEnabledFlag\",\"touchIdSwitch\");",
            "parentId": null,
            "callbackType": null
        }]
    }
}