{
    "AS_FlexContainer_e65d84d3608345028bc9babd5377f420": {
        "id": "AS_FlexContainer_e65d84d3608345028bc9babd5377f420",
        "type": "ACTION_SEQUENCE",
        "name": "touchIdClick",
        "params": [{
            "datatype": "collection",
            "name": "eventobject"
        }],
        "contextObj": {
            "name": "frmLoginKA",
            "type": "forms",
            "platform": "",
            "KUID": "7b1aa8fceb6b4070833e9eab879b0e5e"
        },
        "language": "js",
        "actions": [{
            "id": "ADD_SNIPPET__ccff5344e47a429992cabc7663aa6e37",
            "type": "ADD_SNIPPET",
            "codeSnippet": "kony.print(\"Do nothing\");",
            "parentId": null,
            "callbackType": null
        }]
    }
}