{
    "AS_Group_d64a71c792be4fc4a4c0d8cdae864848": {
        "id": "AS_Group_d64a71c792be4fc4a4c0d8cdae864848",
        "type": "ACTION_SEQUENCE",
        "params": [{
            "datatype": "FormController",
            "name": "form"
        }],
        "contextObj": {
            "name": "frmWatMenu",
            "type": "forms",
            "platform": "",
            "KUID": "ea59f4de6a074958ad1b469a50249501"
        },
        "language": "swift",
        "actions": [{
            "id": "ADD_SNIPPET__i3a70c1180654464a28cce5528be3ddb",
            "type": "ADD_SNIPPET",
            "codeSnippet": "let context = [\"token\": \"0\"]\nform.pushController(withName: \"frmWatMenuItemList\", context: context);",
            "parentId": null,
            "callbackType": null
        }]
    }
}