{
    "AS_Segment_c8074ea632f24f90baf678de1a4c7e2e": {
        "id": "AS_Segment_c8074ea632f24f90baf678de1a4c7e2e",
        "type": "ACTION_SEQUENCE",
        "params": [{
            "datatype": "FormController",
            "name": "form"
        }, {
            "datatype": "WKInterfaceTable",
            "name": "table"
        }, {
            "datatype": "Int",
            "name": "rowIndex"
        }],
        "contextObj": {
            "name": "frmWatMenuItemList",
            "type": "forms",
            "platform": "",
            "KUID": "cac2a5493c024985820ea814ab8675af"
        },
        "language": "swift",
        "actions": [{
            "id": "ADD_SNIPPET__c86d5f9f86a4454fb06e63457745e794",
            "type": "ADD_SNIPPET",
            "codeSnippet": "segListRowClick(form: form, table: table, rowIndex: rowIndex)",
            "parentId": null,
            "callbackType": null
        }]
    }
}