{
    "DNDConfig": null,
    "__parentReadjusting__": false,
    "_height_": {
        "type": "string",
        "value": "80%"
    },
    "_margin_": [
        0,
        0,
        0,
        0
    ],
    "_orientation_": 6,
    "_padding_": [
        0,
        0,
        0,
        0
    ],
    "_percent_": true,
    "_skin_": "s388f0c575ef4d08ac3a5ed0a4b90085",
    "_width_": {
        "type": "string",
        "value": "10%"
    },
    "allboxes": [],
    "autogrowmode": 0,
    "canUpdateUI": true,
    "centerx": {
        "type": "string",
        "value": "60%"
    },
    "centery": {
        "type": "string",
        "value": "50%"
    },
    "children": [
        "imgSortAmountAsc"
    ],
    "clipbounds": true,
    "containerweight": 100,
    "enablescrolling": true,
    "id": "flxSortAmountAsc",
    "ide_onClick": "AS_FlexContainer_i0ea18370d53442e891526e350260641",
    "info": null,
    "isvisible": true,
    "kuid": "f913114763074b24b5621df167d2ba26",
    "layouttype": 2,
    "name": "kony.ui.FlexContainer",
    "parent": "flxAmount",
    "pf": "frmStandingInstructions",
    "snapgridsize": 10,
    "snaptogrid": true,
    "wType": "FlexContainer",
    "widgetalignment": 1,
    "zindex": 1
}