{
    "@class": "com.kony.gen.viz.model.component.KVizButton",
    "DNDConfig": null,
    "__parentReadjusting__": false,
    "_height_": {
        "type": "string",
        "value": "75%"
    },
    "_left_": {
        "type": "string",
        "value": "2%"
    },
    "_margin_": [
        6,
        6,
        6,
        6
    ],
    "_padding_": [
        0,
        0,
        0,
        0
    ],
    "_skin_": "sbe1e969bc9948e288db010580bd90b0",
    "_text_": "Alias",
    "_top_": {
        "type": "string",
        "value": "2%"
    },
    "_width_": {
        "type": "string",
        "value": "30%"
    },
    "canUpdateUI": true,
    "centery": {
        "type": "string",
        "value": "50%"
    },
    "containerweight": 100,
    "contentalignment": 5,
    "disabledSkins": {},
    "displaytext": true,
    "focusskin": "sbe1e969bc9948e288db010580bd90b0",
    "id": "btnAlias",
    "ide_onClick": "AS_Button_i384728c2537420891282a51bfcb923d",
    "info": null,
    "isvisible": true,
    "kuid": "b47b7bfb919748428c6d28942b227c14",
    "name": "kony.ui.Button",
    "parent": "flxIBANAlias",
    "pf": "frmEPS",
    "texti18n": "i18n.jomopay.aliastype",
    "wType": "Button",
    "zindex": 1
}