{
    "@class": "com.kony.gen.viz.model.component.KVizButton",
    "DNDConfig": null,
    "__parentReadjusting__": false,
    "_height_": {
        "type": "string",
        "value": "100%"
    },
    "_left_": {
        "type": "string",
        "value": "5%"
    },
    "_margin_": [
        6,
        6,
        6,
        6
    ],
    "_padding_": [
        0,
        0,
        0,
        0
    ],
    "_right_": {
        "type": "number",
        "value": "0"
    },
    "_skin_": "s7383615e4f04fc8a44f10f5e544ac57",
    "_text_": "",
    "_top_": {
        "type": "string",
        "value": "0dp"
    },
    "_width_": {
        "type": "string",
        "value": "90%"
    },
    "canUpdateUI": true,
    "containerweight": 100,
    "contentalignment": 6,
    "disabledSkins": {},
    "displaytext": true,
    "focusskin": "s7383615e4f04fc8a44f10f5e544ac57",
    "id": "btnForward1",
    "ide_onClick": "AS_Button_ebc84f2a29e0468bae5a79580ca5f6e6",
    "info": null,
    "isvisible": true,
    "kuid": "h29e9c68500948a19348603f57e40ae9",
    "masterType": 1,
    "name": "kony.ui.Button",
    "parent": "flxAcc1",
    "pf": "frmEPS",
    "texti18n": "i18n.common.reverseback",
    "wType": "Button",
    "zindex": 1
}