{
    "@class": "com.kony.gen.viz.model.component.KVizTextBox2",
    "DNDConfig": null,
    "__parentReadjusting__": false,
    "_bottom_": {
        "type": "string",
        "value": "4.00%"
    },
    "_height_": {
        "type": "string",
        "value": "45%"
    },
    "_margin_": [
        0,
        0,
        0,
        0
    ],
    "_padding_": [
        3,
        0,
        0,
        0
    ],
    "_placeholder_": "",
    "_skin_": "s029998596d3421892d0917ea7492e1d",
    "_text_": "",
    "_top_": {
        "type": "string",
        "value": "30%"
    },
    "_width_": {
        "type": "string",
        "value": "100%"
    },
    "accessibilityconfig": {
        "a11yLabel": "Enter your Username"
    },
    "android": {
        "ide_onEndEditing": "AS_TextField_ce76bf8811844060a6984e2b96b684dc",
        "psp": {
            "keyboardActionLabel": 12
        }
    },
    "autocapitalize": "all",
    "autocomplete": false,
    "autocorrect": false,
    "autofilter": false,
    "canUpdateUI": true,
    "centerx": {
        "type": "string",
        "value": "49.98%"
    },
    "containerheight": "",
    "containerheightmode": 1,
    "containerweight": 100,
    "contentalignment": 4,
    "disabledSkins": {},
    "focusskin": "s029998596d3421892d0917ea7492e1d",
    "id": "txtAliasNameMob",
    "ide_onDone": "AS_TextField_ibfd8dea3864460e97c89938b65b5871",
    "ide_onTouchEnd": "AS_TextField_ef2396f2621d47888126f1422be57b3b",
    "info": null,
    "iphone": {
        "ide_onEndEditing": "AS_TextField_d2f30648a977481bb558e0b593b89a2b",
        "psp": {
            "keyboardActionLabel": 1
        }
    },
    "isvisible": true,
    "keyboardactionlabel": 4,
    "keyboardstyle": "A",
    "keyboardtype": "A",
    "kuid": "g9337b7410944779b92cb87446373e57",
    "maxtextlength": 15,
    "mode": "N",
    "name": "kony.ui.TextBox2",
    "parent": "flxAliassNameMob",
    "pf": "frmEPS",
    "securetextentry": false,
    "textinputmode": "N",
    "viewtype": "default",
    "wType": "TextField",
    "zindex": 1
}