{
    "@class": "com.kony.gen.viz.model.component.KVizTextBox2",
    "DNDConfig": null,
    "__parentReadjusting__": false,
    "_bottom_": {
        "type": "string",
        "value": "4.00%"
    },
    "_height_": {
        "type": "string",
        "value": "50%"
    },
    "_margin_": [
        0,
        0,
        0,
        0
    ],
    "_padding_": [
        3,
        0,
        0,
        0
    ],
    "_placeholder_": "",
    "_skin_": "s029998596d3421892d0917ea7492e1d",
    "_text_": "",
    "_width_": {
        "type": "string",
        "value": "100%"
    },
    "accessibilityconfig": {
        "a11yLabel": "Enter your Username"
    },
    "android": {
        "ide_onBeginEditing": "AS_TextField_d5cc77cae4854ac5b8eddd82dd1d175a",
        "ide_onEndEditing": "AS_TextField_ce54b68b0e4d48e18272344090d77e71",
        "psp": {
            "keyboardActionLabel": 12
        }
    },
    "autocapitalize": "all",
    "autocomplete": false,
    "autocorrect": false,
    "autofilter": false,
    "canUpdateUI": true,
    "centerx": {
        "type": "string",
        "value": "50%"
    },
    "containerheight": "",
    "containerheightmode": 1,
    "containerweight": 100,
    "contentalignment": 4,
    "disabledSkins": {},
    "focusskin": "s029998596d3421892d0917ea7492e1d",
    "id": "txtIBANAlias",
    "ide_onDone": "AS_TextField_cc66c1332ea24c2588f20ac1e41f8b34",
    "ide_onTextChange": "AS_TextField_a34cd033ff6e4437b2b1f8d6c7437e63",
    "ide_onTouchEnd": "AS_TextField_a1cde35b94d94560b115e14e3058bd30",
    "info": null,
    "iphone": {
        "ide_onBeginEditing": "AS_TextField_g92d026c82524f0e920f4378c238e534",
        "ide_onEndEditing": "AS_TextField_f12bcec5edad4681927e22735dc52927",
        "psp": {
            "keyboardActionLabel": 4
        }
    },
    "isvisible": true,
    "keyboardactionlabel": 4,
    "keyboardtype": "A",
    "kuid": "ffacc89641ea4ebfaabf1aa7eb9d94dd",
    "maxtextlength": 30,
    "mode": "A",
    "name": "kony.ui.TextBox2",
    "parent": "flxIbanDetails",
    "pf": "frmEPS",
    "securetextentry": false,
    "textinputmode": "A",
    "viewtype": "default",
    "wType": "TextField",
    "zindex": 1
}