{
    "@class": "com.kony.gen.viz.model.component.KVizLabel",
    "DNDConfig": null,
    "__markedForDelete__": true,
    "__parentReadjusting__": false,
    "_height_": {
        "type": "string",
        "value": "10%"
    },
    "_margin_": [
        1,
        1,
        1,
        1
    ],
    "_padding_": [
        0,
        0,
        0,
        0
    ],
    "_skin_": "s2eb913b539d48b89d9c9d7fecaca1c2",
    "_text_": "",
    "_top_": {
        "type": "string",
        "value": "55%"
    },
    "_width_": {
        "type": "string",
        "value": "95%"
    },
    "_wrapping_": 2,
    "accessibilityconfig": {
        "a11yLabel": "Click here if that's not your number"
    },
    "android": {
        "textStyle": {
            "letterSpacing": 0,
            "strikeThrough": false
        }
    },
    "canUpdateUI": true,
    "centerx": {
        "type": "string",
        "value": "50%"
    },
    "containerweight": 100,
    "contentalignment": 5,
    "id": "lblNotYourNum",
    "ide_onTouchEnd": "AS_Label_d75d6d09939644a7bb7227a8d100ff27",
    "info": null,
    "ipad": {
        "psp": {
            "wrapping": 2
        }
    },
    "iphone": {
        "psp": {
            "wrapping": 2
        }
    },
    "isvisible": true,
    "kuid": "e1d6bcbbf9d14507848e0be6dbccedd7",
    "name": "kony.ui.Label",
    "parent": "flxOTP",
    "pf": "frmNewUserOnboardVerificationKA",
    "texti18n": "i18n.otp.contactcenter",
    "tooltip": "",
    "wType": "Label",
    "zindex": 1
}