{
  "operationConfig" : {
    "name" : "prDeleteBeneficiary9965",
    "type" : "MappedToBackend",
    "cachable" : false,
    "smsEnabled" : false,
    "security" : "authorized_app_user",
    "responseEncoding" : "UTF-8",
    "httpMethod" : "GET",
    "decodeResponseBody" : false,
    "iMapping" : "<?xml version=\"1.0\" encoding=\"UTF-8\" standalone=\"yes\"?><mapper xmlns=\"http://www.kony.com/ns/mapper\">  <map inputpath=\"request_in\" outputpath=\"request_out\">    <set-param inputpath=\"P_BENEF_NAME\" outputpath=\"P_BENEF_NAME\"/>    <set-param inputpath=\"P_BENE_TYPE\" outputpath=\"P_BENE_TYPE\"/>    <set-param inputpath=\"P_BENEF_ID\" outputpath=\"P_BENEF_ID\"/>    <set-param inputpath=\"P_BENE_ACCOUNT\" outputpath=\"P_BENE_ACCOUNT\"/>    <set-param inputpath=\"custId\" outputpath=\"custId\"/>  </map></mapper>",
    "oMapping" : "<?xml version=\"1.0\" encoding=\"UTF-8\" standalone=\"yes\"?><mapper xmlns=\"http://www.kony.com/ns/mapper\">  <map inputpath=\"response_in\" outputpath=\"response_out\">    <set-param inputpath=\"result\" outputpath=\"result\"/>  </map></mapper>",
    "applyCommonMapping" : false,
    "backendMeta" : {
      "serviceVersion" : "1.0",
      "operationName" : "prDeleteBeneficiary",
      "serviceName" : "BOJDeleteBeneficiary"
    },
    "relationshipHierarchyMapping" : {
      "children" : [ ],
      "name" : "ExternalAccounts",
      "selected" : true
    },
    "requestXmlMappingOverride" : true,
    "responseXmlMappingOverride" : true
  }
}