{
  "operationConfig" : {
    "name" : "updateNotification4707",
    "type" : "MappedToBackend",
    "cachable" : false,
    "smsEnabled" : false,
    "security" : "authorized_app_user",
    "responseEncoding" : "UTF-8",
    "httpMethod" : "GET",
    "decodeResponseBody" : false,
    "iMapping" : "<?xml version=\"1.0\" encoding=\"UTF-8\" standalone=\"yes\"?><mapper xmlns=\"http://www.kony.com/ns/mapper\">  <map inputpath=\"request_in\" outputpath=\"request_out\">    <set-param inputpath=\"DailyBalFlag\" outputpath=\"DailyBalFlag\"/>    <set-param inputpath=\"AlertFlag\" outputpath=\"AlertFlag\"/>    <set-param inputpath=\"custId\" outputpath=\"custId\"/>    <set-param inputpath=\"MornBalFlag\" outputpath=\"MornBalFlag\"/>    <set-param inputpath=\"ChkClrdFlag\" outputpath=\"ChkClrdFlag\"/>    <set-param inputpath=\"WithDwrlFlag\" outputpath=\"WithDwrlFlag\"/>    <set-param inputpath=\"AccountNumber\" outputpath=\"AccountNumber\"/>    <set-param inputpath=\"language\" outputpath=\"language\"/>    <set-param inputpath=\"DepositFlag\" outputpath=\"DepositFlag\"/>  </map></mapper>",
    "oMapping" : "<?xml version=\"1.0\" encoding=\"UTF-8\" standalone=\"yes\"?><mapper xmlns=\"http://www.kony.com/ns/mapper\">  <map inputpath=\"response_in\" outputpath=\"response_out\">    <set-param inputpath=\"statusCode\" outputpath=\"statusCode\"/>    <set-param inputpath=\"statusType\" outputpath=\"statusType\"/>    <set-param inputpath=\"statusMessage\" outputpath=\"statusMessage\"/>  </map></mapper>",
    "applyCommonMapping" : true,
    "backendMeta" : {
      "serviceVersion" : "1.0",
      "operationName" : "updateNotification",
      "serviceName" : "BOJRestServices"
    },
    "relationshipHierarchyMapping" : {
      "children" : [ ],
      "name" : "Notifications",
      "selected" : true
    },
    "requestXmlMappingOverride" : true,
    "responseXmlMappingOverride" : true
  }
}