{
    "DNDConfig": null,
    "_height_": {
        "type": "string",
        "value": "50dp"
    },
    "_margin_": [
        0,
        0,
        0,
        0
    ],
    "_orientation_": 6,
    "_padding_": [
        0,
        0,
        0,
        0
    ],
    "_percent_": true,
    "_skin_": "s872f686f26045098117ac4906fe58cf",
    "allboxes": [],
    "autogrowmode": 0,
    "canUpdateUI": true,
    "children": [
        "lblServiceName",
        "imgCheck"
    ],
    "clipbounds": true,
    "containerId": true,
    "containerweight": 100,
    "enablescrolling": true,
    "id": "flxAtmServices",
    "info": null,
    "isTemplate": true,
    "isvisible": true,
    "kuid": "aa330588eb4b439c9acdd3b884313460",
    "layouttype": 2,
    "name": "kony.ui.FlexContainer",
    "parent": "tmpAtmServices",
    "pf": "tmpAtmServices",
    "snapgridsize": 10,
    "snaptogrid": true,
    "wType": "FlexContainer",
    "widgetalignment": 1
}