{
    "@class": "com.kony.gen.viz.model.component.KVizButton",
    "DNDConfig": null,
    "__parentReadjusting__": false,
    "_height_": {
        "type": "string",
        "value": "50dp"
    },
    "_margin_": [
        6,
        6,
        6,
        6
    ],
    "_padding_": [
        0,
        0,
        0,
        0
    ],
    "_skin_": "sd62d880dd0f44cab021af97d8ab435a",
    "_text_": "",
    "_top_": {
        "type": "string",
        "value": "80dp"
    },
    "_width_": {
        "type": "string",
        "value": "80%"
    },
    "canUpdateUI": true,
    "centerx": {
        "type": "string",
        "value": "50%"
    },
    "containerweight": 100,
    "contentalignment": 5,
    "displaytext": true,
    "focusskin": "sd62d880dd0f44cab021af97d8ab435a",
    "id": "btnNationalID",
    "ide_onClick": "AS_Button_cb1c637e6e7f4e47a7ebc1b66ae3e978",
    "info": null,
    "isvisible": false,
    "kuid": "ae1875084fa14dfa8574971fef8f3102",
    "name": "kony.ui.Button",
    "parent": "flxNationalIDButton",
    "pf": "frmRegisterUser",
    "texti18n": "i18n.register.nationalIDBtn",
    "wType": "Button",
    "zindex": 1
}