{
    "@class": "com.kony.gen.viz.model.component.KVizLabel",
    "DNDConfig": null,
    "__parentReadjusting__": false,
    "_height_": {
        "type": "ref",
        "value": "preferred"
    },
    "_left_": {
        "type": "string",
        "value": "2%"
    },
    "_margin_": [
        1,
        1,
        1,
        1
    ],
    "_padding_": [
        0,
        0,
        0,
        0
    ],
    "_skin_": "s632644f349348ba8e056388b6ae5ac4",
    "_text_": "",
    "_top_": {
        "type": "string",
        "value": "55%"
    },
    "_width_": {
        "type": "ref",
        "value": "preferred"
    },
    "_wrapping_": 2,
    "android": {
        "textStyle": {
            "letterSpacing": 0,
            "strikeThrough": false
        }
    },
    "canUpdateUI": true,
    "containerweight": 100,
    "contentalignment": 4,
    "id": "lblIDCardNumberTitle",
    "info": null,
    "ipad": {
        "psp": {
            "wrapping": 2
        }
    },
    "iphone": {
        "psp": {
            "wrapping": 2
        }
    },
    "isvisible": true,
    "kuid": "ga6f3f5f876c41a68537032c797a2af8",
    "name": "kony.ui.Label",
    "parent": "flxIDCardNumber",
    "pf": "frmRegisterUser",
    "texti18n": "i18n.creditcard.idcardnumber",
    "textstyle": {},
    "tooltip": "",
    "wType": "Label",
    "zindex": 1
}