{
    "@class": "com.kony.gen.viz.model.component.KVizTextBox2",
    "DNDConfig": null,
    "__parentReadjusting__": false,
    "_height_": {
        "type": "string",
        "value": "60%"
    },
    "_left_": {
        "type": "string",
        "value": "0.00%"
    },
    "_margin_": [
        0,
        0,
        0,
        0
    ],
    "_padding_": [
        0,
        0,
        0,
        0
    ],
    "_placeholder_": "",
    "_skin_": "sa25e426dcb94c13ab46f59a2b31a09a",
    "_text_": "",
    "_top_": {
        "type": "string",
        "value": "35.00%"
    },
    "_width_": {
        "type": "string",
        "value": "100%"
    },
    "android": {
        "ide_onBeginEditing": "AS_TextField_df5a7b5a247c4012bde3d737a5ec01e0",
        "ide_onEndEditing": "AS_TextField_j56e8833ff3945c3becd884ad98c40b2"
    },
    "autocapitalize": "all",
    "autocomplete": false,
    "autocorrect": false,
    "autofilter": false,
    "canUpdateUI": true,
    "containerheight": "",
    "containerheightmode": 1,
    "containerweight": 100,
    "contentalignment": 4,
    "focusskin": "sa25e426dcb94c13ab46f59a2b31a09a",
    "id": "txtIDCardNumber",
    "ide_onDone": "AS_TextField_a2b24fa7475e4780a3e5dc461cd45446",
    "ide_onTextChange": "AS_TextField_de2516fe81e24bf8b2bed2eb3f8bd174",
    "info": null,
    "iphone": {
        "ide_onBeginEditing": "AS_TextField_j41d88604e1749998fa8be0872a98d0c",
        "ide_onEndEditing": "AS_TextField_i16a196d13784411ba59204c4b7c9e53",
        "psp": {
            "keyboardActionLabel": 4
        }
    },
    "isvisible": true,
    "keyboardtype": "A",
    "kuid": "g5ceb53cec004d6b9632e34dbcd64408",
    "maxtextlength": 8,
    "mode": "A",
    "name": "kony.ui.TextBox2",
    "paddinginpixel": false,
    "parent": "flxIDCardNumber",
    "pf": "frmRegisterUser",
    "securetextentry": false,
    "textinputmode": "A",
    "viewtype": "default",
    "wType": "TextField",
    "zindex": 1
}