{
    "@class": "com.kony.gen.viz.model.container.KVizWatchDynamicNotificationForm",
    "DNDConfig": null,
    "_margin_": [
        0,
        0,
        0,
        0
    ],
    "_orientation_": 1,
    "_padding_": [
        1,
        0,
        1,
        0
    ],
    "_percent_": true,
    "_skin_": "s8a16d8261ba4824829f63716c1a1fd0",
    "_spacing_": 4,
    "_title_": null,
    "addWidgetsdone": false,
    "allboxes": [],
    "canUpdateUI": true,
    "children": [],
    "containerweight": 100,
    "currentLocale": "default",
    "device": "appleWatch42",
    "displayorientation": 1,
    "enabledforidletimeout": false,
    "id": "AppNotification",
    "info": null,
    "initdone": false,
    "inputaccessoryviewtype": 4,
    "isvisible": true,
    "kuid": "f3fefab384f54a6282a01309fe06974e",
    "layouttype": 4,
    "name": "kony.ui.WatchDynamicNotificationForm",
    "needappmenu": true,
    "needsashcolor": true,
    "paddinginpixel": true,
    "platform": "watchos",
    "prevDevice": "appleWatch42",
    "prevPlatform": "watchos",
    "retainscrollposition": false,
    "shellCSS": "appleWatch42",
    "titlebar": true,
    "type": 3,
    "wType": "WatchDynamicNotificationForm"
}