{
    "@class": "com.kony.gen.viz.model.component.KVizRadio",
    "DNDConfig": null,
    "__markedForDelete__": true,
    "__parentReadjusting__": false,
    "_height_": {
        "type": "string",
        "value": "60%"
    },
    "_left_": {
        "type": "string",
        "value": "2%"
    },
    "_margin_": [
        0,
        0,
        0,
        0
    ],
    "_padding_": [
        0,
        0,
        0,
        0
    ],
    "_skin_": "s752e5f8396c4199be5f3b7e5de5cfc0",
    "_top_": {
        "type": "string",
        "value": "17dp"
    },
    "_width_": {
        "type": "string",
        "value": "90%"
    },
    "android": {
        "psp": {
            "viewType": 0
        }
    },
    "canUpdateUI": true,
    "centery": {
        "type": "string",
        "value": "65%"
    },
    "containerweight": 100,
    "disabledSkins": {
        "focusSkin": "safce39788ad43de89276a0afcd1f8c8"
    },
    "groupcells": false,
    "id": "RadioBtnAccCards",
    "ide_onSelection": "AS_RadioButtonGroup_jee35b89370e4aafacb81fba4d1df440",
    "info": null,
    "ipad": {
        "psp": {
            "viewType": 0
        }
    },
    "iphone": {
        "psp": {
            "viewType": 3
        }
    },
    "isvisible": false,
    "itemorientation": "horizontal",
    "kuid": "b203c09b5efc47138ddeb846509fdac7",
    "masterdata": [
        [
            "1",
            "Accounts     ",
            "i18n.billsPay.Accounts"
        ],
        [
            "2",
            "Cards",
            "i18n.billsPay.Cards"
        ]
    ],
    "name": "kony.ui.RadioButtonGroup",
    "paddinginpixel": false,
    "parent": "flxRadioAccCardsSelection",
    "pf": "frmBulkPaymentKA",
    "selectedkey": "1",
    "selectedkeyvalue": [
        "1",
        "Accounts"
    ],
    "size": 18,
    "viewconfig": {
        "toggleViewConfig": {
            "viewStyle": 0
        }
    },
    "viewtype": 0,
    "wType": "RadioButtonGroup",
    "widgetalignment": 5,
    "zindex": 1
}