{
    "DNDConfig": null,
    "_height_": {
        "type": "ref",
        "value": "preferred"
    },
    "_margin_": [
        0,
        0,
        0,
        0
    ],
    "_orientation_": 6,
    "_padding_": [
        0,
        0,
        0,
        0
    ],
    "_percent_": true,
    "_skin_": "s388f0c575ef4d08ac3a5ed0a4b90085",
    "allboxes": [],
    "autogrowmode": 1,
    "canUpdateUI": true,
    "children": [
        "lblDate",
        "lblAlertDetails"
    ],
    "clipbounds": true,
    "containerId": true,
    "containerweight": 100,
    "enablescrolling": true,
    "id": "flxAlertDetail",
    "info": null,
    "isTemplate": true,
    "isvisible": true,
    "kuid": "h4fee74da6434ec4afe9d68309c4ac88",
    "layouttype": 4,
    "name": "kony.ui.FlexContainer",
    "parent": "tmpAlert",
    "pf": "tmpAlert",
    "snapgridsize": 10,
    "snaptogrid": true,
    "wType": "FlexContainer",
    "widgetalignment": 1
}