{
    "@class": "com.kony.gen.viz.model.component.KVizButton",
    "DNDConfig": null,
    "__parentReadjusting__": false,
    "_height_": {
        "type": "string",
        "value": "50dp"
    },
    "_margin_": [
        6,
        6,
        6,
        6
    ],
    "_padding_": [
        0,
        0,
        0,
        0
    ],
    "_right_": {
        "type": "string",
        "value": "10dp"
    },
    "_skin_": "s6ba61c1f3b24f2d9a607a6d158dd307",
    "_text_": "Done",
    "_top_": {
        "type": "string",
        "value": "3dp"
    },
    "_width_": {
        "type": "string",
        "value": "75dp"
    },
    "canUpdateUI": true,
    "containerweight": 100,
    "contentalignment": 5,
    "displaytext": true,
    "focusskin": "s943d9d908c346248b2d69c4d25bba51",
    "id": "btnDoneKA",
    "ide_onClick": "AS_Button_fa0410f3206941d9960aaca60433a5f0",
    "info": null,
    "iphone": {
        "psp": {
            "showProgressIndicator": false
        }
    },
    "isvisible": true,
    "kuid": "c0a3ef98249847069ecd4b4e5a55dafb",
    "name": "kony.ui.Button",
    "onclick": "AS_Button_bbdb4bfc63a94c60865661958d02b99e",
    "parent": "iosTitleBar",
    "pf": "frmSetLocatorDistanceFilterKA",
    "showprogressindicator": false,
    "texti18n": "i18n.overview.buttonDone",
    "wType": "Button",
    "zindex": 1
}