{
    "@class": "com.kony.gen.viz.model.component.KVizButton",
    "DNDConfig": null,
    "__parentReadjusting__": false,
    "_height_": {
        "type": "string",
        "value": "50dp"
    },
    "_left_": {
        "type": "string",
        "value": "0dp"
    },
    "_margin_": [
        6,
        6,
        6,
        6
    ],
    "_padding_": [
        0,
        0,
        0,
        14
    ],
    "_skin_": "s369ab04a83040bc808b21001c014f1a",
    "_text_": "x",
    "_top_": {
        "type": "string",
        "value": "0dp"
    },
    "_width_": {
        "type": "string",
        "value": "100%"
    },
    "canUpdateUI": true,
    "centerx": {
        "type": "string",
        "value": "50%"
    },
    "centery": {
        "type": "string",
        "value": "50%"
    },
    "containerweight": 100,
    "contentalignment": 5,
    "displaytext": true,
    "focusskin": "sd291eaf83084ea781b9988b6f1fc66d",
    "id": "btnEfawatercoom",
    "ide_onClick": "AS_Button_e963a473d3e842649d8d943f94b08bf1",
    "info": null,
    "isvisible": true,
    "kuid": "a3add1cc84c84acea394901b51260bc5",
    "name": "kony.ui.Button",
    "paddinginpixel": false,
    "parent": "flxEfawatercoom",
    "pf": "frmManageCardsKA",
    "wType": "Button",
    "zindex": 1
}