{
    "@class": "com.kony.gen.viz.model.component.KVizButton",
    "DNDConfig": null,
    "__parentReadjusting__": false,
    "_height_": {
        "type": "string",
        "value": "100%"
    },
    "_left_": {
        "type": "string",
        "value": "15%"
    },
    "_margin_": [
        6,
        6,
        6,
        6
    ],
    "_padding_": [
        0,
        0,
        0,
        0
    ],
    "_skin_": "sd291eaf83084ea781b9988b6f1fc66d",
    "_text_": "E",
    "_width_": {
        "type": "string",
        "value": "10%"
    },
    "canUpdateUI": true,
    "centery": {
        "type": "string",
        "value": "50%"
    },
    "containerweight": 100,
    "contentalignment": 5,
    "disabledSkins": {},
    "displaytext": true,
    "focusskin": "see3e5af693d42b5a9703374402e1a39",
    "id": "btnInfo",
    "ide_onClick": "AS_Button_f08a441c022b41ff884cb92d6e675d66",
    "info": null,
    "isvisible": true,
    "kuid": "a3d5d7acea054e32bb4d09c9674254be",
    "name": "kony.ui.Button",
    "parent": "flxCardOptions",
    "pf": "frmManageCardsKA",
    "wType": "Button",
    "zindex": 1
}