{
    "DNDConfig": null,
    "__parentReadjusting__": false,
    "_height_": {
        "type": "string",
        "value": "50%"
    },
    "_margin_": [
        0,
        0,
        0,
        0
    ],
    "_orientation_": 6,
    "_padding_": [
        0,
        0,
        0,
        0
    ],
    "_percent_": true,
    "_right_": {
        "type": "string",
        "value": "3%"
    },
    "_skin_": "s414e69da37546e3b7860fb763b8dee7",
    "_width_": {
        "type": "string",
        "value": "12.50%"
    },
    "allboxes": [],
    "autogrowmode": 0,
    "canUpdateUI": true,
    "centery": {
        "type": "string",
        "value": "50%"
    },
    "children": [
        "CopyflxRoundDBlue0c1125e09fd7247",
        "Copyflxlakeer0j85793116f3e4d"
    ],
    "clipbounds": true,
    "containerweight": 100,
    "enablescrolling": true,
    "id": "CopyflxTouchIDSwitchOn0g8e341f9347247",
    "info": null,
    "isvisible": false,
    "kuid": "j34be21261834824aa0a3597dd197b3b",
    "layouttype": 2,
    "name": "kony.ui.FlexContainer",
    "parent": "flxReplaceKA",
    "pf": "frmManageCardsKA",
    "snapgridsize": 10,
    "snaptogrid": true,
    "wType": "FlexContainer",
    "widgetalignment": 1,
    "zindex": 1
}