{
    "@class": "com.kony.gen.viz.model.component.KVizSwitch",
    "DNDConfig": null,
    "__parentReadjusting__": false,
    "_height_": {
        "type": "ref",
        "value": "preferred"
    },
    "_margin_": [
        0,
        0,
        0,
        0
    ],
    "_padding_": [
        0,
        0,
        0,
        0
    ],
    "_right_": {
        "type": "string",
        "value": "3%"
    },
    "_skin_": "s3483e19c5c64dbeadb5a7edbd0b21d8",
    "_width_": {
        "type": "string",
        "value": "14%"
    },
    "canUpdateUI": true,
    "centery": {
        "type": "string",
        "value": "50%"
    },
    "containerweight": 100,
    "id": "Switch0d629a02ec15c4b",
    "ide_onSlide": "AS_Switch_da5f6b463ce748a59b262145c9601fd5",
    "info": null,
    "isvisible": false,
    "kiosk": {
        "render": false
    },
    "kuid": "d6934eac7be646f5b8fcffec02dd4f37",
    "leftsidetext": "ON",
    "name": "kony.ui.Switch",
    "onslide": null,
    "osPlatform": "android",
    "osVersion": "iOS7",
    "parent": "flxDeactivateKA",
    "pf": "frmManageCardsKA",
    "rightsidetext": "OFF",
    "selectedindex": 0,
    "wType": "Switch",
    "widgetalignment": 5,
    "zindex": 1
}