{
    "@class": "com.kony.gen.viz.model.component.KVizLabel",
    "DNDConfig": null,
    "__parentReadjusting__": false,
    "_height_": {
        "type": "ref",
        "value": "preferred"
    },
    "_left_": {
        "type": "string",
        "value": "10%"
    },
    "_margin_": [
        1,
        1,
        1,
        1
    ],
    "_padding_": [
        0,
        0,
        0,
        0
    ],
    "_right_": {
        "type": "string",
        "value": ""
    },
    "_skin_": "s778164388db4b0c8bebbfc1741d1775",
    "_text_": "How you can spend points?",
    "_top_": {
        "type": "string",
        "value": "75%"
    },
    "_width_": {
        "type": "string",
        "value": "80%"
    },
    "_wrapping_": 2,
    "android": {
        "textStyle": {
            "letterSpacing": 0,
            "strikeThrough": false
        }
    },
    "canUpdateUI": true,
    "containerweight": 100,
    "contentalignment": 4,
    "id": "CopylblRedeemMinPointsHint0j73f08a35bf146",
    "info": null,
    "ipad": {
        "psp": {
            "wrapping": 2
        }
    },
    "iphone": {
        "psp": {
            "wrapping": 2
        }
    },
    "isvisible": true,
    "kuid": "i00d28b9511b4e7ca2202ecc151ee1ab",
    "name": "kony.ui.Label",
    "parent": "flxInstantCashBody",
    "pf": "frmInstantCash",
    "texti18n": "i18n.InstantCard.RedeemPointExp",
    "textstyle": {},
    "tooltip": "",
    "wType": "Label",
    "zindex": 1
}