{
    "@class": "com.kony.gen.viz.model.component.KVizLabel",
    "DNDConfig": null,
    "__parentReadjusting__": false,
    "_height_": {
        "type": "ref",
        "value": "preferred"
    },
    "_margin_": [
        1,
        1,
        1,
        1
    ],
    "_padding_": [
        0,
        0,
        0,
        0
    ],
    "_skin_": "s83084e02eaf41eb8e7d43c156ffe55e",
    "_text_": "",
    "_top_": {
        "type": "string",
        "value": "3%"
    },
    "_width_": {
        "type": "string",
        "value": "90%"
    },
    "_wrapping_": 2,
    "canUpdateUI": true,
    "centerx": {
        "type": "string",
        "value": "50%"
    },
    "containerweight": 100,
    "contentalignment": 5,
    "enabled": false,
    "id": "lblTouchBodytxt",
    "info": null,
    "ipad": {
        "psp": {
            "wrapping": 2
        }
    },
    "iphone": {
        "psp": {
            "wrapping": 2
        }
    },
    "isvisible": true,
    "kuid": "440a864516064bb0bc90d4dc98ae8513",
    "name": "kony.ui.Label",
    "parent": "flxBody",
    "pf": "frmUserSettingsTouchIdKA",
    "texti18n": "i18n.common.touchText",
    "tooltip": "",
    "wType": "Label"
}