{
    "@class": "com.kony.gen.viz.model.component.KVizButton",
    "DNDConfig": null,
    "__parentReadjusting__": false,
    "_height_": {
        "type": "string",
        "value": "100%"
    },
    "_left_": {
        "type": "string",
        "value": "0dp"
    },
    "_margin_": [
        6,
        6,
        6,
        6
    ],
    "_padding_": [
        0,
        0,
        0,
        0
    ],
    "_skin_": "s803fe20b33c49ceb0ed9f9ee3a71425",
    "_text_": "",
    "_top_": {
        "type": "string",
        "value": "0dp"
    },
    "_width_": {
        "type": "string",
        "value": "100%"
    },
    "canUpdateUI": true,
    "containerweight": 100,
    "contentalignment": 5,
    "displaytext": true,
    "focusskin": "sba70ea8fcb8404997068fcec01740c2",
    "id": "CopycallButton0j39b34bd6de549",
    "info": null,
    "isvisible": false,
    "kuid": "i00222afb7dd443fa641a9461c70cdd7",
    "name": "kony.ui.Button",
    "onclick": "AS_Button_91ec169ecb1e411f9efbf2d94ee7d237",
    "parent": "flxFaxNumber",
    "pf": "frmLocatorBranchDetailsKA",
    "wType": "Button",
    "zindex": 1
}