{
    "@class": "com.kony.gen.viz.model.container.KVizScrollFlexForm",
    "DNDConfig": null,
    "_margin_": [
        0,
        0,
        0,
        0
    ],
    "_padding_": [
        0,
        0,
        0,
        0
    ],
    "_skin_": "s37896364dd440528a5ac9efcd558408",
    "_title_": null,
    "addWidgetsdone": false,
    "allboxes": [],
    "android": {
        "ide_onDeviceBack": "AS_Form_85cedac0442743ffb1f2e2d60ab856b1",
        "needAppMenu": false,
        "outTransitionConfig": {
            "formAnimation": 0
        },
        "psp": {
            "onDeviceMenu": "AS_Form_9d91bc1fc722413d83ee0fdfb2cbf44c"
        }
    },
    "bounces": false,
    "canUpdateUI": true,
    "children": [
        "touchFeature"
    ],
    "containerweight": 100,
    "currentLocale": "default",
    "desktopweb": {
        "needAppMenu": false
    },
    "device": "GalaxyS5",
    "displayorientation": 1,
    "enabled": false,
    "enabledforidletimeout": true,
    "enablescrolling": true,
    "id": "frmDeviceRegistrationOptionsKA",
    "ide_preShow": "AS_Form_f73604e1824b44dbab530d4b72db6950",
    "info": null,
    "initdone": false,
    "inputaccessoryviewtype": 4,
    "ipad": {
        "psp": {
            "inputAccessoryViewType": 4
        }
    },
    "iphone": {
        "needAppMenu": false,
        "outTransitionConfig": {
            "transitionDirection": "none",
            "transitionEffect": "transitionFade"
        },
        "psp": {
            "inputAccessoryViewType": 4,
            "titleBarAttributes": {
                "barStyle": 0,
                "hidesBackButton": true,
                "kuid": "ae965a2e716240febd1889f3e44b0f32",
                "leftBarButtonItems": [
                    {
                        "buttonClosureLeftSideView": "",
                        "kuid": "eb989b186d2e489dbda48399320f4dc7",
                        "leftButtonText": "Back",
                        "leftTitle": "Back",
                        "prevFormTitle": false,
                        "titleBarLeftSideView": "button",
                        "titleClosureLeftSideView": "",
                        "type": 4
                    }
                ],
                "leftItemsSupplementBackButton": true,
                "prompt": "",
                "renderTitleText": true,
                "rightBarButtonItems": [
                    {
                        "enabled": true,
                        "info": {
                            "title": "Edit"
                        },
                        "kuid": "g2468651b8fd4b07b34404b3e43225b9",
                        "onClick": "",
                        "style": 0,
                        "type": 1
                    }
                ],
                "tintColor": "33333300",
                "translucent": true
            }
        },
        "titleBar": false
    },
    "isvisible": true,
    "kuid": "24f3bbc2ed074c75a9b6604d9e48a90c",
    "layouttype": 2,
    "name": "kony.ui.Form2",
    "needappmenu": true,
    "onhide": "AS_Form_721e0ba6380c402190212abb5854647a",
    "orientation": 1,
    "paddinginpixel": false,
    "pagingenabled": false,
    "percent": true,
    "platform": "android",
    "preshow": "AS_Form_dc7bd713aea84a04a136f432a6804e98",
    "prevDevice": "iPhone6",
    "prevPlatform": "iphone",
    "retainscrollposition": false,
    "shellCSS": "and_GalaxyS5",
    "snapgridsize": 10,
    "snaptogrid": true,
    "spa": {
        "outTransitionConfig": {
            "formTransition": "none"
        }
    },
    "spaan": {
        "needAppMenu": false
    },
    "spabb": {
        "needAppMenu": false
    },
    "spaip": {
        "needAppMenu": false
    },
    "spawinphone8": {
        "needAppMenu": false
    },
    "titleBarSkin": "sf9d12b1e1d546169560d8b1b80caf35",
    "titlebar": true,
    "type": 3,
    "wType": "Form",
    "winphone8": {
        "needAppMenu": false,
        "outTransitionConfig": {
            "outTransition": "none",
            "transitionMode": "none",
            "transitionSpeed": 0
        }
    }
}