{
    "@class": "com.kony.gen.viz.model.component.KVizButton",
    "DNDConfig": null,
    "__parentReadjusting__": false,
    "_height_": {
        "type": "string",
        "value": "100%"
    },
    "_left_": {
        "type": "string",
        "value": "0"
    },
    "_margin_": [
        6,
        6,
        6,
        6
    ],
    "_padding_": [
        0,
        0,
        0,
        0
    ],
    "_skin_": "s41fb5693a024ca6af3b2c8c71179333",
    "_text_": "Pre Paid",
    "_top_": {
        "type": "string",
        "value": "0dp"
    },
    "_width_": {
        "type": "string",
        "value": "34%"
    },
    "canUpdateUI": true,
    "centery": {
        "type": "string",
        "value": "50%"
    },
    "containerweight": 100,
    "contentalignment": 5,
    "displaytext": true,
    "focusskin": "s0eacd0585e64c81a58d225fcf6cd7c5",
    "id": "btnPrePaid",
    "ide_onClick": "AS_Button_c8bcf6718f904b27a784ca5ca4c88589",
    "info": null,
    "isvisible": true,
    "kuid": "af694c9da94f4b938afb40b3f9ed857f",
    "name": "kony.ui.Button",
    "paddinginpixel": false,
    "parent": "flxContent",
    "pf": "frmManagePayeeKA",
    "texti18n": "i18n.billsPay.PrePaid",
    "wType": "Button",
    "zindex": 2
}