{
    "@class": "com.kony.gen.viz.model.component.KVizButton",
    "DNDConfig": null,
    "__parentReadjusting__": false,
    "_bottom_": {
        "type": "string",
        "value": "0dp"
    },
    "_height_": {
        "type": "string",
        "value": "50dp"
    },
    "_left_": {
        "type": "string",
        "value": "0dp"
    },
    "_margin_": [
        6,
        6,
        6,
        6
    ],
    "_padding_": [
        0,
        0,
        0,
        0
    ],
    "_skin_": "sec2b23e7398448eb9f1865486602b6b",
    "_text_": "Add New Payee",
    "_width_": {
        "type": "string",
        "value": "100.00%"
    },
    "canUpdateUI": true,
    "centerx": {
        "type": "string",
        "value": "50%"
    },
    "containerweight": 100,
    "contentalignment": 5,
    "displaytext": true,
    "focusskin": "s6e8459b84e349d98629a088bbfe1304",
    "id": "Button06a2d7f3f118d47",
    "ide_onClick": "AS_Button_1fe121a20c1d4d988b2b27103035291f",
    "info": null,
    "isvisible": false,
    "kuid": "39c585008039457bab50faff9882c1ac",
    "name": "kony.ui.Button",
    "parent": "FlexScrollContainer0dacb1b5f2c154d",
    "pf": "frmManagePayeeKA",
    "texti18n": "i18n.common.addNewPayee",
    "wType": "Button",
    "zindex": 1
}