{
  "operationConfig" : {
    "name" : "prCreditCardPayment3728",
    "type" : "MappedToBackend",
    "cachable" : false,
    "smsEnabled" : false,
    "security" : "public",
    "responseEncoding" : "UTF-8",
    "httpMethod" : "GET",
    "decodeResponseBody" : false,
    "iMapping" : "<?xml version=\"1.0\" encoding=\"UTF-8\" standalone=\"yes\"?><mapper xmlns=\"http://www.kony.com/ns/mapper\">  <map inputpath=\"request_in\" outputpath=\"request_out\">    <set-param inputpath=\"PaymentFlag\" outputpath=\"PaymentFlag\"/>    <set-param inputpath=\"fromAccountNumber\" outputpath=\"fromAccountNumber\"/>    <set-param inputpath=\"amount\" outputpath=\"amount\"/>    <set-param inputpath=\"usr\" outputpath=\"usr\"/>    <set-param inputpath=\"pass\" outputpath=\"pass\"/>    <set-param inputpath=\"custId\" outputpath=\"custId\"/>    <set-param inputpath=\"p_fcdb_ref_no\" outputpath=\"p_fcdb_ref_no\"/>    <set-param inputpath=\"SourceBranchCode\" outputpath=\"SourceBranchCode\"/>    <set-param inputpath=\"CardNum\" outputpath=\"CardNum\"/>  </map></mapper>",
    "oMapping" : "<?xml version=\"1.0\" encoding=\"UTF-8\" standalone=\"yes\"?><mapper xmlns=\"http://www.kony.com/ns/mapper\">  <map inputpath=\"response_in\" outputpath=\"response_out\">    <set-param inputpath=\"ErrorCode\" outputpath=\"ErrorCode\"/>    <set-param inputpath=\"referenceId\" outputpath=\"referenceId\"/>  </map></mapper>",
    "applyCommonMapping" : false,
    "backendMeta" : {
      "serviceVersion" : "1.0",
      "operationName" : "prCreditCardPayment",
      "serviceName" : "BOJCreditCardPayment"
    },
    "relationshipHierarchyMapping" : {
      "children" : [ ],
      "name" : "Cards",
      "selected" : true
    },
    "requestXmlMappingOverride" : true,
    "responseXmlMappingOverride" : true
  }
}