{
    "DNDConfig": null,
    "__parentReadjusting__": false,
    "_height_": {
        "type": "string",
        "value": "12%"
    },
    "_left_": {
        "type": "string",
        "value": "5%"
    },
    "_margin_": [
        0,
        0,
        0,
        0
    ],
    "_orientation_": 6,
    "_padding_": [
        0,
        0,
        0,
        0
    ],
    "_percent_": true,
    "_skin_": "s388f0c575ef4d08ac3a5ed0a4b90085",
    "_top_": {
        "type": "string",
        "value": "2%"
    },
    "_width_": {
        "type": "string",
        "value": "90%"
    },
    "allboxes": [],
    "autogrowmode": 0,
    "canUpdateUI": true,
    "children": [
        "CopylblAccountName0jff1040c3dcc47",
        "flxDefaultPaymentSwitchOn",
        "flxDefaultPaymentSwitchOff"
    ],
    "clipbounds": true,
    "containerweight": 100,
    "enablescrolling": true,
    "id": "CopyflxAcc0cec509a35a9347",
    "ide_onTouchStart": "AS_FlexContainer_b7c19fd13b154bc2aa67fded7c55d1a1",
    "info": null,
    "isvisible": true,
    "kuid": "g7d7cdf847ad495990bed5119ce2f130",
    "layouttype": 2,
    "name": "kony.ui.FlexContainer",
    "parent": "flxScrollBody",
    "pf": "frmEditAccountSettings",
    "snapgridsize": 10,
    "snaptogrid": true,
    "wType": "FlexContainer",
    "widgetalignment": 1,
    "zindex": 1
}