{
    "@class": "com.kony.gen.viz.model.component.KVizLabel",
    "DNDConfig": null,
    "__parentReadjusting__": false,
    "_bottom_": {
        "type": "string",
        "value": "0%"
    },
    "_height_": {
        "type": "ref",
        "value": "preferred"
    },
    "_left_": {
        "type": "string",
        "value": "3%"
    },
    "_margin_": [
        1,
        1,
        1,
        1
    ],
    "_padding_": [
        0,
        0,
        0,
        0
    ],
    "_skin_": "s4f9b513285f445db95f5bd98732b550",
    "_text_": "Set as default account for transfers",
    "_width_": {
        "type": "string",
        "value": "82%"
    },
    "_wrapping_": 2,
    "android": {
        "textStyle": {
            "letterSpacing": 0,
            "strikeThrough": false
        }
    },
    "canUpdateUI": true,
    "centery": {
        "type": "string",
        "value": "50%"
    },
    "containerweight": 100,
    "contentalignment": 4,
    "id": "CopylblAccountName0eb5cbe01e34946",
    "info": null,
    "ipad": {
        "psp": {
            "wrapping": 2
        }
    },
    "iphone": {
        "psp": {
            "wrapping": 2
        }
    },
    "isvisible": true,
    "kuid": "aa5f70d91f9d41d6963ec682f3d71e76",
    "name": "kony.ui.Label",
    "paddinginpixel": false,
    "parent": "CopyflxAcc0i857e2a87d0a46",
    "pf": "frmEditAccountSettings",
    "texti18n": "i18n.AccountNickName.defaultAccount",
    "tooltip": "",
    "wType": "Label",
    "zindex": 1
}