{
    "DNDConfig": null,
    "__parentReadjusting__": false,
    "_height_": {
        "type": "string",
        "value": "12%"
    },
    "_left_": {
        "type": "string",
        "value": "5%"
    },
    "_margin_": [
        0,
        0,
        0,
        0
    ],
    "_orientation_": 6,
    "_padding_": [
        0,
        0,
        0,
        0
    ],
    "_percent_": true,
    "_skin_": "s388f0c575ef4d08ac3a5ed0a4b90085",
    "_top_": {
        "type": "string",
        "value": "2%"
    },
    "_width_": {
        "type": "string",
        "value": "90%"
    },
    "allboxes": [],
    "autogrowmode": 0,
    "canUpdateUI": true,
    "children": [
        "lblAccountName2",
        "flxeStatmentSwitchOn",
        "flxeStatmentSwitchOff"
    ],
    "clipbounds": true,
    "containerweight": 100,
    "enablescrolling": true,
    "id": "flxAcc2",
    "ide_onTouchStart": "AS_FlexContainer_edc8258148a249eea6c932e80dbfb4c1",
    "info": null,
    "isvisible": false,
    "kuid": "ja38aaa072d84d5a8c8b7b6def24a36e",
    "layouttype": 2,
    "name": "kony.ui.FlexContainer",
    "parent": "flxScrollBody",
    "pf": "frmEditAccountSettings",
    "snapgridsize": 10,
    "snaptogrid": true,
    "wType": "FlexContainer",
    "widgetalignment": 1,
    "zindex": 1
}